
[Client] packet : (0x0B) F_PING  Size = 32 
|------------------------------------------------|----------------|
|00 01 02 03 04 05 06 07 08 09 0A 0B 0C 0D 0E 0F |0123456789ABCDEF|
|------------------------------------------------|----------------|
|00 14 6E 81 00 4A 00 00 00 0B 00 7E 9F 1B E0 57 |..n..J.....~...W|
|EA FB 9D FB DC 7C 00 00 00 00 00 00 00 00 3D 1A |.....|........=.|                                                
-------------------------------------------------------------------
[Server] packet : (0x81) S_PONG  Size = 23 
|------------------------------------------------|----------------|
|00 01 02 03 04 05 06 07 08 09 0A 0B 0C 0D 0E 0F |0123456789ABCDEF|
|------------------------------------------------|----------------|
|00 14 81 00 7E 9F 1B 52 87 47 E1 00 00 00 00 00 |....~..R.G......|
|00 6E 82 00 00 00 00                            |.......         |
-------------------------------------------------------------------
[Client] packet : (0xD2) F_INTERACT  Size = 24 
|------------------------------------------------|----------------|
|00 01 02 03 04 05 06 07 08 09 0A 0B 0C 0D 0E 0F |0123456789ABCDEF|
|------------------------------------------------|----------------|
|00 0C 6E 86 00 4A 00 00 00 D2 00 00 10 63 00 0B |..n..J.......c..|
|00 03 00 00 00 01 00 00                         |........        |
-------------------------------------------------------------------
[Client] packet : (0x01) UNKNOWN  Size = 32 
|------------------------------------------------|----------------|
|00 01 02 03 04 05 06 07 08 09 0A 0B 0C 0D 0E 0F |0123456789ABCDEF|
|------------------------------------------------|----------------|
|00 14 6E 87 00 4A 00 00 00 01 00 7E A1 70 00 00 |..n..J.....~.p..|
|00 00 00 00 00 00 00 00 02 08 00 00 3A 90 94 25 |............:..%|                                                
-------------------------------------------------------------------
[Server] packet : (0xAA) F_GET_ITEM  Size = 220 
|------------------------------------------------|----------------|
|00 01 02 03 04 05 06 07 08 09 0A 0B 0C 0D 0E 0F |0123456789ABCDEF|
|------------------------------------------------|----------------|
|00 D9 AA 01 00 00 00 01 F4 00 00 03 2E 56 22 B9 |.............V".|
|00 00 00 00 00 00 00 00 00 24 00 00 00 00 00 01 |.........$......|
|00 00 00 00 00 00 00 00 00 00 00 00 00 00 09 C4 |................|
|00 08 00 00 00 00 00 00 00 00 00 00 00 00 09 57 |...............W|
|61 72 20 43 72 65 73 74 00 00 00 00 00 00 71 50 |ar Crest......qP|
|72 6F 6F 66 20 6F 66 20 79 6F 75 72 20 76 61 6C |roof of your val|
|6F 72 20 6F 6E 20 74 68 65 20 66 69 65 6C 64 20 |or on the field |
|6F 66 20 62 61 74 74 6C 65 2E 20 54 68 65 73 65 |of battle. These|
|20 6D 61 79 20 62 65 20 75 73 65 64 20 74 6F 20 | may be used to |
|74 72 61 64 65 20 66 6F 72 20 65 71 75 69 70 6D |trade for equipm|
|65 6E 74 20 66 72 6F 6D 20 76 61 72 69 6F 75 73 |ent from various|
|20 51 75 61 72 74 65 72 6D 61 73 74 65 72 73 2E | Quartermasters.|
|01 00 00 00 03 06 00 08 01 00 00 00 00 00 00 00 |................|
|00 00 00 00 00 00 00 00 00 00 00 00             |............    |
-------------------------------------------------------------------
[Server] packet : (0xAA) F_GET_ITEM  Size = 231 
|------------------------------------------------|----------------|
|00 01 02 03 04 05 06 07 08 09 0A 0B 0C 0D 0E 0F |0123456789ABCDEF|
|------------------------------------------------|----------------|
|00 E4 AA 01 00 00 00 02 BD 00 00 03 1D 2A 12 48 |.............*.H|
|00 00 00 00 00 00 00 00 00 15 00 00 00 00 00 04 |................|
|00 00 00 00 00 00 00 00 00 00 00 00 00 00 00 01 |................|
|00 01 00 00 00 00 00 00 00 00 00 00 00 00 19 4D |...............M|
|61 6A 6F 72 20 46 6C 61 73 68 20 6F 66 20 42 72 |ajor Flash of Br|
|69 6C 6C 69 61 6E 63 65 00 00 00 00 00 00 6C 52 |illiance......lR|
|61 77 20 6D 61 67 69 63 61 6C 20 65 6E 65 72 67 |aw magical energ|
|69 65 73 20 64 65 6C 69 76 65 72 20 61 20 67 72 |ies deliver a gr|
|65 61 74 20 64 65 61 6C 20 6F 66 20 64 69 73 74 |eat deal of dist|
|69 6C 6C 65 64 20 6B 6E 6F 77 6C 65 64 67 65 20 |illed knowledge |
|69 6E 74 6F 20 79 6F 75 72 20 63 6F 6E 73 63 69 |into your consci|
|6F 75 73 6E 65 73 73 2E 0A 0A 28 47 69 61 6E 74 |ousness...(Giant|
|20 58 50 20 52 65 77 61 72 64 29 01 01 00 00 03 | XP Reward).....|
|06 00 00 01 00 00 00 00 00 00 00 00 00 00 00 00 |................|
|00 00 00 00 00 00 00                            |.......         |
-------------------------------------------------------------------
[Server] packet : (0x51) F_ANIMATION  Size = 9 
|------------------------------------------------|----------------|
|00 01 02 03 04 05 06 07 08 09 0A 0B 0C 0D 0E 0F |0123456789ABCDEF|
|------------------------------------------------|----------------|
|00 06 51 33 84 00 7D 00 00                      |.........       |
-------------------------------------------------------------------
[Server] packet : (0x6F) F_LOCALIZED_STRING  Size = 88 
|------------------------------------------------|----------------|
|00 01 02 03 04 05 06 07 08 09 0A 0B 0C 0D 0E 0F |0123456789ABCDEF|
|------------------------------------------------|----------------|
|00 55 6F 02 20 00 00 05 48 00 00 00 04 01 00 1A |.Uo. ...H.......|
|4D 61 6A 6F 72 20 46 6C 61 73 68 20 6F 66 20 42 |Major Flash of B|
|72 69 6C 6C 69 61 6E 63 65 00 01 00 17 51 75 6F |rilliance....Quo|
|6E 61 20 74 68 65 20 51 75 65 73 74 69 6F 6E 61 |na the Questiona|
|62 6C 65 00 01 00 02 31 00 01 00 0C 33 20 57 61 |ble....1....3 Wa|
|72 20 43 72 65 73 74 00                         |........        |
-------------------------------------------------------------------
[Server] packet : (0x00) UNKNOWN  Size = 23 
|------------------------------------------------|----------------|
|00 01 02 03 04 05 06 07 08 09 0A 0B 0C 0D 0E 0F |0123456789ABCDEF|
|------------------------------------------------|----------------|
|00 14 00 00 7E A1 70 C1 F0 46 E7 00 00 00 00 00 |....~.p..F......|
|00 02 08 00 00 3A 00                            |.......         |
-------------------------------------------------------------------
[Server] packet : (0xAA) F_GET_ITEM  Size = 15 
|------------------------------------------------|----------------|
|00 01 02 03 04 05 06 07 08 09 0A 0B 0C 0D 0E 0F |0123456789ABCDEF|
|------------------------------------------------|----------------|
|00 0C AA 01 00 00 00 02 BD 00 00 00 00 00 00    |............... |
-------------------------------------------------------------------
[Server] packet : (0x5E) F_SET_TARGET  Size = 9 
|------------------------------------------------|----------------|
|00 01 02 03 04 05 06 07 08 09 0A 0B 0C 0D 0E 0F |0123456789ABCDEF|
|------------------------------------------------|----------------|
|00 06 5E 17 94 1C 31 01 00                      |.........       |
-------------------------------------------------------------------