
[Client] packet : (0x5A) F_PING_DATAGRAM  Size = 13 
|------------------------------------------------|----------------|
|00 01 02 03 04 05 06 07 08 09 0A 0B 0C 0D 0E 0F |0123456789ABCDEF|
|------------------------------------------------|----------------|
|00 01 1C 7C 00 05 FF FF 00 5A 00 F1 B7          |.............   |
-------------------------------------------------------------------
[Server] packet : (0x51) F_ANIMATION  Size = 9 
|------------------------------------------------|----------------|
|00 01 02 03 04 05 06 07 08 09 0A 0B 0C 0D 0E 0F |0123456789ABCDEF|
|------------------------------------------------|----------------|
|00 06 51 01 3B 00 AC 00 00                      |.........       |
-------------------------------------------------------------------
[Server] packet : (0x51) F_ANIMATION  Size = 9 
|------------------------------------------------|----------------|
|00 01 02 03 04 05 06 07 08 09 0A 0B 0C 0D 0E 0F |0123456789ABCDEF|
|------------------------------------------------|----------------|
|00 06 51 0D 2B 00 6C 00 00                      |.........       |
-------------------------------------------------------------------
[Client] packet : (0x01) UNKNOWN  Size = 32 
|------------------------------------------------|----------------|
|00 01 02 03 04 05 06 07 08 09 0A 0B 0C 0D 0E 0F |0123456789ABCDEF|
|------------------------------------------------|----------------|
|00 14 1C 7F 00 05 00 00 00 01 00 23 57 00 00 00 |...........#W...|
|00 00 00 00 00 00 00 00 02 40 00 00 07 A4 00 00 |.........@......|                                                
-------------------------------------------------------------------
[Server] packet : (0x51) F_ANIMATION  Size = 9 
|------------------------------------------------|----------------|
|00 01 02 03 04 05 06 07 08 09 0A 0B 0C 0D 0E 0F |0123456789ABCDEF|
|------------------------------------------------|----------------|
|00 06 51 0F E7 00 AC 00 00                      |.........       |
-------------------------------------------------------------------
[Server] packet : (0x00) UNKNOWN  Size = 23 
|------------------------------------------------|----------------|
|00 01 02 03 04 05 06 07 08 09 0A 0B 0C 0D 0E 0F |0123456789ABCDEF|
|------------------------------------------------|----------------|
|00 14 00 00 23 57 00 AA EC 84 65 00 00 00 00 00 |....#W....e.....|
|00 02 40 00 00 07 00                            |.......         |
-------------------------------------------------------------------
[Client] packet : (0x0B) F_PING  Size = 32 
|------------------------------------------------|----------------|
|00 01 02 03 04 05 06 07 08 09 0A 0B 0C 0D 0E 0F |0123456789ABCDEF|
|------------------------------------------------|----------------|
|00 14 1C 83 00 05 00 00 00 0B 00 23 61 CB F5 17 |...........#a...|
|2F 7D D3 7F 4A FD 00 00 00 00 00 00 00 00 F0 ED |/}..J...........|                                                
-------------------------------------------------------------------
[Server] packet : (0x81) S_PONG  Size = 23 
|------------------------------------------------|----------------|
|00 01 02 03 04 05 06 07 08 09 0A 0B 0C 0D 0E 0F |0123456789ABCDEF|
|------------------------------------------------|----------------|
|00 14 81 00 23 61 CB 52 81 63 83 00 00 00 00 00 |....#a.R.c......|
|00 1C 84 00 00 00 00                            |.......         |
-------------------------------------------------------------------
[Server] packet : (0x1A) F_CAMPAIGN_STATUS  Size = 159 
|------------------------------------------------|----------------|
|00 01 02 03 04 05 06 07 08 09 0A 0B 0C 0D 0E 0F |0123456789ABCDEF|
|------------------------------------------------|----------------|
|00 9C 1A 00 09 00 67 00 CB 00 00 00 00 00 32 32 |......g.......22|
|00 32 32 00 32 32 00 43 00 00 32 32 00 32 32 00 |.22.22.C..22.22.|
|32 32 00 00 00 00 64 00 00 32 32 00 32 32 68 90 |22....d..22.22h.|
|68 90 68 90 68 90 68 90 68 90 68 90 68 90 68 90 |h.h.h.h.h.h.h.h.|
|00 00 68 90 68 90 00 64 64 00 00 00 00 00 00 00 |..h.h..dd.......|
|00 00 00 00 00 00 00 00 00 00 00 00 00 00 01 00 |................|
|00 00 00 00 00 00 00 00 00 00 00 00 00 00 00 00 |................|
|00 00 00 00 00 00 00 00 00 00 00 00 00 00 00 00 |................|
|00 03 00 02 02 03 03 01 01 00 03 03 01 01 00 03 |................|
|FF 01 3C 28 0A 3C 00 00 00 03 84 00 00 00 00    |............... |
-------------------------------------------------------------------
[Client] packet : (0x0B) F_PING  Size = 32 
|------------------------------------------------|----------------|
|00 01 02 03 04 05 06 07 08 09 0A 0B 0C 0D 0E 0F |0123456789ABCDEF|
|------------------------------------------------|----------------|
|00 14 1C 8C 00 05 00 00 00 0B 00 23 75 7D C3 B0 |...........#u}..|
|50 15 27 46 05 E3 00 00 00 00 00 00 00 00 F0 ED |P.'F............|                                                
-------------------------------------------------------------------
[Server] packet : (0x81) S_PONG  Size = 23 
|------------------------------------------------|----------------|
|00 01 02 03 04 05 06 07 08 09 0A 0B 0C 0D 0E 0F |0123456789ABCDEF|
|------------------------------------------------|----------------|
|00 14 81 00 23 75 7D 52 81 63 88 00 00 00 00 00 |....#u}R.c......|
|00 1C 8D 00 00 00 00                            |.......         |
-------------------------------------------------------------------
[Client] packet : (0x16) F_REQUEST_INIT_OBJECT  Size = 16 
|------------------------------------------------|----------------|
|00 01 02 03 04 05 06 07 08 09 0A 0B 0C 0D 0E 0F |0123456789ABCDEF|
|------------------------------------------------|----------------|
|00 04 1C 8D 00 05 00 00 00 16 10 C2 00 00 52 B1 |..............R.|                                                
-------------------------------------------------------------------
[Server] packet : (0x72) F_CREATE_MONSTER  Size = 108 
|------------------------------------------------|----------------|
|00 01 02 03 04 05 06 07 08 09 0A 0B 0C 0D 0E 0F |0123456789ABCDEF|
|------------------------------------------------|----------------|
|00 69 72 10 C2 00 EB 0B 93 29 FA 00 0F D0 13 00 |.ir......)......|
|10 40 4A 00 00 04 3C 32 07 61 00 00 00 00 00 00 |.@J...<2.a......|
|00 00 00 03 E8 00 00 00 00 89 66 00 04 00 00 01 |..........f.....|
|19 00 47 6F 6C 64 65 6E 77 69 6E 67 20 46 6C 69 |..Goldenwing Fli|
|65 72 5E 6D 00 01 0A 00 00 00 1A 05 00 10 C2 50 |er^m...........P|
|13 C0 4A 29 FA 64 21 C8 00 00 00 00 00 EB 00 00 |..J).d!.........|
|AD 59 AE BE FA 29 C8 10 C2 00 00 00             |............    |
-------------------------------------------------------------------
[Client] packet : (0x16) F_REQUEST_INIT_OBJECT  Size = 16 
|------------------------------------------------|----------------|
|00 01 02 03 04 05 06 07 08 09 0A 0B 0C 0D 0E 0F |0123456789ABCDEF|
|------------------------------------------------|----------------|
|00 04 1C 92 00 05 00 00 00 16 39 61 00 00 F4 F6 |..........9a....|                                                
-------------------------------------------------------------------
[Server] packet : (0x72) F_CREATE_MONSTER  Size = 108 
|------------------------------------------------|----------------|
|00 01 02 03 04 05 06 07 08 09 0A 0B 0C 0D 0E 0F |0123456789ABCDEF|
|------------------------------------------------|----------------|
|00 69 72 39 61 00 EB 0D A8 27 DB 00 0F D8 91 00 |.ir9a....'......|
|10 40 00 FF 88 04 3C 32 07 61 00 00 00 00 00 00 |.@....<2.a......|
|00 00 00 03 E8 00 00 00 00 89 66 00 05 00 00 01 |..........f.....|
|19 00 47 6F 6C 64 65 6E 77 69 6E 67 20 46 6C 69 |..Goldenwing Fli|
|65 72 5E 6D 00 01 0A 00 00 00 1A 05 00 39 61 58 |er^m.........9aX|
|91 C0 00 27 DB 64 21 C8 00 00 00 00 00 EB 00 9E |...'.d!.........|
|45 5A 4C C1 B9 26 C8 39 61 00 00 00             |............    |
-------------------------------------------------------------------
[Client] packet : (0x01) UNKNOWN  Size = 32 
|------------------------------------------------|----------------|
|00 01 02 03 04 05 06 07 08 09 0A 0B 0C 0D 0E 0F |0123456789ABCDEF|
|------------------------------------------------|----------------|
|00 14 1C 95 00 05 00 00 00 01 00 23 7E 46 20 07 |...........#~F .|
|2A 68 90 38 40 04 00 23 39 B8 08 18 D0 4E A3 2B |*h.8@..#9....N.+|                                                
-------------------------------------------------------------------
[Server] packet : (0x00) UNKNOWN  Size = 23 
|------------------------------------------------|----------------|
|00 01 02 03 04 05 06 07 08 09 0A 0B 0C 0D 0E 0F |0123456789ABCDEF|
|------------------------------------------------|----------------|
|00 14 00 00 23 7E 46 AA EC AB 36 00 00 00 00 00 |....#~F...6.....|
|23 39 B8 08 18 D0 00                            |.......         |
-------------------------------------------------------------------
[Client] packet : (0x0B) F_PING  Size = 32 
|------------------------------------------------|----------------|
|00 01 02 03 04 05 06 07 08 09 0A 0B 0C 0D 0E 0F |0123456789ABCDEF|
|------------------------------------------------|----------------|
|00 14 1C 99 00 05 00 00 00 0B 00 23 88 95 06 98 |...........#....|
|00 94 67 84 3F 8A 00 00 00 00 00 00 00 00 F0 ED |..g.?...........|                                                
-------------------------------------------------------------------
[Server] packet : (0x81) S_PONG  Size = 23 
|------------------------------------------------|----------------|
|00 01 02 03 04 05 06 07 08 09 0A 0B 0C 0D 0E 0F |0123456789ABCDEF|
|------------------------------------------------|----------------|
|00 14 81 00 23 88 95 52 81 63 8C 00 00 00 00 00 |....#..R.c......|
|00 1C 9A 00 00 00 00                            |.......         |
-------------------------------------------------------------------
[Server] packet : (0x51) F_ANIMATION  Size = 9 
|------------------------------------------------|----------------|
|00 01 02 03 04 05 06 07 08 09 0A 0B 0C 0D 0E 0F |0123456789ABCDEF|
|------------------------------------------------|----------------|
|00 06 51 01 3C 00 E5 00 00                      |.........       |
-------------------------------------------------------------------
[Server] packet : (0x1A) F_CAMPAIGN_STATUS  Size = 159 
|------------------------------------------------|----------------|
|00 01 02 03 04 05 06 07 08 09 0A 0B 0C 0D 0E 0F |0123456789ABCDEF|
|------------------------------------------------|----------------|
|00 9C 1A 00 09 00 67 00 CB 00 00 00 00 00 32 32 |......g.......22|
|00 32 32 00 32 32 00 64 00 00 32 32 00 32 32 00 |.22.22.d..22.22.|
|32 32 00 00 00 00 64 00 00 32 32 00 32 32 00 00 |22....d..22.22..|
|00 00 00 00 00 00 00 00 00 00 00 00 00 00 00 00 |................|
|00 00 00 00 00 00 00 64 64 00 00 00 00 00 00 00 |.......dd.......|
|00 00 00 00 00 00 00 00 00 00 00 00 00 00 01 00 |................|
|00 00 00 00 00 00 00 00 00 00 00 00 00 00 00 00 |................|
|00 00 00 00 00 00 00 00 00 00 00 00 00 00 00 00 |................|
|00 03 00 02 02 03 03 01 01 00 03 03 01 01 00 03 |................|
|FF 01 3C 28 0A 3C 00 00 00 03 84 00 00 00 00    |............... |
-------------------------------------------------------------------
[Server] packet : (0xD7) F_INIT_EFFECTS  Size = 353 
|------------------------------------------------|----------------|
|00 01 02 03 04 05 06 07 08 09 0A 0B 0C 0D 0E 0F |0123456789ABCDEF|
|------------------------------------------------|----------------|
|01 5E D7 14 00 00 00 27 94 18 00 F9 20 80 9E AE |.^.....'.... ...|
|01 94 27 01 00 02 19 00 FA 20 80 9E AE 01 94 27 |..'...... .....'|
|01 00 C8 01 1A 00 F0 20 80 9E AE 01 94 27 01 00 |....... .....'..|
|02 04 00 FD 6E 80 9E AE 01 94 27 01 00 02 12 00 |....n.....'.....|
|A0 38 80 9E AE 01 94 27 01 00 32 06 00 2A 6F 80 |.8.....'..2..*o.|
|9E AE 01 94 27 01 00 02 1B 00 F3 20 80 9E AE 01 |....'...... ....|
|94 27 01 00 02 1C 00 11 3B 80 9E AE 01 94 27 01 |.'......;.....'.|
|00 0A 0C 00 E2 0B 80 9E AE 01 94 27 01 02 02 10 |...........'....|
|00 ED 01 80 9E AE 01 94 27 0A 00 40 01 52 02 74 |........'..@.R.t|
|03 B0 01 04 84 02 05 EE 02 06 F4 01 07 86 01 08 |................|
|10 09 32 08 00 BF 33 80 9E AE 01 94 27 01 00 C8 |..2...3.....'...|
|01 0B 00 97 70 80 9E AE 01 94 27 03 00 02 02 C0 |....p.....'.....|
|D5 01 04 62 07 00 CE 20 80 9E AE 01 94 27 03 00 |...b... .....'..|
|02 04 02 05 C0 02 05 00 8A 37 80 9E AE 01 94 27 |.........7.....'|
|01 00 0A 02 00 8B 61 80 9E AE 01 94 27 04 00 32 |......a.....'..2|
|01 32 02 64 03 64 0E 00 EC 01 80 9E AE 01 94 27 |.2.d.d.........'|
|04 00 90 03 01 90 03 02 90 03 03 90 03 11 00 DE |................|
|01 80 9E AE 01 94 27 01 01 02 0D 00 EA 01 80 9E |......'.........|
|AE 01 94 27 05 00 02 01 5B 02 02 05 02 09 8F CB |...'....[.......|
|01 01 00 4C 61 80 9E AE 01 94 27 03 00 C7 01 01 |...La.....'.....|
|C7 01 02 C7 01 0F 00 51 0C 80 9E AE 01 94 27 06 |.......Q......'.|
|00 C7 01 01 C7 01 02 C7 01 03 C7 01 04 02 05 02 |................|
|00                                              |.               |
-------------------------------------------------------------------
[Client] packet : (0x5A) F_PING_DATAGRAM  Size = 13 
|------------------------------------------------|----------------|
|00 01 02 03 04 05 06 07 08 09 0A 0B 0C 0D 0E 0F |0123456789ABCDEF|
|------------------------------------------------|----------------|
|00 01 1C 9E 00 05 FF FF 00 5A 00 F5 97          |.............   |
-------------------------------------------------------------------
[Client] packet : (0x07) F_TEXT  Size = 28 
|------------------------------------------------|----------------|
|00 01 02 03 04 05 06 07 08 09 0A 0B 0C 0D 0E 0F |0123456789ABCDEF|
|------------------------------------------------|----------------|
|00 10 1C A0 00 05 FF FF 00 07 00 26 6B 69 63 6B |...........&kick|
|20 44 61 73 63 6F 75 62 00 00 00 00             |............    |
-------------------------------------------------------------------
[Server] packet : (0xD8) F_GROUP_STATUS  Size = 17 
|------------------------------------------------|----------------|
|00 01 02 03 04 05 06 07 08 09 0A 0B 0C 0D 0E 0F |0123456789ABCDEF|
|------------------------------------------------|----------------|
|00 0E D8 00 00 00 00 0E 02 EA A1 86 01 CC DF 96 |................|
|00                                              |.               |
-------------------------------------------------------------------
[Server] packet : (0xBE) F_CHARACTER_INFO  Size = 10 
|------------------------------------------------|----------------|
|00 01 02 03 04 05 06 07 08 09 0A 0B 0C 0D 0E 0F |0123456789ABCDEF|
|------------------------------------------------|----------------|
|00 07 BE 06 01 C8 7D 9C E4 00                   |..........      |
-------------------------------------------------------------------
[Server] packet : (0xD8) F_GROUP_STATUS  Size = 23 
|------------------------------------------------|----------------|
|00 01 02 03 04 05 06 07 08 09 0A 0B 0C 0D 0E 0F |0123456789ABCDEF|
|------------------------------------------------|----------------|
|00 14 D8 3E C4 01 00 02 00 00 1B 32 1C 00 00 00 |...>.......2....|
|25 AF CC 00 25 AF 00                            |.......         |
-------------------------------------------------------------------
[Client] packet : (0x0B) F_PING  Size = 32 
|------------------------------------------------|----------------|
|00 01 02 03 04 05 06 07 08 09 0A 0B 0C 0D 0E 0F |0123456789ABCDEF|
|------------------------------------------------|----------------|
|00 14 1C A6 00 05 00 00 00 0B 00 23 9C 1D D4 60 |...........#...`|
|54 85 23 40 85 E1 00 00 00 00 00 00 00 00 F0 ED |T.#@............|                                                
-------------------------------------------------------------------
[Server] packet : (0x81) S_PONG  Size = 23 
|------------------------------------------------|----------------|
|00 01 02 03 04 05 06 07 08 09 0A 0B 0C 0D 0E 0F |0123456789ABCDEF|
|------------------------------------------------|----------------|
|00 14 81 00 23 9C 1D 52 81 63 92 00 00 00 00 00 |....#..R.c......|
|00 1C A7 00 00 00 00                            |.......         |
-------------------------------------------------------------------