
[Client] packet : (0x01) UNKNOWN  Size = 32 
|------------------------------------------------|----------------|
|00 01 02 03 04 05 06 07 08 09 0A 0B 0C 0D 0E 0F |0123456789ABCDEF|
|------------------------------------------------|----------------|
|00 14 12 9D 00 05 00 00 00 01 00 12 01 73 00 23 |.............s.#|
|39 B0 08 18 C0 4A 20 07 7F 6D 90 38 7F 54 5F 24 |9....J ..m.8.T_$|                                                
-------------------------------------------------------------------
[Server] packet : (0x00) UNKNOWN  Size = 23 
|------------------------------------------------|----------------|
|00 01 02 03 04 05 06 07 08 09 0A 0B 0C 0D 0E 0F |0123456789ABCDEF|
|------------------------------------------------|----------------|
|00 14 00 00 12 01 73 AA DB 2E 30 00 00 00 00 20 |......s...0.... |
|07 7F 6D 90 38 7F 00                            |.......         |
-------------------------------------------------------------------
[Client] packet : (0x07) F_TEXT  Size = 35 
|------------------------------------------------|----------------|
|00 01 02 03 04 05 06 07 08 09 0A 0B 0C 0D 0E 0F |0123456789ABCDEF|
|------------------------------------------------|----------------|
|00 17 12 A6 00 05 FF FF 00 07 00 26 69 6E 76 69 |...........&invi|
|74 65 20 44 72 6F 6C 65 64 65 66 65 6D 6D 65 00 |te Droledefemme.|
|00 00 00                                        |...             |
-------------------------------------------------------------------
[Client] packet : (0x0B) F_PING  Size = 32 
|------------------------------------------------|----------------|
|00 01 02 03 04 05 06 07 08 09 0A 0B 0C 0D 0E 0F |0123456789ABCDEF|
|------------------------------------------------|----------------|
|00 14 12 A7 00 05 00 00 00 0B 00 12 16 46 0D 2B |.............F.+|
|BD B5 9A BD FA FF 00 00 00 00 00 00 00 00 F0 ED |................|                                                
-------------------------------------------------------------------
[Server] packet : (0x6F) F_LOCALIZED_STRING  Size = 31 
|------------------------------------------------|----------------|
|00 01 02 03 04 05 06 07 08 09 0A 0B 0C 0D 0E 0F |0123456789ABCDEF|
|------------------------------------------------|----------------|
|00 1C 6F 00 00 00 00 01 97 00 00 00 01 01 00 0F |..o.............|
|44 72 6F 6C 65 64 65 66 65 6D 6D 65 5E 46 00    |............... |
-------------------------------------------------------------------
[Server] packet : (0x81) S_PONG  Size = 23 
|------------------------------------------------|----------------|
|00 01 02 03 04 05 06 07 08 09 0A 0B 0C 0D 0E 0F |0123456789ABCDEF|
|------------------------------------------------|----------------|
|00 14 81 00 12 16 46 52 81 5F 15 00 00 00 00 00 |......FR._......|
|00 12 A8 00 00 00 00                            |.......         |
-------------------------------------------------------------------
[Server] packet : (0xBE) F_CHARACTER_INFO  Size = 176 
|------------------------------------------------|----------------|
|00 01 02 03 04 05 06 07 08 09 0A 0B 0C 0D 0E 0F |0123456789ABCDEF|
|------------------------------------------------|----------------|
|00 AD BE 06 02 C4 7D 03 CC DF 96 01 0F 2A 03 0F |......}......*..|
|00 18 02 01 00 01 07 00 00 00 57 61 72 65 6D 68 |..........Waremh|
|75 07 00 00 00 57 61 72 20 45 6D 75 A0 D0 01 C3 |u....War Emu....|
|BB 03 DC 24 9B 4E 78 40 01 02 90 03 01 64 64 00 |...$.Nx@.....dd.|
|9C E4 6C 0F 19 03 28 00 0E 02 00 00 01 07 00 00 |..l...(.........|
|00 44 61 73 63 6F 75 62 08 00 00 00 56 6F 78 20 |.Dascoub....Vox |
|49 72 61 65 E7 D0 01 D2 BA 03 DC 24 0D 7D B1 40 |Irae.......$.}.@|
|01 02 90 03 01 64 64 00 EA A1 86 01 0F 2A 03 28 |.....dd......*.(|
|00 18 02 01 00 01 0C 00 00 00 44 72 6F 6C 65 64 |..........Droled|
|65 66 65 6D 6D 65 08 00 00 00 56 6F 78 20 49 72 |efemme....Vox Ir|
|61 65 00 00 00 00 00 00 00 01 00 00 01 64 64 00 |ae...........dd.|                                                
-------------------------------------------------------------------
[Server] packet : (0x33) UNKNOWN  Size = 32 
|------------------------------------------------|----------------|
|00 01 02 03 04 05 06 07 08 09 0A 0B 0C 0D 0E 0F |0123456789ABCDEF|
|------------------------------------------------|----------------|
|00 1D 33 07 EA 90 21 00 00 00 00 00 00 00 00 01 |..3...!.........|
|00 00 00 00 00 00 00 00 00 00 00 01 64 64 64 00 |............ddd.|                                                
-------------------------------------------------------------------
[Server] packet : (0x33) UNKNOWN  Size = 49 
|------------------------------------------------|----------------|
|00 01 02 03 04 05 06 07 08 09 0A 0B 0C 0D 0E 0F |0123456789ABCDEF|
|------------------------------------------------|----------------|
|00 2E 33 18 EA 90 21 0F 00 2A 00 03 00 28 00 18 |..3...!..*...(..|
|02 01 00 01 0C 00 0D 08 00 09 44 72 6F 6C 65 64 |..........Droled|
|65 66 65 6D 6D 65 00 56 6F 78 20 49 72 61 65 00 |efemme.Vox Irae.|
|00                                              |.               |
-------------------------------------------------------------------
[Server] packet : (0xBE) F_CHARACTER_INFO  Size = 30 
|------------------------------------------------|----------------|
|00 01 02 03 04 05 06 07 08 09 0A 0B 0C 0D 0E 0F |0123456789ABCDEF|
|------------------------------------------------|----------------|
|00 1B BE 06 04 C4 7D CC DF 96 01 F5 17 00 9C E4 |......}.........|
|6C 94 4F 00 EA A1 86 01 BD 72 00 00 00 00       |..............  |
-------------------------------------------------------------------
[Server] packet : (0xD8) F_GROUP_STATUS  Size = 23 
|------------------------------------------------|----------------|
|00 01 02 03 04 05 06 07 08 09 0A 0B 0C 0D 0E 0F |0123456789ABCDEF|
|------------------------------------------------|----------------|
|00 14 D8 3E C4 01 FF 00 02 00 00 00 00 00 01 00 |...>............|
|25 AF CC 00 25 AF 00                            |.......         |
-------------------------------------------------------------------
[Server] packet : (0xD8) F_GROUP_STATUS  Size = 11 
|------------------------------------------------|----------------|
|00 01 02 03 04 05 06 07 08 09 0A 0B 0C 0D 0E 0F |0123456789ABCDEF|
|------------------------------------------------|----------------|
|00 08 D8 3E C4 02 FF 00 00 00 00                |...........     |
-------------------------------------------------------------------
[Server] packet : (0xD8) F_GROUP_STATUS  Size = 11 
|------------------------------------------------|----------------|
|00 01 02 03 04 05 06 07 08 09 0A 0B 0C 0D 0E 0F |0123456789ABCDEF|
|------------------------------------------------|----------------|
|00 08 D8 3E C4 02 FF 01 00 00 00                |...........     |
-------------------------------------------------------------------
[Server] packet : (0x33) UNKNOWN  Size = 32 
|------------------------------------------------|----------------|
|00 01 02 03 04 05 06 07 08 09 0A 0B 0C 0D 0E 0F |0123456789ABCDEF|
|------------------------------------------------|----------------|
|00 1D 33 07 EA 90 21 CC 68 05 DE 5C 12 0C 72 01 |..3...!.h..\..r.|
|00 00 00 01 00 00 00 C8 00 00 00 01 64 64 00 00 |............dd..|                                                
-------------------------------------------------------------------
[Client] packet : (0x5A) F_PING_DATAGRAM  Size = 13 
|------------------------------------------------|----------------|
|00 01 02 03 04 05 06 07 08 09 0A 0B 0C 0D 0E 0F |0123456789ABCDEF|
|------------------------------------------------|----------------|
|00 01 12 AC 00 05 FF FF 00 5A 00 D2 B5          |.............   |
-------------------------------------------------------------------