
[Client] packet : (0x5A) F_PING_DATAGRAM  Size = 13 
|------------------------------------------------|----------------|
|00 01 02 03 04 05 06 07 08 09 0A 0B 0C 0D 0E 0F |0123456789ABCDEF|
|------------------------------------------------|----------------|
|00 01 04 F7 00 49 FF FF 00 5A 00 1E EF          |.............   |
-------------------------------------------------------------------
[Client] packet : (0x01) UNKNOWN  Size = 32 
|------------------------------------------------|----------------|
|00 01 02 03 04 05 06 07 08 09 0A 0B 0C 0D 0E 0F |0123456789ABCDEF|
|------------------------------------------------|----------------|
|00 14 04 FC 00 49 00 00 00 01 00 07 88 8D 00 00 |.....I..........|
|00 00 00 00 00 00 00 00 10 16 00 00 12 51 00 00 |.............Q..|                                                
-------------------------------------------------------------------
[Server] packet : (0x0A) F_OBJECT_DEATH  Size = 15 
|------------------------------------------------|----------------|
|00 01 02 03 04 05 06 07 08 09 0A 0B 0C 0D 0E 0F |0123456789ABCDEF|
|------------------------------------------------|----------------|
|00 0C 0A 04 0B 00 00 00 00 00 00 00 00 00 00    |............... |
-------------------------------------------------------------------
[Server] packet : (0x00) UNKNOWN  Size = 23 
|------------------------------------------------|----------------|
|00 01 02 03 04 05 06 07 08 09 0A 0B 0C 0D 0E 0F |0123456789ABCDEF|
|------------------------------------------------|----------------|
|00 14 00 00 07 88 8D AF 54 8D F1 00 00 00 00 00 |........T.......|
|00 10 16 00 00 12 00                            |.......         |
-------------------------------------------------------------------
[Server] packet : (0x1B) F_REQ_CAMPAIGN_STATUS  Size = 15 
|------------------------------------------------|----------------|
|00 01 02 03 04 05 06 07 08 09 0A 0B 0C 0D 0E 0F |0123456789ABCDEF|
|------------------------------------------------|----------------|
|00 0C 1B 00 31 C5 00 00 15 4E D2 00 0E 16 00    |............... |
-------------------------------------------------------------------
[Server] packet : (0x1B) F_REQ_CAMPAIGN_STATUS  Size = 15 
|------------------------------------------------|----------------|
|00 01 02 03 04 05 06 07 08 09 0A 0B 0C 0D 0E 0F |0123456789ABCDEF|
|------------------------------------------------|----------------|
|00 0C 1B 00 17 5E 00 00 15 39 ED 00 0E 29 00    |............... |
-------------------------------------------------------------------
[Server] packet : (0x1B) F_REQ_CAMPAIGN_STATUS  Size = 15 
|------------------------------------------------|----------------|
|00 01 02 03 04 05 06 07 08 09 0A 0B 0C 0D 0E 0F |0123456789ABCDEF|
|------------------------------------------------|----------------|
|00 0C 1B 00 08 96 00 00 15 62 80 00 0E 69 00    |............... |
-------------------------------------------------------------------
[Client] packet : (0x0B) F_PING  Size = 32 
|------------------------------------------------|----------------|
|00 01 02 03 04 05 06 07 08 09 0A 0B 0C 0D 0E 0F |0123456789ABCDEF|
|------------------------------------------------|----------------|
|00 14 04 FF 00 49 00 00 00 0B 00 07 92 ED DE E8 |.....I..........|
|C4 06 25 02 32 8A 00 00 00 00 00 00 00 00 7F 05 |..%.2...........|                                                
-------------------------------------------------------------------
[Server] packet : (0x81) S_PONG  Size = 23 
|------------------------------------------------|----------------|
|00 01 02 03 04 05 06 07 08 09 0A 0B 0C 0D 0E 0F |0123456789ABCDEF|
|------------------------------------------------|----------------|
|00 14 81 00 07 92 ED 52 82 84 47 00 00 00 00 00 |.......R..G.....|
|00 05 00 00 00 00 00                            |.......         |
-------------------------------------------------------------------
[Server] packet : (0x0A) F_OBJECT_DEATH  Size = 15 
|------------------------------------------------|----------------|
|00 01 02 03 04 05 06 07 08 09 0A 0B 0C 0D 0E 0F |0123456789ABCDEF|
|------------------------------------------------|----------------|
|00 0C 0A 1C 49 00 00 00 00 00 00 00 00 00 00    |............... |
-------------------------------------------------------------------
[Server] packet : (0x1B) F_REQ_CAMPAIGN_STATUS  Size = 15 
|------------------------------------------------|----------------|
|00 01 02 03 04 05 06 07 08 09 0A 0B 0C 0D 0E 0F |0123456789ABCDEF|
|------------------------------------------------|----------------|
|00 0C 1B 00 08 96 00 00 15 5C 3F 00 0E 6A 00    |............... |
-------------------------------------------------------------------
[Client] packet : (0x0B) F_PING  Size = 32 
|------------------------------------------------|----------------|
|00 01 02 03 04 05 06 07 08 09 0A 0B 0C 0D 0E 0F |0123456789ABCDEF|
|------------------------------------------------|----------------|
|00 14 05 0A 00 49 00 00 00 0B 00 07 A6 7A 61 6B |.....I.......zak|
|3B B9 28 5B C7 DE 00 00 00 00 00 00 00 00 7F 05 |;.([............|                                                
-------------------------------------------------------------------
[Server] packet : (0x81) S_PONG  Size = 23 
|------------------------------------------------|----------------|
|00 01 02 03 04 05 06 07 08 09 0A 0B 0C 0D 0E 0F |0123456789ABCDEF|
|------------------------------------------------|----------------|
|00 14 81 00 07 A6 7A 52 82 84 4C 00 00 00 00 00 |......zR..L.....|
|00 05 0B 00 00 00 00                            |.......         |
-------------------------------------------------------------------
[Server] packet : (0x1B) F_REQ_CAMPAIGN_STATUS  Size = 15 
|------------------------------------------------|----------------|
|00 01 02 03 04 05 06 07 08 09 0A 0B 0C 0D 0E 0F |0123456789ABCDEF|
|------------------------------------------------|----------------|
|00 0C 1B 00 31 C5 00 00 15 56 6A 00 0E 17 00    |............... |
-------------------------------------------------------------------
[Server] packet : (0x1B) F_REQ_CAMPAIGN_STATUS  Size = 15 
|------------------------------------------------|----------------|
|00 01 02 03 04 05 06 07 08 09 0A 0B 0C 0D 0E 0F |0123456789ABCDEF|
|------------------------------------------------|----------------|
|00 0C 1B 00 17 5E 00 00 15 33 15 00 0E 2D 00    |............... |
-------------------------------------------------------------------
[Client] packet : (0x01) UNKNOWN  Size = 32 
|------------------------------------------------|----------------|
|00 01 02 03 04 05 06 07 08 09 0A 0B 0C 0D 0E 0F |0123456789ABCDEF|
|------------------------------------------------|----------------|
|00 14 05 13 00 49 00 00 00 01 00 07 B1 3D 00 00 |.....I.......=..|
|00 00 00 00 00 00 00 00 01 06 00 00 03 40 11 91 |.............@..|                                                
-------------------------------------------------------------------
[Server] packet : (0x00) UNKNOWN  Size = 23 
|------------------------------------------------|----------------|
|00 01 02 03 04 05 06 07 08 09 0A 0B 0C 0D 0E 0F |0123456789ABCDEF|
|------------------------------------------------|----------------|
|00 14 00 00 07 B1 3D AF 54 B6 9E 00 00 00 00 00 |......=.T.......|
|00 01 06 00 00 03 00                            |.......         |
-------------------------------------------------------------------
[Client] packet : (0x0B) F_PING  Size = 32 
|------------------------------------------------|----------------|
|00 01 02 03 04 05 06 07 08 09 0A 0B 0C 0D 0E 0F |0123456789ABCDEF|
|------------------------------------------------|----------------|
|00 14 05 15 00 49 00 00 00 0B 00 07 BA 05 9A 58 |.....I.........X|
|D4 81 46 07 84 C8 00 00 00 00 00 00 00 00 7F 05 |..F.............|                                                
-------------------------------------------------------------------
[Server] packet : (0x81) S_PONG  Size = 23 
|------------------------------------------------|----------------|
|00 01 02 03 04 05 06 07 08 09 0A 0B 0C 0D 0E 0F |0123456789ABCDEF|
|------------------------------------------------|----------------|
|00 14 81 00 07 BA 05 52 82 84 51 00 00 00 00 00 |.......R..Q.....|
|00 05 16 00 00 00 00                            |.......         |
-------------------------------------------------------------------
[Server] packet : (0x0A) F_OBJECT_DEATH  Size = 15 
|------------------------------------------------|----------------|
|00 01 02 03 04 05 06 07 08 09 0A 0B 0C 0D 0E 0F |0123456789ABCDEF|
|------------------------------------------------|----------------|
|00 0C 0A 2E 74 00 00 00 00 00 00 00 00 00 00    |............... |
-------------------------------------------------------------------
[Server] packet : (0x1B) F_REQ_CAMPAIGN_STATUS  Size = 15 
|------------------------------------------------|----------------|
|00 01 02 03 04 05 06 07 08 09 0A 0B 0C 0D 0E 0F |0123456789ABCDEF|
|------------------------------------------------|----------------|
|00 0C 1B 00 08 96 00 00 15 56 28 00 0E 70 00    |............... |
-------------------------------------------------------------------
[Client] packet : (0x5A) F_PING_DATAGRAM  Size = 13 
|------------------------------------------------|----------------|
|00 01 02 03 04 05 06 07 08 09 0A 0B 0C 0D 0E 0F |0123456789ABCDEF|
|------------------------------------------------|----------------|
|00 01 05 18 00 49 FF FF 00 5A 00 B6 2F          |.............   |
-------------------------------------------------------------------
[Server] packet : (0x96) F_KEEP_STATUS  Size = 29 
|------------------------------------------------|----------------|
|00 01 02 03 04 05 06 07 08 09 0A 0B 0C 0D 0E 0F |0123456789ABCDEF|
|------------------------------------------------|----------------|
|00 1A 96 07 01 00 02 02 02 64 4D 00 02 00 00 00 |.........dM.....|
|00 00 00 00 00 00 00 00 04 02 04 02 00          |.............   |
-------------------------------------------------------------------
[Server] packet : (0x1B) F_REQ_CAMPAIGN_STATUS  Size = 6 
|------------------------------------------------|----------------|
|00 01 02 03 04 05 06 07 08 09 0A 0B 0C 0D 0E 0F |0123456789ABCDEF|
|------------------------------------------------|----------------|
|00 03 1B 01 31 00                               |......          |
-------------------------------------------------------------------
[Server] packet : (0xC5) F_OBJECTIVE_STATE  Size = 19 
|------------------------------------------------|----------------|
|00 01 02 03 04 05 06 07 08 09 0A 0B 0C 0D 0E 0F |0123456789ABCDEF|
|------------------------------------------------|----------------|
|00 10 C5 00 00 00 B6 FF FF FF FF 00 78 00 78 02 |............x.x.|
|01 10 00                                        |...             |
-------------------------------------------------------------------
[Server] packet : (0xC6) F_REALM_BONUS  Size = 6 
|------------------------------------------------|----------------|
|00 01 02 03 04 05 06 07 08 09 0A 0B 0C 0D 0E 0F |0123456789ABCDEF|
|------------------------------------------------|----------------|
|00 03 C6 02 28 00                               |......          |
-------------------------------------------------------------------
[Server] packet : (0x1B) F_REQ_CAMPAIGN_STATUS  Size = 15 
|------------------------------------------------|----------------|
|00 01 02 03 04 05 06 07 08 09 0A 0B 0C 0D 0E 0F |0123456789ABCDEF|
|------------------------------------------------|----------------|
|00 0C 1B 00 17 5E 00 00 15 2B E4 00 0E 31 00    |............... |
-------------------------------------------------------------------
[Server] packet : (0x0A) F_OBJECT_DEATH  Size = 15 
|------------------------------------------------|----------------|
|00 01 02 03 04 05 06 07 08 09 0A 0B 0C 0D 0E 0F |0123456789ABCDEF|
|------------------------------------------------|----------------|
|00 0C 0A 09 8C 01 00 10 27 00 00 00 00 24 00    |............... |
-------------------------------------------------------------------
[Client] packet : (0x0B) F_PING  Size = 32 
|------------------------------------------------|----------------|
|00 01 02 03 04 05 06 07 08 09 0A 0B 0C 0D 0E 0F |0123456789ABCDEF|
|------------------------------------------------|----------------|
|00 14 05 20 00 49 00 00 00 0B 00 07 CD 91 4F 10 |... .I........O.|
|44 82 04 84 2E 83 00 00 00 00 00 00 00 00 7F 05 |D...............|                                                
-------------------------------------------------------------------
[Server] packet : (0x81) S_PONG  Size = 23 
|------------------------------------------------|----------------|
|00 01 02 03 04 05 06 07 08 09 0A 0B 0C 0D 0E 0F |0123456789ABCDEF|
|------------------------------------------------|----------------|
|00 14 81 00 07 CD 91 52 82 84 56 00 00 00 00 00 |.......R..V.....|
|00 05 21 00 00 00 00                            |.......         |
-------------------------------------------------------------------
[Server] packet : (0x96) F_KEEP_STATUS  Size = 29 
|------------------------------------------------|----------------|
|00 01 02 03 04 05 06 07 08 09 0A 0B 0C 0D 0E 0F |0123456789ABCDEF|
|------------------------------------------------|----------------|
|00 1A 96 0E 05 00 01 01 00 64 00 00 00 00 00 00 |.........d......|
|00 00 00 00 00 00 00 00 00 00 00 00 00          |.............   |
-------------------------------------------------------------------
[Server] packet : (0x1B) F_REQ_CAMPAIGN_STATUS  Size = 15 
|------------------------------------------------|----------------|
|00 01 02 03 04 05 06 07 08 09 0A 0B 0C 0D 0E 0F |0123456789ABCDEF|
|------------------------------------------------|----------------|
|00 0C 1B 00 17 5E 00 00 15 26 C5 00 0E 39 00    |............... |
-------------------------------------------------------------------
[Server] packet : (0x1B) F_REQ_CAMPAIGN_STATUS  Size = 15 
|------------------------------------------------|----------------|
|00 01 02 03 04 05 06 07 08 09 0A 0B 0C 0D 0E 0F |0123456789ABCDEF|
|------------------------------------------------|----------------|
|00 0C 1B 00 08 96 00 00 15 58 3B 00 0E 79 00    |............... |
-------------------------------------------------------------------
[Server] packet : (0x0A) F_OBJECT_DEATH  Size = 15 
|------------------------------------------------|----------------|
|00 01 02 03 04 05 06 07 08 09 0A 0B 0C 0D 0E 0F |0123456789ABCDEF|
|------------------------------------------------|----------------|
|00 0C 0A 38 AC 00 00 00 00 00 00 00 00 00 00    |............... |
-------------------------------------------------------------------
[Client] packet : (0x01) UNKNOWN  Size = 32 
|------------------------------------------------|----------------|
|00 01 02 03 04 05 06 07 08 09 0A 0B 0C 0D 0E 0F |0123456789ABCDEF|
|------------------------------------------------|----------------|
|00 14 05 29 00 49 00 00 00 01 00 07 D9 EC 00 00 |...).I..........|
|00 00 00 00 00 00 00 00 06 00 00 00 2B 15 00 00 |............+...|                                                
-------------------------------------------------------------------
[Server] packet : (0x0A) F_OBJECT_DEATH  Size = 15 
|------------------------------------------------|----------------|
|00 01 02 03 04 05 06 07 08 09 0A 0B 0C 0D 0E 0F |0123456789ABCDEF|
|------------------------------------------------|----------------|
|00 0C 0A 20 DB 00 00 00 00 00 00 00 00 00 00    |............... |
-------------------------------------------------------------------
[Server] packet : (0x00) UNKNOWN  Size = 23 
|------------------------------------------------|----------------|
|00 01 02 03 04 05 06 07 08 09 0A 0B 0C 0D 0E 0F |0123456789ABCDEF|
|------------------------------------------------|----------------|
|00 14 00 00 07 D9 EC AF 54 DF 11 00 00 00 00 00 |........T.......|
|00 06 00 00 00 2B 00                            |.......         |
-------------------------------------------------------------------
[Client] packet : (0x0B) F_PING  Size = 32 
|------------------------------------------------|----------------|
|00 01 02 03 04 05 06 07 08 09 0A 0B 0C 0D 0E 0F |0123456789ABCDEF|
|------------------------------------------------|----------------|
|00 14 05 2B 00 49 00 00 00 0B 00 07 E1 21 49 C8 |...+.I.......!I.|
|45 94 05 80 1C 48 00 00 00 00 00 00 00 00 7F 05 |E....H..........|                                                
-------------------------------------------------------------------
[Server] packet : (0x81) S_PONG  Size = 23 
|------------------------------------------------|----------------|
|00 01 02 03 04 05 06 07 08 09 0A 0B 0C 0D 0E 0F |0123456789ABCDEF|
|------------------------------------------------|----------------|
|00 14 81 00 07 E1 21 52 82 84 5B 00 00 00 00 00 |......!R..[.....|
|00 05 2C 00 00 00 00                            |.......         |
-------------------------------------------------------------------
[Server] packet : (0x96) F_KEEP_STATUS  Size = 29 
|------------------------------------------------|----------------|
|00 01 02 03 04 05 06 07 08 09 0A 0B 0C 0D 0E 0F |0123456789ABCDEF|
|------------------------------------------------|----------------|
|00 1A 96 0E 01 00 01 02 00 64 00 00 00 00 00 00 |.........d......|
|00 00 00 00 00 00 00 00 00 00 00 00 00          |.............   |
-------------------------------------------------------------------
[Server] packet : (0x0A) F_OBJECT_DEATH  Size = 15 
|------------------------------------------------|----------------|
|00 01 02 03 04 05 06 07 08 09 0A 0B 0C 0D 0E 0F |0123456789ABCDEF|
|------------------------------------------------|----------------|
|00 0C 0A 2F A2 00 00 00 00 00 00 00 00 00 00    |............... |
-------------------------------------------------------------------
[Server] packet : (0x1B) F_REQ_CAMPAIGN_STATUS  Size = 15 
|------------------------------------------------|----------------|
|00 01 02 03 04 05 06 07 08 09 0A 0B 0C 0D 0E 0F |0123456789ABCDEF|
|------------------------------------------------|----------------|
|00 0C 1B 00 17 5E 00 00 15 24 9C 00 0E 3E 00    |............... |
-------------------------------------------------------------------
[Server] packet : (0x1B) F_REQ_CAMPAIGN_STATUS  Size = 15 
|------------------------------------------------|----------------|
|00 01 02 03 04 05 06 07 08 09 0A 0B 0C 0D 0E 0F |0123456789ABCDEF|
|------------------------------------------------|----------------|
|00 0C 1B 00 08 96 00 00 15 5E E6 00 0E 7E 00    |............... |
-------------------------------------------------------------------
[Client] packet : (0x0B) F_PING  Size = 32 
|------------------------------------------------|----------------|
|00 01 02 03 04 05 06 07 08 09 0A 0B 0C 0D 0E 0F |0123456789ABCDEF|
|------------------------------------------------|----------------|
|00 14 05 36 00 49 00 00 00 0B 00 07 F4 BF 32 DF |...6.I........2.|
|3F 6E BE FF FF CD 00 00 00 00 00 00 00 00 7F 05 |?n..............|                                                
-------------------------------------------------------------------
[Server] packet : (0x81) S_PONG  Size = 23 
|------------------------------------------------|----------------|
|00 01 02 03 04 05 06 07 08 09 0A 0B 0C 0D 0E 0F |0123456789ABCDEF|
|------------------------------------------------|----------------|
|00 14 81 00 07 F4 BF 52 82 84 60 00 00 00 00 00 |.......R..`.....|
|00 05 37 00 00 00 00                            |.......         |
-------------------------------------------------------------------
[Client] packet : (0x5A) F_PING_DATAGRAM  Size = 13 
|------------------------------------------------|----------------|
|00 01 02 03 04 05 06 07 08 09 0A 0B 0C 0D 0E 0F |0123456789ABCDEF|
|------------------------------------------------|----------------|
|00 01 05 39 00 49 FF FF 00 5A 00 83 40          |.............   |
-------------------------------------------------------------------
[Server] packet : (0xA9) F_UPDATE_HOT_SPOT  Size = 406 
|------------------------------------------------|----------------|
|00 01 02 03 04 05 06 07 08 09 0A 0B 0C 0D 0E 0F |0123456789ABCDEF|
|------------------------------------------------|----------------|
|01 93 A9 50 02 00 01 00 00 00 00 02 00 00 00 00 |...P............|
|03 00 00 00 00 04 00 00 00 00 05 00 02 01 00 06 |................|
|00 00 00 00 07 00 00 00 00 08 00 00 00 00 09 00 |................|
|00 00 00 0A 00 00 00 00 0B 00 00 00 00 1A 00 00 |................|
|00 00 1B 00 00 00 00 44 00 00 00 00 46 00 00 00 |.......D....F...|
|00 47 00 00 00 00 4A 00 00 00 00 4B 00 00 00 00 |.G....J....K....|
|58 00 00 00 00 64 00 00 00 00 65 00 00 00 00 66 |X....d....e....f|
|00 00 00 00 67 00 00 00 00 68 00 00 00 00 69 00 |....g....h....i.|
|00 00 00 6A 03 00 00 00 6B 00 00 00 00 6C 00 00 |...j....k....l..|
|00 00 6D 00 00 00 00 6E 00 00 00 00 75 00 00 00 |..m....n....u...|
|00 76 00 00 00 00 78 00 00 00 00 81 00 00 00 00 |.v....x.........|
|90 00 00 00 00 91 00 00 00 00 A1 00 00 00 00 A2 |................|
|00 00 00 00 AF 00 00 00 00 B2 00 00 00 00 BE 00 |................|
|00 00 00 BF 00 00 00 00 C0 00 00 00 00 C1 00 00 |................|
|00 00 C6 00 00 00 00 C8 00 00 00 00 C9 00 00 00 |................|
|00 CA 00 00 00 00 CB 02 00 00 00 CC 00 00 00 00 |................|
|CD 00 00 00 00 CE 00 00 00 00 CF 00 00 00 00 D0 |................|
|00 00 00 00 D1 00 00 00 00 D2 00 00 00 00 D3 00 |................|
|00 00 00 D5 00 00 00 00 D7 00 00 00 00 D8 00 00 |................|
|00 00 D9 00 00 00 00 DC 00 00 00 00 DD 00 00 00 |................|
|00 DE 00 00 00 00 E3 00 00 00 00 E4 00 00 00 00 |................|
|FA 00 00 00 00 FB 00 00 00 00 FC 00 00 00 00 FD |................|
|00 00 00 01 15 00 00 00 01 16 00 00 00 01 18 00 |................|
|00 00 01 1B 00 00 00 01 1C 00 00 00 01 1D 00 00 |................|
|00 01 1F 00 00 00 01 22 00 00 00 01 23 00 00 00 |......."....#...|
|01 24 00 00 00 00                               |......          |
-------------------------------------------------------------------
[Server] packet : (0x1B) F_REQ_CAMPAIGN_STATUS  Size = 15 
|------------------------------------------------|----------------|
|00 01 02 03 04 05 06 07 08 09 0A 0B 0C 0D 0E 0F |0123456789ABCDEF|
|------------------------------------------------|----------------|
|00 0C 1B 00 17 5E 00 00 15 29 8F 00 0E 45 00    |............... |
-------------------------------------------------------------------
[Client] packet : (0x01) UNKNOWN  Size = 32 
|------------------------------------------------|----------------|
|00 01 02 03 04 05 06 07 08 09 0A 0B 0C 0D 0E 0F |0123456789ABCDEF|
|------------------------------------------------|----------------|
|00 14 05 40 00 49 00 00 00 01 00 08 02 A2 20 07 |...@.I........ .|
|2A 68 90 38 40 04 00 23 3B B8 08 18 D3 EE 00 00 |*h.8@..#;.......|                                                
-------------------------------------------------------------------
[Client] packet : (0x0B) F_PING  Size = 32 
|------------------------------------------------|----------------|
|00 01 02 03 04 05 06 07 08 09 0A 0B 0C 0D 0E 0F |0123456789ABCDEF|
|------------------------------------------------|----------------|
|00 14 05 41 00 49 00 00 00 0B 00 08 08 49 51 00 |...A.I.......IQ.|
|D5 91 66 85 9E 03 00 00 00 00 00 00 00 00 2F 8A |..f.........../.|                                                
-------------------------------------------------------------------
[Server] packet : (0x81) S_PONG  Size = 23 
|------------------------------------------------|----------------|
|00 01 02 03 04 05 06 07 08 09 0A 0B 0C 0D 0E 0F |0123456789ABCDEF|
|------------------------------------------------|----------------|
|00 14 81 00 08 08 49 52 82 84 65 00 00 00 00 00 |......IR..e.....|
|00 05 42 00 00 00 00                            |.......         |
-------------------------------------------------------------------
[Server] packet : (0x00) UNKNOWN  Size = 23 
|------------------------------------------------|----------------|
|00 01 02 03 04 05 06 07 08 09 0A 0B 0C 0D 0E 0F |0123456789ABCDEF|
|------------------------------------------------|----------------|
|00 14 00 00 08 02 A2 AF 55 07 B6 00 00 00 00 00 |........U.......|
|23 3B B8 08 18 D3 00                            |.......         |
-------------------------------------------------------------------
[Server] packet : (0x1B) F_REQ_CAMPAIGN_STATUS  Size = 15 
|------------------------------------------------|----------------|
|00 01 02 03 04 05 06 07 08 09 0A 0B 0C 0D 0E 0F |0123456789ABCDEF|
|------------------------------------------------|----------------|
|00 0C 1B 00 08 96 00 00 15 64 AC 00 0E 83 00    |............... |
-------------------------------------------------------------------
[Server] packet : (0x0A) F_OBJECT_DEATH  Size = 15 
|------------------------------------------------|----------------|
|00 01 02 03 04 05 06 07 08 09 0A 0B 0C 0D 0E 0F |0123456789ABCDEF|
|------------------------------------------------|----------------|
|00 0C 0A 13 E0 01 00 00 00 00 00 00 00 00 00    |............... |
-------------------------------------------------------------------
[Server] packet : (0x0A) F_OBJECT_DEATH  Size = 15 
|------------------------------------------------|----------------|
|00 01 02 03 04 05 06 07 08 09 0A 0B 0C 0D 0E 0F |0123456789ABCDEF|
|------------------------------------------------|----------------|
|00 0C 0A 2E 89 01 00 00 00 00 00 00 00 00 00    |............... |
-------------------------------------------------------------------
[Server] packet : (0x0A) F_OBJECT_DEATH  Size = 15 
|------------------------------------------------|----------------|
|00 01 02 03 04 05 06 07 08 09 0A 0B 0C 0D 0E 0F |0123456789ABCDEF|
|------------------------------------------------|----------------|
|00 0C 0A 0E C4 01 00 00 00 00 00 00 00 00 00    |............... |
-------------------------------------------------------------------
[Client] packet : (0x0B) F_PING  Size = 32 
|------------------------------------------------|----------------|
|00 01 02 03 04 05 06 07 08 09 0A 0B 0C 0D 0E 0F |0123456789ABCDEF|
|------------------------------------------------|----------------|
|00 14 05 4C 00 49 00 00 00 0B 00 08 1B DA 47 6B |...L.I........Gk|
|FF FE 79 BA D7 6B 00 00 00 00 00 00 00 00 7F 05 |..y..k..........|                                                
-------------------------------------------------------------------
[Server] packet : (0x81) S_PONG  Size = 23 
|------------------------------------------------|----------------|
|00 01 02 03 04 05 06 07 08 09 0A 0B 0C 0D 0E 0F |0123456789ABCDEF|
|------------------------------------------------|----------------|
|00 14 81 00 08 1B DA 52 82 84 6A 00 00 00 00 00 |.......R..j.....|
|00 05 4D 00 00 00 00                            |.......         |
-------------------------------------------------------------------
[Server] packet : (0x1B) F_REQ_CAMPAIGN_STATUS  Size = 15 
|------------------------------------------------|----------------|
|00 01 02 03 04 05 06 07 08 09 0A 0B 0C 0D 0E 0F |0123456789ABCDEF|
|------------------------------------------------|----------------|
|00 0C 1B 00 17 5E 00 00 15 2E 87 00 0E 4B 00    |............... |
-------------------------------------------------------------------
[Server] packet : (0x1B) F_REQ_CAMPAIGN_STATUS  Size = 15 
|------------------------------------------------|----------------|
|00 01 02 03 04 05 06 07 08 09 0A 0B 0C 0D 0E 0F |0123456789ABCDEF|
|------------------------------------------------|----------------|
|00 0C 1B 00 08 96 00 00 15 69 43 00 0E 87 00    |............... |
-------------------------------------------------------------------
[Server] packet : (0x0A) F_OBJECT_DEATH  Size = 15 
|------------------------------------------------|----------------|
|00 01 02 03 04 05 06 07 08 09 0A 0B 0C 0D 0E 0F |0123456789ABCDEF|
|------------------------------------------------|----------------|
|00 0C 0A 1B 73 01 00 23 5C 00 00 00 00 23 00    |............... |
-------------------------------------------------------------------
[Client] packet : (0x86) F_MAIL  Size = 73 
|------------------------------------------------|----------------|
|00 01 02 03 04 05 06 07 08 09 0A 0B 0C 0D 0E 0F |0123456789ABCDEF|
|------------------------------------------------|----------------|
|00 3D 05 51 00 49 FF FF 00 86 01 00 08 77 61 72 |.=.Q.I.......war|
|65 6D 68 75 00 09 00 74 65 73 74 20 30 30 34 00 |emhu...test 004.|
|1A 00 6F 62 6A 65 74 20 61 76 65 63 20 63 68 61 |..objet avec cha|
|72 67 65 20 64 65 20 32 30 50 41 00 D0 07 00 00 |rge de 20PA.....|
|01 01 C4 01 00 00 00 00 00                      |.........       |
-------------------------------------------------------------------
[Server] packet : (0x52) F_PLAYER_WEALTH  Size = 11 
|------------------------------------------------|----------------|
|00 01 02 03 04 05 06 07 08 09 0A 0B 0C 0D 0E 0F |0123456789ABCDEF|
|------------------------------------------------|----------------|
|00 08 52 00 00 00 00 00 3C 85 00                |...........     |
-------------------------------------------------------------------
[Server] packet : (0x6F) F_LOCALIZED_STRING  Size = 37 
|------------------------------------------------|----------------|
|00 01 02 03 04 05 06 07 08 09 0A 0B 0C 0D 0E 0F |0123456789ABCDEF|
|------------------------------------------------|----------------|
|00 22 6F 02 20 00 00 05 88 00 00 00 01 00 00 00 |."o. ...........|
|04 7D 00 00 00 02 01 00 03 33 30 00 00 00 00 03 |.}.......30.....|
|29 00 00 00 00                                  |.....           |
-------------------------------------------------------------------
[Server] packet : (0xAA) F_GET_ITEM  Size = 15 
|------------------------------------------------|----------------|
|00 01 02 03 04 05 06 07 08 09 0A 0B 0C 0D 0E 0F |0123456789ABCDEF|
|------------------------------------------------|----------------|
|00 0C AA 01 00 00 00 01 C4 00 00 00 00 00 00    |............... |
-------------------------------------------------------------------
[Server] packet : (0x6F) F_LOCALIZED_STRING  Size = 42 
|------------------------------------------------|----------------|
|00 01 02 03 04 05 06 07 08 09 0A 0B 0C 0D 0E 0F |0123456789ABCDEF|
|------------------------------------------------|----------------|
|00 27 6F 02 20 00 00 05 26 00 00 00 02 01 00 15 |.'o. ...&.......|
|47 68 6F 73 74 6C 79 20 4B 6E 75 63 6B 6C 65 62 |Ghostly Knuckleb|
|6F 6E 65 73 00 01 00 02 33 00                   |..........      |
-------------------------------------------------------------------
[Server] packet : (0x86) F_MAIL  Size = 6 
|------------------------------------------------|----------------|
|00 01 02 03 04 05 06 07 08 09 0A 0B 0C 0D 0E 0F |0123456789ABCDEF|
|------------------------------------------------|----------------|
|00 03 86 0F 00 00                               |......          |
-------------------------------------------------------------------
[Server] packet : (0x0A) F_OBJECT_DEATH  Size = 15 
|------------------------------------------------|----------------|
|00 01 02 03 04 05 06 07 08 09 0A 0B 0C 0D 0E 0F |0123456789ABCDEF|
|------------------------------------------------|----------------|
|00 0C 0A 25 E9 00 00 00 00 00 00 00 00 00 00    |............... |
-------------------------------------------------------------------
[Client] packet : (0x86) F_MAIL  Size = 16 
|------------------------------------------------|----------------|
|00 01 02 03 04 05 06 07 08 09 0A 0B 0C 0D 0E 0F |0123456789ABCDEF|
|------------------------------------------------|----------------|
|00 04 05 57 00 49 FF FF 00 86 00 00 00 00 00 00 |...W.I..........|                                                
-------------------------------------------------------------------
[Server] packet : (0x86) F_MAIL  Size = 6 
|------------------------------------------------|----------------|
|00 01 02 03 04 05 06 07 08 09 0A 0B 0C 0D 0E 0F |0123456789ABCDEF|
|------------------------------------------------|----------------|
|00 03 86 00 00 00                               |......          |
-------------------------------------------------------------------
[Client] packet : (0x86) F_MAIL  Size = 16 
|------------------------------------------------|----------------|
|00 01 02 03 04 05 06 07 08 09 0A 0B 0C 0D 0E 0F |0123456789ABCDEF|
|------------------------------------------------|----------------|
|00 04 05 58 00 49 FF FF 00 86 00 00 00 00 00 00 |...X.I..........|                                                
-------------------------------------------------------------------
[Server] packet : (0x86) F_MAIL  Size = 9 
|------------------------------------------------|----------------|
|00 01 02 03 04 05 06 07 08 09 0A 0B 0C 0D 0E 0F |0123456789ABCDEF|
|------------------------------------------------|----------------|
|00 06 86 0A 00 00 00 00 00                      |.........       |
-------------------------------------------------------------------
[Server] packet : (0x86) F_MAIL  Size = 9 
|------------------------------------------------|----------------|
|00 01 02 03 04 05 06 07 08 09 0A 0B 0C 0D 0E 0F |0123456789ABCDEF|
|------------------------------------------------|----------------|
|00 06 86 0A 01 00 00 00 00                      |.........       |
-------------------------------------------------------------------
[Client] packet : (0x0B) F_PING  Size = 32 
|------------------------------------------------|----------------|
|00 01 02 03 04 05 06 07 08 09 0A 0B 0C 0D 0E 0F |0123456789ABCDEF|
|------------------------------------------------|----------------|
|00 14 05 5A 00 49 00 00 00 0B 00 08 2F 63 2B AF |...Z.I....../c+.|
|2B 7C F0 3B FD 2F 00 00 00 00 00 00 00 00 7F 05 |+|.;./..........|                                                
-------------------------------------------------------------------
[Server] packet : (0x96) F_KEEP_STATUS  Size = 29 
|------------------------------------------------|----------------|
|00 01 02 03 04 05 06 07 08 09 0A 0B 0C 0D 0E 0F |0123456789ABCDEF|
|------------------------------------------------|----------------|
|00 1A 96 07 01 00 02 02 02 64 58 00 02 00 00 00 |.........dX.....|
|00 00 00 00 00 00 00 00 04 02 04 02 00          |.............   |
-------------------------------------------------------------------
[Server] packet : (0x81) S_PONG  Size = 23 
|------------------------------------------------|----------------|
|00 01 02 03 04 05 06 07 08 09 0A 0B 0C 0D 0E 0F |0123456789ABCDEF|
|------------------------------------------------|----------------|
|00 14 81 00 08 2F 63 52 82 84 6F 00 00 00 00 00 |...../cR..o.....|
|00 05 5B 00 00 00 00                            |.......         |
-------------------------------------------------------------------
[Client] packet : (0x01) UNKNOWN  Size = 32 
|------------------------------------------------|----------------|
|00 01 02 03 04 05 06 07 08 09 0A 0B 0C 0D 0E 0F |0123456789ABCDEF|
|------------------------------------------------|----------------|
|00 14 05 5B 00 49 00 00 00 01 00 08 2B 29 00 00 |...[.I......+)..|
|00 00 00 00 00 00 00 00 10 91 00 00 0A C8 8F 4A |...............J|                                                
-------------------------------------------------------------------
[Server] packet : (0x1B) F_REQ_CAMPAIGN_STATUS  Size = 6 
|------------------------------------------------|----------------|
|00 01 02 03 04 05 06 07 08 09 0A 0B 0C 0D 0E 0F |0123456789ABCDEF|
|------------------------------------------------|----------------|
|00 03 1B 01 08 00                               |......          |
-------------------------------------------------------------------
[Server] packet : (0xC5) F_OBJECTIVE_STATE  Size = 19 
|------------------------------------------------|----------------|
|00 01 02 03 04 05 06 07 08 09 0A 0B 0C 0D 0E 0F |0123456789ABCDEF|
|------------------------------------------------|----------------|
|00 10 C5 00 00 00 97 FF FF FF FF 00 78 00 78 02 |............x.x.|
|01 18 00                                        |...             |
-------------------------------------------------------------------
[Server] packet : (0xC6) F_REALM_BONUS  Size = 6 
|------------------------------------------------|----------------|
|00 01 02 03 04 05 06 07 08 09 0A 0B 0C 0D 0E 0F |0123456789ABCDEF|
|------------------------------------------------|----------------|
|00 03 C6 02 28 00                               |......          |
-------------------------------------------------------------------
[Server] packet : (0x00) UNKNOWN  Size = 23 
|------------------------------------------------|----------------|
|00 01 02 03 04 05 06 07 08 09 0A 0B 0C 0D 0E 0F |0123456789ABCDEF|
|------------------------------------------------|----------------|
|00 14 00 00 08 2B 29 AF 55 30 13 00 00 00 00 00 |.....+).U0......|
|00 10 91 00 00 0A 00                            |.......         |
-------------------------------------------------------------------