
[Server] packet : (0x1B) F_REQ_CAMPAIGN_STATUS  Size = 6 
|------------------------------------------------|----------------|
|00 01 02 03 04 05 06 07 08 09 0A 0B 0C 0D 0E 0F |0123456789ABCDEF|
|------------------------------------------------|----------------|
|00 03 1B 01 32 00                               |......          |
-------------------------------------------------------------------
[Server] packet : (0xC5) F_OBJECTIVE_STATE  Size = 19 
|------------------------------------------------|----------------|
|00 01 02 03 04 05 06 07 08 09 0A 0B 0C 0D 0E 0F |0123456789ABCDEF|
|------------------------------------------------|----------------|
|00 10 C5 00 00 00 97 FF FF FF FF 00 78 00 78 01 |............x.x.|
|01 10 00                                        |...             |
-------------------------------------------------------------------
[Server] packet : (0xC6) F_REALM_BONUS  Size = 6 
|------------------------------------------------|----------------|
|00 01 02 03 04 05 06 07 08 09 0A 0B 0C 0D 0E 0F |0123456789ABCDEF|
|------------------------------------------------|----------------|
|00 03 C6 02 23 00                               |......          |
-------------------------------------------------------------------
[Server] packet : (0xC5) F_OBJECTIVE_STATE  Size = 19 
|------------------------------------------------|----------------|
|00 01 02 03 04 05 06 07 08 09 0A 0B 0C 0D 0E 0F |0123456789ABCDEF|
|------------------------------------------------|----------------|
|00 10 C5 00 00 00 97 00 00 00 5A FF FF 00 00 01 |..........Z.....|
|01 04 00                                        |...             |
-------------------------------------------------------------------
[Server] packet : (0xC6) F_REALM_BONUS  Size = 6 
|------------------------------------------------|----------------|
|00 01 02 03 04 05 06 07 08 09 0A 0B 0C 0D 0E 0F |0123456789ABCDEF|
|------------------------------------------------|----------------|
|00 03 C6 02 23 00                               |......          |
-------------------------------------------------------------------
[Client] packet : (0x01) UNKNOWN  Size = 32 
|------------------------------------------------|----------------|
|00 01 02 03 04 05 06 07 08 09 0A 0B 0C 0D 0E 0F |0123456789ABCDEF|
|------------------------------------------------|----------------|
|00 14 02 1A 00 49 00 00 00 01 00 02 8D F4 00 00 |.....I..........|
|00 00 00 00 00 00 00 00 00 0A 00 00 19 90 7D 41 |..............}A|                                                
-------------------------------------------------------------------
[Client] packet : (0x0B) F_PING  Size = 32 
|------------------------------------------------|----------------|
|00 01 02 03 04 05 06 07 08 09 0A 0B 0C 0D 0E 0F |0123456789ABCDEF|
|------------------------------------------------|----------------|
|00 14 02 1C 00 49 00 00 00 0B 00 02 94 7C DC 90 |.....I.......|..|
|40 42 F6 63 0F 14 00 00 00 00 00 00 00 00 7F 05 |@B.c............|                                                
-------------------------------------------------------------------
[Server] packet : (0x81) S_PONG  Size = 23 
|------------------------------------------------|----------------|
|00 01 02 03 04 05 06 07 08 09 0A 0B 0C 0D 0E 0F |0123456789ABCDEF|
|------------------------------------------------|----------------|
|00 14 81 00 02 94 7C 52 82 82 FF 00 00 00 00 00 |......|R........|
|00 02 1D 00 00 00 00                            |.......         |
-------------------------------------------------------------------
[Server] packet : (0x00) UNKNOWN  Size = 23 
|------------------------------------------------|----------------|
|00 01 02 03 04 05 06 07 08 09 0A 0B 0C 0D 0E 0F |0123456789ABCDEF|
|------------------------------------------------|----------------|
|00 14 00 00 02 8D F4 AF 4F 93 38 00 00 00 00 00 |........O.8.....|
|00 00 0A 00 00 19 00                            |.......         |
-------------------------------------------------------------------
[Client] packet : (0x7D) F_REQUEST_INIT_PLAYER  Size = 14 
|------------------------------------------------|----------------|
|00 01 02 03 04 05 06 07 08 09 0A 0B 0C 0D 0E 0F |0123456789ABCDEF|
|------------------------------------------------|----------------|
|00 02 02 1D 00 49 00 00 00 7D 01 51 00 00       |..............  |
-------------------------------------------------------------------
[Server] packet : (0xE3) F_CREATE_PLAYER  Size = 88 
|------------------------------------------------|----------------|
|00 01 02 03 04 05 06 07 08 09 0A 0B 0C 0D 0E 0F |0123456789ABCDEF|
|------------------------------------------------|----------------|
|00 55 E3 01 51 00 53 00 2B 00 16 25 73 00 03 45 |.U..Q.S.+..%s..E|
|DB EA 78 0A 2D 28 00 03 08 2C 1E 05 07 00 01 09 |..x.-(...,......|
|04 05 07 00 00 00 00 00 00 00 00 00 00 00 00 05 |................|
|01 64 51 00 00 00 41 00 00 00 DF 0B 55 72 69 74 |.dQ...A.....Urit|
|68 61 69 72 72 5E 46 02 5E 4D 09 4D 6F 6F 6E 6C |hairr^F.^M.Moonl|
|61 70 73 65 00 00 00 00                         |........        |
-------------------------------------------------------------------
[Server] packet : (0xA3) F_ACTIVE_EFFECTS  Size = 18 
|------------------------------------------------|----------------|
|00 01 02 03 04 05 06 07 08 09 0A 0B 0C 0D 0E 0F |0123456789ABCDEF|
|------------------------------------------------|----------------|
|00 0F A3 00 53 01 8B 61 53 00 01 00 03 01 94 A0 |....S..aS.......|
|A5 00                                           |..              |
-------------------------------------------------------------------
[Server] packet : (0x1B) F_REQ_CAMPAIGN_STATUS  Size = 15 
|------------------------------------------------|----------------|
|00 01 02 03 04 05 06 07 08 09 0A 0B 0C 0D 0E 0F |0123456789ABCDEF|
|------------------------------------------------|----------------|
|00 0C 1B 00 14 48 00 00 15 64 D7 00 0E 83 00    |............... |
-------------------------------------------------------------------
[Server] packet : (0x1B) F_REQ_CAMPAIGN_STATUS  Size = 15 
|------------------------------------------------|----------------|
|00 01 02 03 04 05 06 07 08 09 0A 0B 0C 0D 0E 0F |0123456789ABCDEF|
|------------------------------------------------|----------------|
|00 0C 1B 00 23 3C 00 00 15 6D 22 00 0E 86 00    |............... |
-------------------------------------------------------------------
[Client] packet : (0xD2) F_INTERACT  Size = 24 
|------------------------------------------------|----------------|
|00 01 02 03 04 05 06 07 08 09 0A 0B 0C 0D 0E 0F |0123456789ABCDEF|
|------------------------------------------------|----------------|
|00 0C 02 23 00 49 00 00 00 D2 00 00 03 89 00 00 |...#.I..........|
|00 00 00 00 00 00 00 00                         |........        |
-------------------------------------------------------------------
[Client] packet : (0xE8) F_CLIENT_DATA  Size = 20 
|------------------------------------------------|----------------|
|00 01 02 03 04 05 06 07 08 09 0A 0B 0C 0D 0E 0F |0123456789ABCDEF|
|------------------------------------------------|----------------|
|00 08 02 25 00 49 00 00 00 E8 00 18 00 04 65 21 |...%.I........e!|
|01 00 00 00                                     |....            |
-------------------------------------------------------------------
[Client] packet : (0xE8) F_CLIENT_DATA  Size = 20 
|------------------------------------------------|----------------|
|00 01 02 03 04 05 06 07 08 09 0A 0B 0C 0D 0E 0F |0123456789ABCDEF|
|------------------------------------------------|----------------|
|00 08 02 26 00 49 00 00 00 E8 00 A4 00 04 4F 38 |...&.I........O8|
|01 00 5C 57                                     |....            |
-------------------------------------------------------------------
[Client] packet : (0xE8) F_CLIENT_DATA  Size = 20 
|------------------------------------------------|----------------|
|00 01 02 03 04 05 06 07 08 09 0A 0B 0C 0D 0E 0F |0123456789ABCDEF|
|------------------------------------------------|----------------|
|00 08 02 27 00 49 00 00 00 E8 00 24 00 04 79 21 |...'.I.....$..y!|
|01 00 A5 D1                                     |....            |
-------------------------------------------------------------------
[Client] packet : (0xE8) F_CLIENT_DATA  Size = 20 
|------------------------------------------------|----------------|
|00 01 02 03 04 05 06 07 08 09 0A 0B 0C 0D 0E 0F |0123456789ABCDEF|
|------------------------------------------------|----------------|
|00 08 02 28 00 49 00 00 00 E8 00 34 00 04 6B 21 |...(.I.....4..k!|
|01 00 7E F1                                     |....            |
-------------------------------------------------------------------
[Server] packet : (0x44) F_ACTION_COUNTER_UPDATE  Size = 11 
|------------------------------------------------|----------------|
|00 01 02 03 04 05 06 07 08 09 0A 0B 0C 0D 0E 0F |0123456789ABCDEF|
|------------------------------------------------|----------------|
|00 08 44 01 D7 00 00 00 00 00 00                |...........     |
-------------------------------------------------------------------
[Server] packet : (0x86) F_MAIL  Size = 6 
|------------------------------------------------|----------------|
|00 01 02 03 04 05 06 07 08 09 0A 0B 0C 0D 0E 0F |0123456789ABCDEF|
|------------------------------------------------|----------------|
|00 03 86 00 00 00                               |......          |
-------------------------------------------------------------------
[Server] packet : (0x86) F_MAIL  Size = 13 
|------------------------------------------------|----------------|
|00 01 02 03 04 05 06 07 08 09 0A 0B 0C 0D 0E 0F |0123456789ABCDEF|
|------------------------------------------------|----------------|
|00 0A 86 0E 00 00 00 00 1E 0A D7 A3 00          |.............   |
-------------------------------------------------------------------
[Server] packet : (0x86) F_MAIL  Size = 9 
|------------------------------------------------|----------------|
|00 01 02 03 04 05 06 07 08 09 0A 0B 0C 0D 0E 0F |0123456789ABCDEF|
|------------------------------------------------|----------------|
|00 06 86 0A 00 00 00 00 00                      |.........       |
-------------------------------------------------------------------
[Server] packet : (0x86) F_MAIL  Size = 9 
|------------------------------------------------|----------------|
|00 01 02 03 04 05 06 07 08 09 0A 0B 0C 0D 0E 0F |0123456789ABCDEF|
|------------------------------------------------|----------------|
|00 06 86 0A 01 00 00 00 00                      |.........       |
-------------------------------------------------------------------
[Server] packet : (0x96) F_KEEP_STATUS  Size = 29 
|------------------------------------------------|----------------|
|00 01 02 03 04 05 06 07 08 09 0A 0B 0C 0D 0E 0F |0123456789ABCDEF|
|------------------------------------------------|----------------|
|00 1A 96 07 01 00 02 02 02 64 38 00 02 00 00 00 |.........d8.....|
|00 00 00 00 00 00 00 00 04 02 04 02 00          |.............   |
-------------------------------------------------------------------
[Server] packet : (0x1B) F_REQ_CAMPAIGN_STATUS  Size = 6 
|------------------------------------------------|----------------|
|00 01 02 03 04 05 06 07 08 09 0A 0B 0C 0D 0E 0F |0123456789ABCDEF|
|------------------------------------------------|----------------|
|00 03 1B 01 23 00                               |......          |
-------------------------------------------------------------------
[Server] packet : (0xC5) F_OBJECTIVE_STATE  Size = 19 
|------------------------------------------------|----------------|
|00 01 02 03 04 05 06 07 08 09 0A 0B 0C 0D 0E 0F |0123456789ABCDEF|
|------------------------------------------------|----------------|
|00 10 C5 00 00 00 B6 FF FF FF FF 00 78 00 78 02 |............x.x.|
|01 18 00                                        |...             |
-------------------------------------------------------------------
[Server] packet : (0xC6) F_REALM_BONUS  Size = 6 
|------------------------------------------------|----------------|
|00 01 02 03 04 05 06 07 08 09 0A 0B 0C 0D 0E 0F |0123456789ABCDEF|
|------------------------------------------------|----------------|
|00 03 C6 02 23 00                               |......          |
-------------------------------------------------------------------
[Server] packet : (0x1A) F_CAMPAIGN_STATUS  Size = 159 
|------------------------------------------------|----------------|
|00 01 02 03 04 05 06 07 08 09 0A 0B 0C 0D 0E 0F |0123456789ABCDEF|
|------------------------------------------------|----------------|
|00 9C 1A 00 05 00 6D 00 CB 00 00 00 4B 00 32 32 |......m.....K.22|
|00 64 00 00 32 32 00 00 64 00 32 32 00 32 32 00 |.d..22..d.22.22.|
|32 32 00 00 00 00 32 32 00 32 32 00 32 32 F6 14 |22....22.22.22..|
|00 70 00 70 00 70 00 70 00 70 00 70 00 70 00 70 |.p.p.p.p.p.p.p.p|
|00 70 00 70 00 70 00 64 64 00 00 00 00 00 00 00 |.p.p.p.dd.......|
|64 00 00 64 00 00 00 01 00 01 00 00 00 00 00 00 |d..d............|
|00 00 00 00 00 00 00 00 00 00 00 00 00 00 00 00 |................|
|00 00 00 00 00 00 00 00 00 00 00 00 00 00 00 00 |................|
|00 03 01 00 02 03 03 00 02 02 03 03 01 01 00 03 |................|
|00 00 3C 28 0A 3C 00 00 00 03 84 00 00 00 00    |............... |
-------------------------------------------------------------------
[Client] packet : (0x0B) F_PING  Size = 32 
|------------------------------------------------|----------------|
|00 01 02 03 04 05 06 07 08 09 0A 0B 0C 0D 0E 0F |0123456789ABCDEF|
|------------------------------------------------|----------------|
|00 14 02 2C 00 49 00 00 00 0B 00 02 A7 8A 2D FB |...,.I........-.|
|BD F8 AF 5C EE DA 00 00 00 00 00 00 00 00 7F 05 |...\............|                                                
-------------------------------------------------------------------
[Server] packet : (0x81) S_PONG  Size = 23 
|------------------------------------------------|----------------|
|00 01 02 03 04 05 06 07 08 09 0A 0B 0C 0D 0E 0F |0123456789ABCDEF|
|------------------------------------------------|----------------|
|00 14 81 00 02 A7 8A 52 82 83 04 00 00 00 00 00 |.......R........|
|00 02 2D 00 00 00 00                            |.......         |
-------------------------------------------------------------------
[Server] packet : (0x1B) F_REQ_CAMPAIGN_STATUS  Size = 15 
|------------------------------------------------|----------------|
|00 01 02 03 04 05 06 07 08 09 0A 0B 0C 0D 0E 0F |0123456789ABCDEF|
|------------------------------------------------|----------------|
|00 0C 1B 00 14 48 00 00 15 69 60 00 0E 87 00    |............... |
-------------------------------------------------------------------
[Client] packet : (0x5A) F_PING_DATAGRAM  Size = 13 
|------------------------------------------------|----------------|
|00 01 02 03 04 05 06 07 08 09 0A 0B 0C 0D 0E 0F |0123456789ABCDEF|
|------------------------------------------------|----------------|
|00 01 02 33 00 49 FF FF 00 5A 00 43 95          |.............   |
-------------------------------------------------------------------
[Client] packet : (0x01) UNKNOWN  Size = 32 
|------------------------------------------------|----------------|
|00 01 02 03 04 05 06 07 08 09 0A 0B 0C 0D 0E 0F |0123456789ABCDEF|
|------------------------------------------------|----------------|
|00 14 02 37 00 49 00 00 00 01 00 02 B5 9B 00 23 |...7.I.........#|
|39 B0 08 18 C0 4A 20 07 6A EE 90 38 73 BD 00 00 |9....J .j..8s...|                                                
-------------------------------------------------------------------
[Client] packet : (0x0B) F_PING  Size = 32 
|------------------------------------------------|----------------|
|00 01 02 03 04 05 06 07 08 09 0A 0B 0C 0D 0E 0F |0123456789ABCDEF|
|------------------------------------------------|----------------|
|00 14 02 38 00 49 00 00 00 0B 00 02 BB 17 2B 1F |...8.I........+.|
|6A EB 90 F9 65 9C 00 00 00 00 00 00 00 00 2F 8A |j...e........./.|                                                
-------------------------------------------------------------------
[Server] packet : (0x81) S_PONG  Size = 23 
|------------------------------------------------|----------------|
|00 01 02 03 04 05 06 07 08 09 0A 0B 0C 0D 0E 0F |0123456789ABCDEF|
|------------------------------------------------|----------------|
|00 14 81 00 02 BB 17 52 82 83 09 00 00 00 00 00 |.......R........|
|00 02 39 00 00 00 00                            |.......         |
-------------------------------------------------------------------
[Server] packet : (0x00) UNKNOWN  Size = 23 
|------------------------------------------------|----------------|
|00 01 02 03 04 05 06 07 08 09 0A 0B 0C 0D 0E 0F |0123456789ABCDEF|
|------------------------------------------------|----------------|
|00 14 00 00 02 B5 9B AF 4F BA 6B 00 00 00 00 20 |........O.k.... |
|07 6A EE 90 38 73 00                            |.......         |
-------------------------------------------------------------------
[Server] packet : (0x96) F_KEEP_STATUS  Size = 29 
|------------------------------------------------|----------------|
|00 01 02 03 04 05 06 07 08 09 0A 0B 0C 0D 0E 0F |0123456789ABCDEF|
|------------------------------------------------|----------------|
|00 1A 96 07 01 00 02 02 02 64 3E 00 02 00 00 00 |.........d>.....|
|00 00 00 00 00 00 00 00 04 02 04 02 00          |.............   |
-------------------------------------------------------------------
[Server] packet : (0x1B) F_REQ_CAMPAIGN_STATUS  Size = 6 
|------------------------------------------------|----------------|
|00 01 02 03 04 05 06 07 08 09 0A 0B 0C 0D 0E 0F |0123456789ABCDEF|
|------------------------------------------------|----------------|
|00 03 1B 01 14 00                               |......          |
-------------------------------------------------------------------
[Server] packet : (0xC5) F_OBJECTIVE_STATE  Size = 19 
|------------------------------------------------|----------------|
|00 01 02 03 04 05 06 07 08 09 0A 0B 0C 0D 0E 0F |0123456789ABCDEF|
|------------------------------------------------|----------------|
|00 10 C5 00 00 00 93 FF FF FF FF 00 78 00 78 02 |............x.x.|
|01 10 00                                        |...             |
-------------------------------------------------------------------
[Server] packet : (0xC6) F_REALM_BONUS  Size = 6 
|------------------------------------------------|----------------|
|00 01 02 03 04 05 06 07 08 09 0A 0B 0C 0D 0E 0F |0123456789ABCDEF|
|------------------------------------------------|----------------|
|00 03 C6 02 23 00                               |......          |
-------------------------------------------------------------------
[Client] packet : (0xFE) F_PLAY_VOICE_OVER  Size = 16 
|------------------------------------------------|----------------|
|00 01 02 03 04 05 06 07 08 09 0A 0B 0C 0D 0E 0F |0123456789ABCDEF|
|------------------------------------------------|----------------|
|00 04 02 3E 00 49 FF FF 00 FE 02 00 00 00 3D A0 |...>.I........=.|                                                
-------------------------------------------------------------------
[Server] packet : (0x74) UNKNOWN  Size = 44 
|------------------------------------------------|----------------|
|00 01 02 03 04 05 06 07 08 09 0A 0B 0C 0D 0E 0F |0123456789ABCDEF|
|------------------------------------------------|----------------|
|00 29 74 01 01 00 00 00 04 02 00 00 01 00 03 00 |.)t.............|
|00 00 00 00 00 00 01 00 01 00 00 01 F4 00 00 00 |................|
|5B 02 00 01 00 00 01 F4 00 00 01 00             |............    |
-------------------------------------------------------------------
[Server] packet : (0xC5) F_OBJECTIVE_STATE  Size = 19 
|------------------------------------------------|----------------|
|00 01 02 03 04 05 06 07 08 09 0A 0B 0C 0D 0E 0F |0123456789ABCDEF|
|------------------------------------------------|----------------|
|00 10 C5 00 00 00 B6 FF FF FF FF 00 6D 00 78 02 |............m.x.|
|01 10 00                                        |...             |
-------------------------------------------------------------------
[Server] packet : (0xC6) F_REALM_BONUS  Size = 6 
|------------------------------------------------|----------------|
|00 01 02 03 04 05 06 07 08 09 0A 0B 0C 0D 0E 0F |0123456789ABCDEF|
|------------------------------------------------|----------------|
|00 03 C6 02 23 00                               |......          |
-------------------------------------------------------------------
[Client] packet : (0x0B) F_PING  Size = 32 
|------------------------------------------------|----------------|
|00 01 02 03 04 05 06 07 08 09 0A 0B 0C 0D 0E 0F |0123456789ABCDEF|
|------------------------------------------------|----------------|
|00 14 02 44 00 49 00 00 00 0B 00 02 CE A0 C3 14 |...D.I..........|
|04 4C 84 62 0D 84 00 00 00 00 00 00 00 00 7F 05 |.L.b............|                                                
-------------------------------------------------------------------
[Server] packet : (0x81) S_PONG  Size = 23 
|------------------------------------------------|----------------|
|00 01 02 03 04 05 06 07 08 09 0A 0B 0C 0D 0E 0F |0123456789ABCDEF|
|------------------------------------------------|----------------|
|00 14 81 00 02 CE A0 52 82 83 0E 00 00 00 00 00 |.......R........|
|00 02 45 00 00 00 00                            |.......         |
-------------------------------------------------------------------
[Server] packet : (0x0A) F_OBJECT_DEATH  Size = 15 
|------------------------------------------------|----------------|
|00 01 02 03 04 05 06 07 08 09 0A 0B 0C 0D 0E 0F |0123456789ABCDEF|
|------------------------------------------------|----------------|
|00 0C 0A 33 04 00 00 00 00 00 00 00 00 00 00    |............... |
-------------------------------------------------------------------
[Server] packet : (0x0A) F_OBJECT_DEATH  Size = 15 
|------------------------------------------------|----------------|
|00 01 02 03 04 05 06 07 08 09 0A 0B 0C 0D 0E 0F |0123456789ABCDEF|
|------------------------------------------------|----------------|
|00 0C 0A 09 8C 01 04 10 27 00 00 00 00 25 00    |............... |
-------------------------------------------------------------------
[Client] packet : (0x0B) F_PING  Size = 32 
|------------------------------------------------|----------------|
|00 01 02 03 04 05 06 07 08 09 0A 0B 0C 0D 0E 0F |0123456789ABCDEF|
|------------------------------------------------|----------------|
|00 14 02 4E 00 49 00 00 00 0B 00 02 E2 2F 3E 4F |...N.I......./>O|
|BB FF B9 3A 72 26 00 00 00 00 00 00 00 00 7F 05 |...:r&..........|                                                
-------------------------------------------------------------------
[Server] packet : (0x81) S_PONG  Size = 23 
|------------------------------------------------|----------------|
|00 01 02 03 04 05 06 07 08 09 0A 0B 0C 0D 0E 0F |0123456789ABCDEF|
|------------------------------------------------|----------------|
|00 14 81 00 02 E2 2F 52 82 83 13 00 00 00 00 00 |....../R........|
|00 02 4F 00 00 00 00                            |.......         |
-------------------------------------------------------------------
[Client] packet : (0x01) UNKNOWN  Size = 32 
|------------------------------------------------|----------------|
|00 01 02 03 04 05 06 07 08 09 0A 0B 0C 0D 0E 0F |0123456789ABCDEF|
|------------------------------------------------|----------------|
|00 14 02 50 00 49 00 00 00 01 00 02 DD F2 20 07 |...P.I........ .|
|2A 68 90 38 40 04 00 23 3F B6 08 18 F5 FB 9A BC |*h.8@..#?.......|                                                
-------------------------------------------------------------------
[Server] packet : (0x00) UNKNOWN  Size = 23 
|------------------------------------------------|----------------|
|00 01 02 03 04 05 06 07 08 09 0A 0B 0C 0D 0E 0F |0123456789ABCDEF|
|------------------------------------------------|----------------|
|00 14 00 00 02 DD F2 AF 4F E2 EA 00 00 00 00 00 |........O.......|
|23 3F B6 08 18 F5 00                            |.......         |
-------------------------------------------------------------------
[Client] packet : (0x5A) F_PING_DATAGRAM  Size = 13 
|------------------------------------------------|----------------|
|00 01 02 03 04 05 06 07 08 09 0A 0B 0C 0D 0E 0F |0123456789ABCDEF|
|------------------------------------------------|----------------|
|00 01 02 56 00 49 FF FF 00 5A 00 AE FD          |.............   |
-------------------------------------------------------------------
[Client] packet : (0x0B) F_PING  Size = 32 
|------------------------------------------------|----------------|
|00 01 02 03 04 05 06 07 08 09 0A 0B 0C 0D 0E 0F |0123456789ABCDEF|
|------------------------------------------------|----------------|
|00 14 02 5A 00 49 00 00 00 0B 00 02 F5 C2 81 E3 |...Z.I..........|
|7F B4 CF BD DE 4E 00 00 00 00 00 00 00 00 7F 05 |.....N..........|                                                
-------------------------------------------------------------------
[Server] packet : (0x81) S_PONG  Size = 23 
|------------------------------------------------|----------------|
|00 01 02 03 04 05 06 07 08 09 0A 0B 0C 0D 0E 0F |0123456789ABCDEF|
|------------------------------------------------|----------------|
|00 14 81 00 02 F5 C2 52 82 83 18 00 00 00 00 00 |.......R........|
|00 02 5B 00 00 00 00                            |.......         |
-------------------------------------------------------------------
[Client] packet : (0x86) F_MAIL  Size = 60 
|------------------------------------------------|----------------|
|00 01 02 03 04 05 06 07 08 09 0A 0B 0C 0D 0E 0F |0123456789ABCDEF|
|------------------------------------------------|----------------|
|00 30 02 61 00 49 FF FF 00 86 01 00 08 77 61 72 |.0.a.I.......war|
|65 6D 68 75 00 0D 00 63 6F 75 72 69 65 72 20 76 |emhu...courier v|
|69 64 65 00 0D 00 63 6F 75 72 69 65 72 20 76 69 |ide...courier vi|
|64 65 00 00 00 00 00 00 00 00 00 00             |............    |
-------------------------------------------------------------------
[Server] packet : (0x52) F_PLAYER_WEALTH  Size = 11 
|------------------------------------------------|----------------|
|00 01 02 03 04 05 06 07 08 09 0A 0B 0C 0D 0E 0F |0123456789ABCDEF|
|------------------------------------------------|----------------|
|00 08 52 00 00 00 00 00 3C 8D 00                |...........     |
-------------------------------------------------------------------
[Server] packet : (0x6F) F_LOCALIZED_STRING  Size = 37 
|------------------------------------------------|----------------|
|00 01 02 03 04 05 06 07 08 09 0A 0B 0C 0D 0E 0F |0123456789ABCDEF|
|------------------------------------------------|----------------|
|00 22 6F 02 20 00 00 05 88 00 00 00 01 00 00 00 |."o. ...........|
|04 7D 00 00 00 02 01 00 03 33 30 00 00 00 00 03 |.}.......30.....|
|29 00 00 00 00                                  |.....           |
-------------------------------------------------------------------
[Server] packet : (0x44) F_ACTION_COUNTER_UPDATE  Size = 11 
|------------------------------------------------|----------------|
|00 01 02 03 04 05 06 07 08 09 0A 0B 0C 0D 0E 0F |0123456789ABCDEF|
|------------------------------------------------|----------------|
|00 08 44 01 63 00 00 00 8C D8 00                |...........     |
-------------------------------------------------------------------
[Server] packet : (0x86) F_MAIL  Size = 6 
|------------------------------------------------|----------------|
|00 01 02 03 04 05 06 07 08 09 0A 0B 0C 0D 0E 0F |0123456789ABCDEF|
|------------------------------------------------|----------------|
|00 03 86 0F 00 00                               |......          |
-------------------------------------------------------------------
[Client] packet : (0x0B) F_PING  Size = 32 
|------------------------------------------------|----------------|
|00 01 02 03 04 05 06 07 08 09 0A 0B 0C 0D 0E 0F |0123456789ABCDEF|
|------------------------------------------------|----------------|
|00 14 02 66 00 49 00 00 00 0B 00 03 09 4F 35 0F |...f.I.......O5.|
|FA F9 94 BB 45 F4 00 00 00 00 00 00 00 00 7F 05 |....E...........|                                                
-------------------------------------------------------------------
[Server] packet : (0x81) S_PONG  Size = 23 
|------------------------------------------------|----------------|
|00 01 02 03 04 05 06 07 08 09 0A 0B 0C 0D 0E 0F |0123456789ABCDEF|
|------------------------------------------------|----------------|
|00 14 81 00 03 09 4F 52 82 83 1D 00 00 00 00 00 |......OR........|
|00 02 67 00 00 00 00                            |.......         |
-------------------------------------------------------------------
[Client] packet : (0x01) UNKNOWN  Size = 32 
|------------------------------------------------|----------------|
|00 01 02 03 04 05 06 07 08 09 0A 0B 0C 0D 0E 0F |0123456789ABCDEF|
|------------------------------------------------|----------------|
|00 14 02 68 00 49 00 00 00 01 00 03 06 14 00 00 |...h.I..........|
|00 00 00 00 00 00 00 00 00 02 00 00 1A A4 00 00 |................|                                                
-------------------------------------------------------------------
[Server] packet : (0x00) UNKNOWN  Size = 23 
|------------------------------------------------|----------------|
|00 01 02 03 04 05 06 07 08 09 0A 0B 0C 0D 0E 0F |0123456789ABCDEF|
|------------------------------------------------|----------------|
|00 14 00 00 03 06 14 AF 50 0B 00 00 00 00 00 00 |........P.......|
|00 00 02 00 00 1A 00                            |.......         |
-------------------------------------------------------------------