
[Client] packet : (0xFE) F_PLAY_VOICE_OVER  Size = 16 
|------------------------------------------------|----------------|
|00 01 02 03 04 05 06 07 08 09 0A 0B 0C 0D 0E 0F |0123456789ABCDEF|
|------------------------------------------------|----------------|
|00 04 0C 51 00 36 FF FF 00 FE 02 00 00 00 58 94 |...Q.6........X.|                                                
-------------------------------------------------------------------
[Server] packet : (0x74) UNKNOWN  Size = 44 
|------------------------------------------------|----------------|
|00 01 02 03 04 05 06 07 08 09 0A 0B 0C 0D 0E 0F |0123456789ABCDEF|
|------------------------------------------------|----------------|
|00 29 74 01 01 00 00 00 04 02 00 00 02 00 03 00 |.)t.............|
|00 00 00 00 00 00 01 00 01 00 00 01 F4 00 00 01 |................|
|B5 02 00 01 00 00 01 F4 00 00 01 00             |............    |
-------------------------------------------------------------------
[Server] packet : (0x0A) F_OBJECT_DEATH  Size = 15 
|------------------------------------------------|----------------|
|00 01 02 03 04 05 06 07 08 09 0A 0B 0C 0D 0E 0F |0123456789ABCDEF|
|------------------------------------------------|----------------|
|00 0C 0A 07 F4 00 00 00 00 00 00 00 00 00 00    |............... |
-------------------------------------------------------------------
[Client] packet : (0x16) F_REQUEST_INIT_OBJECT  Size = 16 
|------------------------------------------------|----------------|
|00 01 02 03 04 05 06 07 08 09 0A 0B 0C 0D 0E 0F |0123456789ABCDEF|
|------------------------------------------------|----------------|
|00 04 0C 53 00 36 00 00 00 16 14 58 00 00 16 00 |...S.6.....X....|                                                
-------------------------------------------------------------------
[Server] packet : (0x72) F_CREATE_MONSTER  Size = 134 
|------------------------------------------------|----------------|
|00 01 02 03 04 05 06 07 08 09 0A 0B 0C 0D 0E 0F |0123456789ABCDEF|
|------------------------------------------------|----------------|
|00 83 72 14 58 01 51 03 F5 33 39 00 12 F7 59 00 |..r.X.Q..39...Y.|
|0D 7A 6E 00 00 04 C4 32 1E 98 00 00 00 00 00 00 |.zn....2........|
|00 01 00 03 EA 00 00 00 01 61 A8 00 00 00 00 01 |.........a......|
|19 00 43 68 61 6F 73 20 52 65 73 6F 75 72 63 65 |..Chaos Resource|
|20 43 61 72 72 69 65 72 5E 6D 00 00 02 80 00 01 | Carrier^m......|
|0A 00 00 00 00 00 00 00 1A 11 00 14 58 77 59 FA |............XwY.|
|6E 33 39 64 01 66 00 00 02 80 00 51 01 00 57 3D |n39d.f.....Q..W=|
|5A FB 11 32 66 14 58 00 03 00 14 0A D8 00 15 0A |Z..2f.X.........|
|DA 00 16 0A D9 00                               |......          |
-------------------------------------------------------------------
[Server] packet : (0xA3) F_ACTIVE_EFFECTS  Size = 18 
|------------------------------------------------|----------------|
|00 01 02 03 04 05 06 07 08 09 0A 0B 0C 0D 0E 0F |0123456789ABCDEF|
|------------------------------------------------|----------------|
|00 0F A3 14 58 01 A0 60 58 14 01 00 03 01 FE ED |....X..`X.......|
|93 00                                           |..              |
-------------------------------------------------------------------
[Client] packet : (0x0B) F_PING  Size = 32 
|------------------------------------------------|----------------|
|00 01 02 03 04 05 06 07 08 09 0A 0B 0C 0D 0E 0F |0123456789ABCDEF|
|------------------------------------------------|----------------|
|00 14 0C 55 00 36 00 00 00 0B 00 0F 9D 5D CD 78 |...U.6.......].x|
|11 86 29 80 28 A0 00 00 00 00 00 00 00 00 02 E8 |..).(...........|                                                
-------------------------------------------------------------------
[Server] packet : (0x81) S_PONG  Size = 23 
|------------------------------------------------|----------------|
|00 01 02 03 04 05 06 07 08 09 0A 0B 0C 0D 0E 0F |0123456789ABCDEF|
|------------------------------------------------|----------------|
|00 14 81 00 0F 9D 5D 52 84 AF 8A 00 00 00 00 00 |......]R........|
|00 0C 56 00 00 00 00                            |.......         |
-------------------------------------------------------------------
[Server] packet : (0x1B) F_REQ_CAMPAIGN_STATUS  Size = 15 
|------------------------------------------------|----------------|
|00 01 02 03 04 05 06 07 08 09 0A 0B 0C 0D 0E 0F |0123456789ABCDEF|
|------------------------------------------------|----------------|
|00 0C 1B 00 14 58 00 00 12 F6 08 00 0D 7A 00    |............... |
-------------------------------------------------------------------
[Client] packet : (0xC8) F_INTERFACE_COMMAND  Size = 18 
|------------------------------------------------|----------------|
|00 01 02 03 04 05 06 07 08 09 0A 0B 0C 0D 0E 0F |0123456789ABCDEF|
|------------------------------------------------|----------------|
|00 06 0C 59 00 36 FF FF 00 C8 03 0E 00 00 00 00 |...Y.6..........|
|00 00                                           |..              |
-------------------------------------------------------------------
[Server] packet : (0xD7) F_INIT_EFFECTS  Size = 14 
|------------------------------------------------|----------------|
|00 01 02 03 04 05 06 07 08 09 0A 0B 0C 0D 0E 0F |0123456789ABCDEF|
|------------------------------------------------|----------------|
|00 0B D7 01 02 00 00 20 C9 0E 00 04 25 00       |..............  |
-------------------------------------------------------------------