
[Server] packet : (0xD7) F_INIT_EFFECTS  Size = 14 
|------------------------------------------------|----------------|
|00 01 02 03 04 05 06 07 08 09 0A 0B 0C 0D 0E 0F |0123456789ABCDEF|
|------------------------------------------------|----------------|
|00 0B D7 01 02 00 00 19 4B 12 00 72 37 00       |..............  |
-------------------------------------------------------------------
[Server] packet : (0xD7) F_INIT_EFFECTS  Size = 21 
|------------------------------------------------|----------------|
|00 01 02 03 04 05 06 07 08 09 0A 0B 0C 0D 0E 0F |0123456789ABCDEF|
|------------------------------------------------|----------------|
|00 12 D7 01 01 C2 FF 19 4B 0B 00 72 37 00 4B 19 |........K..r7.K.|
|01 00 F4 03 00                                  |.....           |
-------------------------------------------------------------------
[Client] packet : (0xFE) F_PLAY_VOICE_OVER  Size = 16 
|------------------------------------------------|----------------|
|00 01 02 03 04 05 06 07 08 09 0A 0B 0C 0D 0E 0F |0123456789ABCDEF|
|------------------------------------------------|----------------|
|00 04 6B 83 00 4D FF FF 00 FE 02 00 00 00 DE 05 |..k..M..........|                                                
-------------------------------------------------------------------
[Server] packet : (0x74) UNKNOWN  Size = 44 
|------------------------------------------------|----------------|
|00 01 02 03 04 05 06 07 08 09 0A 0B 0C 0D 0E 0F |0123456789ABCDEF|
|------------------------------------------------|----------------|
|00 29 74 01 01 00 00 00 04 02 00 00 01 00 03 00 |.)t.............|
|00 00 00 00 00 00 01 00 01 00 00 01 F4 00 00 00 |................|
|1B 02 00 01 00 00 01 F4 00 00 00 00             |............    |
-------------------------------------------------------------------
[Server] packet : (0xD7) F_INIT_EFFECTS  Size = 14 
|------------------------------------------------|----------------|
|00 01 02 03 04 05 06 07 08 09 0A 0B 0C 0D 0E 0F |0123456789ABCDEF|
|------------------------------------------------|----------------|
|00 0B D7 01 02 00 00 19 4B 0B 00 72 37 00       |..............  |
-------------------------------------------------------------------
[Server] packet : (0xD7) F_INIT_EFFECTS  Size = 21 
|------------------------------------------------|----------------|
|00 01 02 03 04 05 06 07 08 09 0A 0B 0C 0D 0E 0F |0123456789ABCDEF|
|------------------------------------------------|----------------|
|00 12 D7 01 01 00 00 19 4B 0D 00 72 37 00 4B 19 |........K..r7.K.|
|01 00 F4 03 00                                  |.....           |
-------------------------------------------------------------------
[Client] packet : (0x5A) F_PING_DATAGRAM  Size = 13 
|------------------------------------------------|----------------|
|00 01 02 03 04 05 06 07 08 09 0A 0B 0C 0D 0E 0F |0123456789ABCDEF|
|------------------------------------------------|----------------|
|00 01 6B 85 00 4D FF FF 00 5A 00 4F CE          |.............   |
-------------------------------------------------------------------
[Server] packet : (0xD7) F_INIT_EFFECTS  Size = 14 
|------------------------------------------------|----------------|
|00 01 02 03 04 05 06 07 08 09 0A 0B 0C 0D 0E 0F |0123456789ABCDEF|
|------------------------------------------------|----------------|
|00 0B D7 01 02 00 00 19 4B 0D 00 72 37 00       |..............  |
-------------------------------------------------------------------
[Server] packet : (0xD7) F_INIT_EFFECTS  Size = 21 
|------------------------------------------------|----------------|
|00 01 02 03 04 05 06 07 08 09 0A 0B 0C 0D 0E 0F |0123456789ABCDEF|
|------------------------------------------------|----------------|
|00 12 D7 01 01 C2 FF 19 4B 0A 00 72 37 00 4B 19 |........K..r7.K.|
|01 00 F4 03 00                                  |.....           |
-------------------------------------------------------------------
[Client] packet : (0x0B) F_PING  Size = 32 
|------------------------------------------------|----------------|
|00 01 02 03 04 05 06 07 08 09 0A 0B 0C 0D 0E 0F |0123456789ABCDEF|
|------------------------------------------------|----------------|
|00 14 6B 87 00 4D 00 00 00 0B 00 8E F9 0C DA 48 |..k..M.........H|
|40 00 35 E1 1D 84 00 00 00 00 00 00 00 00 AF 7C |@.5............||                                                
-------------------------------------------------------------------
[Server] packet : (0xDE) F_OBJECT_EFFECT_STATE  Size = 9 
|------------------------------------------------|----------------|
|00 01 02 03 04 05 06 07 08 09 0A 0B 0C 0D 0E 0F |0123456789ABCDEF|
|------------------------------------------------|----------------|
|00 06 DE 19 4B 01 0E 01 00                      |.........       |
-------------------------------------------------------------------
[Server] packet : (0xD7) F_INIT_EFFECTS  Size = 26 
|------------------------------------------------|----------------|
|00 01 02 03 04 05 06 07 08 09 0A 0B 0C 0D 0E 0F |0123456789ABCDEF|
|------------------------------------------------|----------------|
|00 17 D7 01 01 00 00 19 4B 12 00 C8 36 00 4B 19 |........K...6.K.|
|03 01 90 03 02 02 06 C2 03 00                   |..........      |
-------------------------------------------------------------------
[Server] packet : (0xD7) F_INIT_EFFECTS  Size = 36 
|------------------------------------------------|----------------|
|00 01 02 03 04 05 06 07 08 09 0A 0B 0C 0D 0E 0F |0123456789ABCDEF|
|------------------------------------------------|----------------|
|00 21 D7 01 01 C2 FF 19 4B 01 00 B8 36 00 4B 19 |.!......K...6.K.|
|06 00 C7 01 01 B3 01 02 C7 01 03 C7 01 04 C7 01 |................|
|05 C7 01 00                                     |....            |
-------------------------------------------------------------------
[Server] packet : (0x05) F_PLAYER_HEALTH  Size = 19 
|------------------------------------------------|----------------|
|00 01 02 03 04 05 06 07 08 09 0A 0B 0C 0D 0E 0F |0123456789ABCDEF|
|------------------------------------------------|----------------|
|00 10 05 00 00 03 C0 00 00 03 C0 00 FA 00 FA 00 |................|
|00 0E 00                                        |...             |
-------------------------------------------------------------------
[Server] packet : (0x81) S_PONG  Size = 23 
|------------------------------------------------|----------------|
|00 01 02 03 04 05 06 07 08 09 0A 0B 0C 0D 0E 0F |0123456789ABCDEF|
|------------------------------------------------|----------------|
|00 14 81 00 8E F9 0C 52 8A 84 8C 00 00 00 00 00 |.......R........|
|00 6B 88 00 00 00 00                            |.......         |
-------------------------------------------------------------------
[Client] packet : (0xE8) F_CLIENT_DATA  Size = 20 
|------------------------------------------------|----------------|
|00 01 02 03 04 05 06 07 08 09 0A 0B 0C 0D 0E 0F |0123456789ABCDEF|
|------------------------------------------------|----------------|
|00 08 6B 89 00 4D 00 00 00 E8 00 18 00 04 2E 20 |..k..M......... |
|01 00 00 00                                     |....            |
-------------------------------------------------------------------
[Server] packet : (0xD7) F_INIT_EFFECTS  Size = 14 
|------------------------------------------------|----------------|
|00 01 02 03 04 05 06 07 08 09 0A 0B 0C 0D 0E 0F |0123456789ABCDEF|
|------------------------------------------------|----------------|
|00 0B D7 01 02 00 00 19 4B 0A 00 72 37 00       |..............  |
-------------------------------------------------------------------
[Server] packet : (0xD7) F_INIT_EFFECTS  Size = 21 
|------------------------------------------------|----------------|
|00 01 02 03 04 05 06 07 08 09 0A 0B 0C 0D 0E 0F |0123456789ABCDEF|
|------------------------------------------------|----------------|
|00 12 D7 01 01 00 00 19 4B 0B 00 72 37 00 4B 19 |........K..r7.K.|
|01 00 F4 03 00                                  |.....           |
-------------------------------------------------------------------
[Server] packet : (0x44) F_ACTION_COUNTER_UPDATE  Size = 11 
|------------------------------------------------|----------------|
|00 01 02 03 04 05 06 07 08 09 0A 0B 0C 0D 0E 0F |0123456789ABCDEF|
|------------------------------------------------|----------------|
|00 08 44 01 63 00 00 00 0A 0F 00                |...........     |
-------------------------------------------------------------------
[Server] packet : (0xD7) F_INIT_EFFECTS  Size = 30 
|------------------------------------------------|----------------|
|00 01 02 03 04 05 06 07 08 09 0A 0B 0C 0D 0E 0F |0123456789ABCDEF|
|------------------------------------------------|----------------|
|00 1B D7 01 01 C2 FF 19 4B 12 00 C8 36 EE 99 65 |........K...6..e|
|4B 19 04 01 90 03 02 02 06 C2 03 07 02 00       |..............  |
-------------------------------------------------------------------
[Server] packet : (0xD7) F_INIT_EFFECTS  Size = 14 
|------------------------------------------------|----------------|
|00 01 02 03 04 05 06 07 08 09 0A 0B 0C 0D 0E 0F |0123456789ABCDEF|
|------------------------------------------------|----------------|
|00 0B D7 01 02 00 00 19 4B 0B 00 72 37 00       |..............  |
-------------------------------------------------------------------
[Server] packet : (0xD7) F_INIT_EFFECTS  Size = 21 
|------------------------------------------------|----------------|
|00 01 02 03 04 05 06 07 08 09 0A 0B 0C 0D 0E 0F |0123456789ABCDEF|
|------------------------------------------------|----------------|
|00 12 D7 01 01 C2 FF 19 4B 0D 00 72 37 00 4B 19 |........K..r7.K.|
|01 00 F4 03 00                                  |.....           |
-------------------------------------------------------------------
[Server] packet : (0xD7) F_INIT_EFFECTS  Size = 14 
|------------------------------------------------|----------------|
|00 01 02 03 04 05 06 07 08 09 0A 0B 0C 0D 0E 0F |0123456789ABCDEF|
|------------------------------------------------|----------------|
|00 0B D7 01 02 00 00 19 4B 0D 00 72 37 00       |..............  |
-------------------------------------------------------------------
[Server] packet : (0xD7) F_INIT_EFFECTS  Size = 21 
|------------------------------------------------|----------------|
|00 01 02 03 04 05 06 07 08 09 0A 0B 0C 0D 0E 0F |0123456789ABCDEF|
|------------------------------------------------|----------------|
|00 12 D7 01 01 C2 FF 19 4B 0A 00 72 37 00 4B 19 |........K..r7.K.|
|01 00 F4 03 00                                  |.....           |
-------------------------------------------------------------------
[Client] packet : (0x01) UNKNOWN  Size = 32 
|------------------------------------------------|----------------|
|00 01 02 03 04 05 06 07 08 09 0A 0B 0C 0D 0E 0F |0123456789ABCDEF|
|------------------------------------------------|----------------|
|00 14 6B 8E 00 4D 00 00 00 01 00 8E FC DF 00 23 |..k..M.........#|
|39 B0 08 18 C0 4A 20 07 3B 69 90 38 59 2F 00 00 |9....J .;i.8Y/..|                                                
-------------------------------------------------------------------
[Server] packet : (0x00) UNKNOWN  Size = 23 
|------------------------------------------------|----------------|
|00 01 02 03 04 05 06 07 08 09 0A 0B 0C 0D 0E 0F |0123456789ABCDEF|
|------------------------------------------------|----------------|
|00 14 00 00 8E FC DF CE 95 C6 76 00 00 00 00 20 |..........v.... |
|07 3B 69 90 38 59 00                            |.......         |
-------------------------------------------------------------------
[Client] packet : (0x16) F_REQUEST_INIT_OBJECT  Size = 16 
|------------------------------------------------|----------------|
|00 01 02 03 04 05 06 07 08 09 0A 0B 0C 0D 0E 0F |0123456789ABCDEF|
|------------------------------------------------|----------------|
|00 04 6B 91 00 4D 00 00 00 16 30 5C 00 00 48 85 |..k..M....0\..H.|                                                
-------------------------------------------------------------------
[Server] packet : (0xD7) F_INIT_EFFECTS  Size = 14 
|------------------------------------------------|----------------|
|00 01 02 03 04 05 06 07 08 09 0A 0B 0C 0D 0E 0F |0123456789ABCDEF|
|------------------------------------------------|----------------|
|00 0B D7 01 02 00 3D 19 4B 0A 00 72 37 00       |..............  |
-------------------------------------------------------------------
[Server] packet : (0xD7) F_INIT_EFFECTS  Size = 21 
|------------------------------------------------|----------------|
|00 01 02 03 04 05 06 07 08 09 0A 0B 0C 0D 0E 0F |0123456789ABCDEF|
|------------------------------------------------|----------------|
|00 12 D7 01 01 72 0C 19 4B 0B 00 72 37 00 4B 19 |.....r..K..r7.K.|
|01 00 F4 03 00                                  |.....           |
-------------------------------------------------------------------
[Server] packet : (0x72) F_CREATE_MONSTER  Size = 108 
|------------------------------------------------|----------------|
|00 01 02 03 04 05 06 07 08 09 0A 0B 0C 0D 0E 0F |0123456789ABCDEF|
|------------------------------------------------|----------------|
|00 69 72 30 5C 00 55 00 7A 13 72 00 10 17 34 00 |.ir0\.U.z.r...4.|
|0C D4 A9 00 00 04 24 1E 0B 01 00 00 00 00 00 00 |......$.........|
|00 00 00 03 E8 00 00 00 00 10 A7 00 03 00 00 01 |................|
|19 00 48 75 6E 74 69 6E 67 20 57 6F 6C 66 20 43 |..Hunting Wolf C|
|75 62 5E 6E 00 01 0A 00 00 00 1A 05 00 30 5C 57 |ub^n.........0\W|
|34 B4 A9 13 72 64 01 07 00 00 00 00 00 55 00 00 |4...rd.......U..|
|98 56 30 B4 5A 13 07 30 5C 00 00 00             |............    |
-------------------------------------------------------------------
[Client] packet : (0x16) F_REQUEST_INIT_OBJECT  Size = 16 
|------------------------------------------------|----------------|
|00 01 02 03 04 05 06 07 08 09 0A 0B 0C 0D 0E 0F |0123456789ABCDEF|
|------------------------------------------------|----------------|
|00 04 6B 93 00 4D 00 00 00 16 17 49 00 00 DF 65 |..k..M.....I...e|                                                
-------------------------------------------------------------------
[Client] packet : (0x16) F_REQUEST_INIT_OBJECT  Size = 16 
|------------------------------------------------|----------------|
|00 01 02 03 04 05 06 07 08 09 0A 0B 0C 0D 0E 0F |0123456789ABCDEF|
|------------------------------------------------|----------------|
|00 04 6B 94 00 4D 00 00 00 16 2F 42 00 00 EE B4 |..k..M..../B....|                                                
-------------------------------------------------------------------
[Client] packet : (0x16) F_REQUEST_INIT_OBJECT  Size = 16 
|------------------------------------------------|----------------|
|00 01 02 03 04 05 06 07 08 09 0A 0B 0C 0D 0E 0F |0123456789ABCDEF|
|------------------------------------------------|----------------|
|00 04 6B 95 00 4D 00 00 00 16 15 19 00 00 71 3A |..k..M........q:|                                                
-------------------------------------------------------------------
[Client] packet : (0x16) F_REQUEST_INIT_OBJECT  Size = 16 
|------------------------------------------------|----------------|
|00 01 02 03 04 05 06 07 08 09 0A 0B 0C 0D 0E 0F |0123456789ABCDEF|
|------------------------------------------------|----------------|
|00 04 6B 96 00 4D 00 00 00 16 05 58 00 00 23 0E |..k..M.....X..#.|                                                
-------------------------------------------------------------------
[Client] packet : (0x16) F_REQUEST_INIT_OBJECT  Size = 16 
|------------------------------------------------|----------------|
|00 01 02 03 04 05 06 07 08 09 0A 0B 0C 0D 0E 0F |0123456789ABCDEF|
|------------------------------------------------|----------------|
|00 04 6B 97 00 4D 00 00 00 16 05 59 00 00 8C 6C |..k..M.....Y...l|                                                
-------------------------------------------------------------------
[Client] packet : (0x16) F_REQUEST_INIT_OBJECT  Size = 16 
|------------------------------------------------|----------------|
|00 01 02 03 04 05 06 07 08 09 0A 0B 0C 0D 0E 0F |0123456789ABCDEF|
|------------------------------------------------|----------------|
|00 04 6B 98 00 4D 00 00 00 16 26 97 00 00 60 51 |..k..M....&...`Q|                                                
-------------------------------------------------------------------
[Client] packet : (0x16) F_REQUEST_INIT_OBJECT  Size = 16 
|------------------------------------------------|----------------|
|00 01 02 03 04 05 06 07 08 09 0A 0B 0C 0D 0E 0F |0123456789ABCDEF|
|------------------------------------------------|----------------|
|00 04 6B 99 00 4D 00 00 00 16 0E 4A 00 00 F8 33 |..k..M.....J...3|                                                
-------------------------------------------------------------------
[Client] packet : (0x16) F_REQUEST_INIT_OBJECT  Size = 16 
|------------------------------------------------|----------------|
|00 01 02 03 04 05 06 07 08 09 0A 0B 0C 0D 0E 0F |0123456789ABCDEF|
|------------------------------------------------|----------------|
|00 04 6B 9A 00 4D 00 00 00 16 0C 7B 00 00 97 A4 |..k..M.....{....|                                                
-------------------------------------------------------------------
[Client] packet : (0x16) F_REQUEST_INIT_OBJECT  Size = 16 
|------------------------------------------------|----------------|
|00 01 02 03 04 05 06 07 08 09 0A 0B 0C 0D 0E 0F |0123456789ABCDEF|
|------------------------------------------------|----------------|
|00 04 6B 9B 00 4D 00 00 00 16 0C 7C 00 00 65 C1 |..k..M.....|..e.|                                                
-------------------------------------------------------------------
[Client] packet : (0x16) F_REQUEST_INIT_OBJECT  Size = 16 
|------------------------------------------------|----------------|
|00 01 02 03 04 05 06 07 08 09 0A 0B 0C 0D 0E 0F |0123456789ABCDEF|
|------------------------------------------------|----------------|
|00 04 6B 9C 00 4D 00 00 00 16 18 96 00 00 D2 1E |..k..M..........|                                                
-------------------------------------------------------------------
[Client] packet : (0x16) F_REQUEST_INIT_OBJECT  Size = 16 
|------------------------------------------------|----------------|
|00 01 02 03 04 05 06 07 08 09 0A 0B 0C 0D 0E 0F |0123456789ABCDEF|
|------------------------------------------------|----------------|
|00 04 6B 9D 00 4D 00 00 00 16 0E 10 00 00 30 32 |..k..M........02|                                                
-------------------------------------------------------------------
[Client] packet : (0x16) F_REQUEST_INIT_OBJECT  Size = 16 
|------------------------------------------------|----------------|
|00 01 02 03 04 05 06 07 08 09 0A 0B 0C 0D 0E 0F |0123456789ABCDEF|
|------------------------------------------------|----------------|
|00 04 6B 9E 00 4D 00 00 00 16 0E 11 00 00 36 5E |..k..M........6^|                                                
-------------------------------------------------------------------
[Client] packet : (0x16) F_REQUEST_INIT_OBJECT  Size = 16 
|------------------------------------------------|----------------|
|00 01 02 03 04 05 06 07 08 09 0A 0B 0C 0D 0E 0F |0123456789ABCDEF|
|------------------------------------------------|----------------|
|00 04 6B 9F 00 4D 00 00 00 16 1B A1 00 00 81 95 |..k..M..........|                                                
-------------------------------------------------------------------
[Client] packet : (0x16) F_REQUEST_INIT_OBJECT  Size = 16 
|------------------------------------------------|----------------|
|00 01 02 03 04 05 06 07 08 09 0A 0B 0C 0D 0E 0F |0123456789ABCDEF|
|------------------------------------------------|----------------|
|00 04 6B A0 00 4D 00 00 00 16 0E FD 00 00 01 71 |..k..M.........q|                                                
-------------------------------------------------------------------
[Client] packet : (0x16) F_REQUEST_INIT_OBJECT  Size = 16 
|------------------------------------------------|----------------|
|00 01 02 03 04 05 06 07 08 09 0A 0B 0C 0D 0E 0F |0123456789ABCDEF|
|------------------------------------------------|----------------|
|00 04 6B A1 00 4D 00 00 00 16 0E FE 00 00 0C 98 |..k..M..........|                                                
-------------------------------------------------------------------
[Client] packet : (0x16) F_REQUEST_INIT_OBJECT  Size = 16 
|------------------------------------------------|----------------|
|00 01 02 03 04 05 06 07 08 09 0A 0B 0C 0D 0E 0F |0123456789ABCDEF|
|------------------------------------------------|----------------|
|00 04 6B A2 00 4D 00 00 00 16 0F 01 00 00 13 1D |..k..M..........|                                                
-------------------------------------------------------------------
[Client] packet : (0x16) F_REQUEST_INIT_OBJECT  Size = 16 
|------------------------------------------------|----------------|
|00 01 02 03 04 05 06 07 08 09 0A 0B 0C 0D 0E 0F |0123456789ABCDEF|
|------------------------------------------------|----------------|
|00 04 6B A3 00 4D 00 00 00 16 0F 02 00 00 58 EA |..k..M........X.|                                                
-------------------------------------------------------------------
[Client] packet : (0x16) F_REQUEST_INIT_OBJECT  Size = 16 
|------------------------------------------------|----------------|
|00 01 02 03 04 05 06 07 08 09 0A 0B 0C 0D 0E 0F |0123456789ABCDEF|
|------------------------------------------------|----------------|
|00 04 6B A4 00 4D 00 00 00 16 0F B8 00 00 B8 32 |..k..M.........2|                                                
-------------------------------------------------------------------
[Client] packet : (0x16) F_REQUEST_INIT_OBJECT  Size = 16 
|------------------------------------------------|----------------|
|00 01 02 03 04 05 06 07 08 09 0A 0B 0C 0D 0E 0F |0123456789ABCDEF|
|------------------------------------------------|----------------|
|00 04 6B A5 00 4D 00 00 00 16 10 FF 00 00 69 21 |..k..M........i!|                                                
-------------------------------------------------------------------
[Client] packet : (0x16) F_REQUEST_INIT_OBJECT  Size = 16 
|------------------------------------------------|----------------|
|00 01 02 03 04 05 06 07 08 09 0A 0B 0C 0D 0E 0F |0123456789ABCDEF|
|------------------------------------------------|----------------|
|00 04 6B A6 00 4D 00 00 00 16 11 30 00 00 FD 60 |..k..M.....0...`|                                                
-------------------------------------------------------------------
[Client] packet : (0x16) F_REQUEST_INIT_OBJECT  Size = 16 
|------------------------------------------------|----------------|
|00 01 02 03 04 05 06 07 08 09 0A 0B 0C 0D 0E 0F |0123456789ABCDEF|
|------------------------------------------------|----------------|
|00 04 6B A7 00 4D 00 00 00 16 13 E9 00 00 81 B3 |..k..M..........|                                                
-------------------------------------------------------------------
[Client] packet : (0x16) F_REQUEST_INIT_OBJECT  Size = 16 
|------------------------------------------------|----------------|
|00 01 02 03 04 05 06 07 08 09 0A 0B 0C 0D 0E 0F |0123456789ABCDEF|
|------------------------------------------------|----------------|
|00 04 6B A8 00 4D 00 00 00 16 28 F2 00 00 E7 D1 |..k..M....(.....|                                                
-------------------------------------------------------------------
[Server] packet : (0x72) F_CREATE_MONSTER  Size = 140 
|------------------------------------------------|----------------|
|00 01 02 03 04 05 06 07 08 09 0A 0B 0C 0D 0E 0F |0123456789ABCDEF|
|------------------------------------------------|----------------|
|00 89 72 17 49 00 00 04 00 15 34 00 10 4D A7 00 |..r.I.....4..M..|
|0C DA 08 00 00 04 C0 32 12 81 00 00 00 00 00 00 |.......2........|
|00 00 00 03 E8 00 00 00 00 11 25 00 00 00 00 01 |..........%.....|
|19 00 4F 6E 65 20 54 75 73 6B 20 41 72 72 65 72 |..One Tusk Arrer|
|20 42 6F 79 5E 6D 00 01 0A 00 00 00 12 2B 00 17 | Boy^m.......+..|
|49 8D A7 BA 08 15 34 64 00 07 00 00 00 00 00 00 |I.....4d........|
|04 17 49 00 07 00 0A 04 4E 00 0C 04 50 01 14 09 |..I.....N...P...|
|7B 3A 58 01 15 09 7D 3A 58 01 16 09 7C 3A 58 01 |{:X...}:X...|:X.|
|18 09 7E 3A 58 01 1C 09 7A 3C 58 00             |............    |
-------------------------------------------------------------------
[Server] packet : (0xBD) F_PLAYER_INVENTORY  Size = 46 
|------------------------------------------------|----------------|
|00 01 02 03 04 05 06 07 08 09 0A 0B 0C 0D 0E 0F |0123456789ABCDEF|
|------------------------------------------------|----------------|
|00 2B BD 17 49 00 07 00 0A 04 4E 00 0C 04 50 01 |.+..I.....N...P.|
|14 09 7B 3A 58 01 15 09 7D 3A 58 01 16 09 7C 3A |..{:X...}:X...|:|
|58 01 18 09 7E 3A 58 01 1C 09 7A 3C 58 00       |..............  |
-------------------------------------------------------------------
[Server] packet : (0x72) F_CREATE_MONSTER  Size = 140 
|------------------------------------------------|----------------|
|00 01 02 03 04 05 06 07 08 09 0A 0B 0C 0D 0E 0F |0123456789ABCDEF|
|------------------------------------------------|----------------|
|00 89 72 2F 42 00 00 02 71 14 A7 00 10 4B CD 00 |..r/B...q....K..|
|0C D1 E2 00 00 04 C0 32 12 81 00 00 00 00 20 00 |.......2...... .|
|00 00 00 03 E8 00 00 00 00 11 29 00 00 00 00 01 |..........).....|
|19 00 4F 6E 65 20 54 75 73 6B 20 41 72 72 65 72 |..One Tusk Arrer|
|20 42 6F 79 5E 6D 00 01 0A 00 00 00 12 2B 00 2F | Boy^m.......+./|
|42 8B CD B1 E2 14 A7 64 00 07 00 00 00 00 00 71 |B......d.......q|
|02 2F 42 01 07 00 0A 04 4E 00 0C 04 50 01 14 09 |./B.....N...P...|
|7B 3A 58 01 15 09 7D 3A 58 01 16 09 7C 3A 58 01 |{:X...}:X...|:X.|
|18 09 7E 3A 58 01 1C 09 7A 3C 58 00             |............    |
-------------------------------------------------------------------
[Server] packet : (0xBD) F_PLAYER_INVENTORY  Size = 46 
|------------------------------------------------|----------------|
|00 01 02 03 04 05 06 07 08 09 0A 0B 0C 0D 0E 0F |0123456789ABCDEF|
|------------------------------------------------|----------------|
|00 2B BD 2F 42 01 07 00 0A 04 4E 00 0C 04 50 01 |.+./B.....N...P.|
|14 09 7B 3A 58 01 15 09 7D 3A 58 01 16 09 7C 3A |..{:X...}:X...|:|
|58 01 18 09 7E 3A 58 01 1C 09 7A 3C 58 00       |..............  |
-------------------------------------------------------------------
[Server] packet : (0x72) F_CREATE_MONSTER  Size = 130 
|------------------------------------------------|----------------|
|00 01 02 03 04 05 06 07 08 09 0A 0B 0C 0D 0E 0F |0123456789ABCDEF|
|------------------------------------------------|----------------|
|00 7F 72 15 19 00 00 02 88 15 13 00 10 4D 5E 00 |..r..........M^.|
|0C D9 A8 00 00 04 C0 32 12 81 00 00 00 00 00 00 |.......2........|
|00 00 00 03 E8 00 00 00 00 11 25 00 01 00 00 01 |..........%.....|
|19 00 4F 6E 65 20 54 75 73 6B 20 57 61 72 72 69 |..One Tusk Warri|
|6F 72 5E 6D 00 01 0A 00 00 00 12 23 00 15 19 8D |or^m.......#....|
|5E B9 A8 15 13 64 00 07 00 00 00 00 00 88 02 15 |^....d..........|
|19 00 05 01 14 0B B8 3A 58 01 15 0B B9 3A 58 01 |.......:X....:X.|
|16 0B BA 3A 58 01 18 0B BB 3A 58 01 1C 0B BC 3C |...:X....:X....<|
|58 00                                           |..              |
-------------------------------------------------------------------
[Server] packet : (0xBD) F_PLAYER_INVENTORY  Size = 38 
|------------------------------------------------|----------------|
|00 01 02 03 04 05 06 07 08 09 0A 0B 0C 0D 0E 0F |0123456789ABCDEF|
|------------------------------------------------|----------------|
|00 23 BD 15 19 00 05 01 14 0B B8 3A 58 01 15 0B |.#.........:X...|
|B9 3A 58 01 16 0B BA 3A 58 01 18 0B BB 3A 58 01 |.:X....:X....:X.|
|1C 0B BC 3C 58 00                               |......          |
-------------------------------------------------------------------
[Server] packet : (0x72) F_CREATE_MONSTER  Size = 153 
|------------------------------------------------|----------------|
|00 01 02 03 04 05 06 07 08 09 0A 0B 0C 0D 0E 0F |0123456789ABCDEF|
|------------------------------------------------|----------------|
|00 96 72 05 58 00 00 0A CC 15 56 00 10 4A 9A 00 |..r.X.....V..J..|
|0C DE 7F 00 00 04 BE 32 11 41 00 00 00 00 20 00 |.......2.A.... .|
|00 00 00 03 E8 00 00 00 00 11 26 00 03 00 00 01 |..........&.....|
|19 00 4F 61 74 68 62 65 61 72 65 72 20 44 65 66 |..Oathbearer Def|
|65 6E 64 65 72 5E 6D 00 01 0A 00 00 00 12 37 00 |ender^m.......7.|
|05 58 8A 9A BE 7F 15 56 64 00 07 00 00 00 00 00 |.X.....Vd.......|
|CC 0A 05 58 00 09 00 0A 04 81 00 0B 05 03 01 14 |...X............|
|08 91 8E 8F 01 15 08 93 8C 8F 01 16 08 92 8C 8E |................|
|01 17 08 95 8C 8F 01 18 08 94 8C 8E 01 19 02 96 |................|
|8C 8E 01 1C 08 90 8E 8C 00                      |.........       |
-------------------------------------------------------------------
[Server] packet : (0xBD) F_PLAYER_INVENTORY  Size = 58 
|------------------------------------------------|----------------|
|00 01 02 03 04 05 06 07 08 09 0A 0B 0C 0D 0E 0F |0123456789ABCDEF|
|------------------------------------------------|----------------|
|00 37 BD 05 58 00 09 00 0A 04 81 00 0B 05 03 01 |.7..X...........|
|14 08 91 8E 8F 01 15 08 93 8C 8F 01 16 08 92 8C |................|
|8E 01 17 08 95 8C 8F 01 18 08 94 8C 8E 01 19 02 |................|
|96 8C 8E 01 1C 08 90 8E 8C 00                   |..........      |
-------------------------------------------------------------------
[Server] packet : (0x72) F_CREATE_MONSTER  Size = 153 
|------------------------------------------------|----------------|
|00 01 02 03 04 05 06 07 08 09 0A 0B 0C 0D 0E 0F |0123456789ABCDEF|
|------------------------------------------------|----------------|
|00 96 72 05 59 00 00 0E FA 15 13 00 10 42 03 00 |..r.Y........B..|
|0C D9 23 00 00 04 BE 32 12 41 00 00 00 00 20 00 |..#....2.A.... .|
|00 00 00 03 E8 00 00 00 00 11 26 00 01 00 00 01 |..........&.....|
|19 00 4F 61 74 68 62 65 61 72 65 72 20 44 65 66 |..Oathbearer Def|
|65 6E 64 65 72 5E 6D 00 01 0A 00 00 00 12 37 00 |ender^m.......7.|
|05 59 82 03 B9 23 15 13 64 00 07 00 00 00 00 00 |.Y...#..d.......|
|FA 0E 05 59 00 09 00 0A 04 81 00 0B 05 03 01 14 |...Y............|
|08 91 8E 8F 01 15 08 93 8C 8F 01 16 08 92 8C 8E |................|
|01 17 08 95 8C 8F 01 18 08 94 8C 8E 01 19 02 96 |................|
|8C 8E 01 1C 08 90 8E 8C 00                      |.........       |
-------------------------------------------------------------------
[Server] packet : (0xBD) F_PLAYER_INVENTORY  Size = 58 
|------------------------------------------------|----------------|
|00 01 02 03 04 05 06 07 08 09 0A 0B 0C 0D 0E 0F |0123456789ABCDEF|
|------------------------------------------------|----------------|
|00 37 BD 05 59 00 09 00 0A 04 81 00 0B 05 03 01 |.7..Y...........|
|14 08 91 8E 8F 01 15 08 93 8C 8F 01 16 08 92 8C |................|
|8E 01 17 08 95 8C 8F 01 18 08 94 8C 8E 01 19 02 |................|
|96 8C 8E 01 1C 08 90 8E 8C 00                   |..........      |
-------------------------------------------------------------------
[Server] packet : (0x72) F_CREATE_MONSTER  Size = 151 
|------------------------------------------------|----------------|
|00 01 02 03 04 05 06 07 08 09 0A 0B 0C 0D 0E 0F |0123456789ABCDEF|
|------------------------------------------------|----------------|
|00 94 72 26 97 00 00 0B 3E 14 9A 00 10 47 50 00 |..r&....>....GP.|
|0C D7 54 00 00 04 BE 32 11 41 00 00 00 00 20 00 |..T....2.A.... .|
|00 00 00 03 E8 00 00 00 00 11 27 00 00 00 00 01 |..........'.....|
|19 00 4F 61 74 68 62 65 61 72 65 72 20 4D 61 72 |..Oathbearer Mar|
|6B 73 6D 61 6E 5E 6D 00 01 0A 00 00 00 14 33 00 |ksman^m.......3.|
|26 97 87 50 B7 54 14 9A 64 02 07 00 00 00 00 00 |&..P.T..d.......|
|3E 0B 1B 1F 26 97 00 08 00 0C 04 FE 01 14 07 D7 |>...&...........|
|8E 8C 01 15 07 D9 8E 8C 01 16 07 D8 8E 8C 01 17 |................|
|07 DB 8E 8C 01 18 07 DA 8E 8C 01 19 02 8A 8E 8C |................|
|01 1C 07 D6 8E 8C 00                            |.......         |
-------------------------------------------------------------------
[Server] packet : (0xBD) F_PLAYER_INVENTORY  Size = 54 
|------------------------------------------------|----------------|
|00 01 02 03 04 05 06 07 08 09 0A 0B 0C 0D 0E 0F |0123456789ABCDEF|
|------------------------------------------------|----------------|
|00 33 BD 26 97 00 08 00 0C 04 FE 01 14 07 D7 8E |.3.&............|
|8C 01 15 07 D9 8E 8C 01 16 07 D8 8E 8C 01 17 07 |................|
|DB 8E 8C 01 18 07 DA 8E 8C 01 19 02 8A 8E 8C 01 |................|
|1C 07 D6 8E 8C 00                               |......          |
-------------------------------------------------------------------
[Server] packet : (0x72) F_CREATE_MONSTER  Size = 151 
|------------------------------------------------|----------------|
|00 01 02 03 04 05 06 07 08 09 0A 0B 0C 0D 0E 0F |0123456789ABCDEF|
|------------------------------------------------|----------------|
|00 94 72 0E 4A 00 00 0A E3 14 64 00 10 46 42 00 |..r.J.....d..FB.|
|0C DA A6 00 00 04 BE 32 12 41 00 00 00 00 20 00 |.......2.A.... .|
|00 00 00 03 E8 00 00 00 00 11 27 00 02 00 00 01 |..........'.....|
|19 00 4F 61 74 68 62 65 61 72 65 72 20 4D 61 72 |..Oathbearer Mar|
|6B 73 6D 61 6E 5E 6D 00 01 0A 00 00 00 14 33 00 |ksman^m.......3.|
|0E 4A 86 42 BA A6 14 64 64 02 07 00 00 00 00 00 |.J.B...dd.......|
|E3 0A 5D 18 0E 4A 00 08 00 0C 04 FE 01 14 07 D7 |..]..J..........|
|8E 8C 01 15 07 D9 8E 8C 01 16 07 D8 8E 8C 01 17 |................|
|07 DB 8E 8C 01 18 07 DA 8E 8C 01 19 02 8A 8E 8C |................|
|01 1C 07 D6 8E 8C 00                            |.......         |
-------------------------------------------------------------------
[Server] packet : (0xBD) F_PLAYER_INVENTORY  Size = 54 
|------------------------------------------------|----------------|
|00 01 02 03 04 05 06 07 08 09 0A 0B 0C 0D 0E 0F |0123456789ABCDEF|
|------------------------------------------------|----------------|
|00 33 BD 0E 4A 00 08 00 0C 04 FE 01 14 07 D7 8E |.3..J...........|
|8C 01 15 07 D9 8E 8C 01 16 07 D8 8E 8C 01 17 07 |................|
|DB 8E 8C 01 18 07 DA 8E 8C 01 19 02 8A 8E 8C 01 |................|
|1C 07 D6 8E 8C 00                               |......          |
-------------------------------------------------------------------
[Server] packet : (0x72) F_CREATE_MONSTER  Size = 151 
|------------------------------------------------|----------------|
|00 01 02 03 04 05 06 07 08 09 0A 0B 0C 0D 0E 0F |0123456789ABCDEF|
|------------------------------------------------|----------------|
|00 94 72 0C 7B 00 00 0B 6C 14 90 00 10 47 84 00 |..r.{...l....G..|
|0C D8 01 00 00 04 BF 32 11 41 00 00 00 00 20 00 |.......2.A.... .|
|00 00 00 03 E8 00 00 00 00 11 27 00 01 00 00 01 |..........'.....|
|19 00 4F 61 74 68 62 65 61 72 65 72 20 4D 61 72 |..Oathbearer Mar|
|6B 73 6D 61 6E 5E 66 00 01 0A 00 00 00 14 33 00 |ksman^f.......3.|
|0C 7B 87 84 B8 01 14 90 64 02 07 00 00 00 00 00 |.{......d.......|
|6C 0B 5D 18 0C 7B 00 08 00 0C 04 FE 01 14 07 D7 |l.]..{..........|
|8E 8C 01 15 07 D9 8E 8C 01 16 07 D8 8E 8C 01 17 |................|
|07 DB 8E 8C 01 18 07 DA 8E 8C 01 19 02 8A 8E 8C |................|
|01 1C 07 D6 8E 8C 00                            |.......         |
-------------------------------------------------------------------
[Server] packet : (0xBD) F_PLAYER_INVENTORY  Size = 54 
|------------------------------------------------|----------------|
|00 01 02 03 04 05 06 07 08 09 0A 0B 0C 0D 0E 0F |0123456789ABCDEF|
|------------------------------------------------|----------------|
|00 33 BD 0C 7B 00 08 00 0C 04 FE 01 14 07 D7 8E |.3..{...........|
|8C 01 15 07 D9 8E 8C 01 16 07 D8 8E 8C 01 17 07 |................|
|DB 8E 8C 01 18 07 DA 8E 8C 01 19 02 8A 8E 8C 01 |................|
|1C 07 D6 8E 8C 00                               |......          |
-------------------------------------------------------------------
[Client] packet : (0x0D) F_DUMP_STATICS  Size = 24 
|------------------------------------------------|----------------|
|00 01 02 03 04 05 06 07 08 09 0A 0B 0C 0D 0E 0F |0123456789ABCDEF|
|------------------------------------------------|----------------|
|00 0C 6B A9 00 4D 00 00 00 0D 00 00 00 00 00 00 |..k..M..........|
|01 03 00 00 00 CC 18 00                         |........        |
-------------------------------------------------------------------
[Server] packet : (0x72) F_CREATE_MONSTER  Size = 149 
|------------------------------------------------|----------------|
|00 01 02 03 04 05 06 07 08 09 0A 0B 0C 0D 0E 0F |0123456789ABCDEF|
|------------------------------------------------|----------------|
|00 92 72 0C 7C 00 00 09 BB 15 66 00 10 4A FE 00 |..r.|.....f..J..|
|0C DD F4 00 00 04 BF 32 11 41 00 00 00 00 20 00 |.......2.A.... .|
|00 00 00 03 E8 00 00 00 00 11 27 00 04 00 00 01 |..........'.....|
|19 00 4F 61 74 68 62 65 61 72 65 72 20 4D 61 72 |..Oathbearer Mar|
|6B 73 6D 61 6E 5E 66 00 01 0A 00 00 00 12 33 00 |ksman^f.......3.|
|0C 7C 8A FE BD F4 15 66 64 00 07 00 00 00 00 00 |.|.....fd.......|
|BB 09 0C 7C 00 08 00 0C 04 FE 01 14 07 D7 8E 8C |...|............|
|01 15 07 D9 8E 8C 01 16 07 D8 8E 8C 01 17 07 DB |................|
|8E 8C 01 18 07 DA 8E 8C 01 19 02 8A 8E 8C 01 1C |................|
|07 D6 8E 8C 00                                  |.....           |
-------------------------------------------------------------------
[Server] packet : (0xBD) F_PLAYER_INVENTORY  Size = 54 
|------------------------------------------------|----------------|
|00 01 02 03 04 05 06 07 08 09 0A 0B 0C 0D 0E 0F |0123456789ABCDEF|
|------------------------------------------------|----------------|
|00 33 BD 0C 7C 00 08 00 0C 04 FE 01 14 07 D7 8E |.3..|...........|
|8C 01 15 07 D9 8E 8C 01 16 07 D8 8E 8C 01 17 07 |................|
|DB 8E 8C 01 18 07 DA 8E 8C 01 19 02 8A 8E 8C 01 |................|
|1C 07 D6 8E 8C 00                               |......          |
-------------------------------------------------------------------
[Server] packet : (0x72) F_CREATE_MONSTER  Size = 130 
|------------------------------------------------|----------------|
|00 01 02 03 04 05 06 07 08 09 0A 0B 0C 0D 0E 0F |0123456789ABCDEF|
|------------------------------------------------|----------------|
|00 7F 72 18 96 00 00 03 A4 14 A9 00 10 4E BC 00 |..r..........N..|
|0C D5 CD 00 00 04 C0 32 12 81 00 00 00 00 20 00 |.......2...... .|
|00 00 00 03 E8 00 00 00 00 11 28 00 07 00 00 01 |..........(.....|
|19 00 4F 6E 65 20 54 75 73 6B 20 57 61 72 72 69 |..One Tusk Warri|
|6F 72 5E 6D 00 01 0A 00 00 00 12 23 00 18 96 8E |or^m.......#....|
|BC B5 CD 14 A9 64 00 07 00 00 00 00 00 A4 03 18 |.....d..........|
|96 00 05 01 14 0B B8 3A 58 01 15 0B B9 3A 58 01 |.......:X....:X.|
|16 0B BA 3A 58 01 18 0B BB 3A 58 01 1C 0B BC 3C |...:X....:X....<|
|58 00                                           |..              |
-------------------------------------------------------------------
[Server] packet : (0xBD) F_PLAYER_INVENTORY  Size = 38 
|------------------------------------------------|----------------|
|00 01 02 03 04 05 06 07 08 09 0A 0B 0C 0D 0E 0F |0123456789ABCDEF|
|------------------------------------------------|----------------|
|00 23 BD 18 96 00 05 01 14 0B B8 3A 58 01 15 0B |.#.........:X...|
|B9 3A 58 01 16 0B BA 3A 58 01 18 0B BB 3A 58 01 |.:X....:X....:X.|
|1C 0B BC 3C 58 00                               |......          |
-------------------------------------------------------------------
[Server] packet : (0x72) F_CREATE_MONSTER  Size = 153 
|------------------------------------------------|----------------|
|00 01 02 03 04 05 06 07 08 09 0A 0B 0C 0D 0E 0F |0123456789ABCDEF|
|------------------------------------------------|----------------|
|00 96 72 0E 10 00 00 0A 44 14 CF 00 10 48 BE 00 |..r.....D....H..|
|0C DE 02 00 00 04 BF 32 12 41 00 00 00 00 20 00 |.......2.A.... .|
|00 00 00 03 E8 00 00 00 00 11 26 00 02 00 00 01 |..........&.....|
|19 00 4F 61 74 68 62 65 61 72 65 72 20 44 65 66 |..Oathbearer Def|
|65 6E 64 65 72 5E 66 00 01 0A 00 00 00 12 37 00 |ender^f.......7.|
|0E 10 88 BE BE 02 14 CF 64 00 07 00 00 00 00 00 |........d.......|
|44 0A 0E 10 00 09 00 0A 04 81 00 0B 05 03 01 14 |D...............|
|08 91 8E 8F 01 15 08 93 8C 8F 01 16 08 92 8C 8E |................|
|01 17 08 95 8C 8F 01 18 08 94 8C 8E 01 19 02 96 |................|
|8C 8E 01 1C 08 90 8E 8C 00                      |.........       |
-------------------------------------------------------------------
[Server] packet : (0xBD) F_PLAYER_INVENTORY  Size = 58 
|------------------------------------------------|----------------|
|00 01 02 03 04 05 06 07 08 09 0A 0B 0C 0D 0E 0F |0123456789ABCDEF|
|------------------------------------------------|----------------|
|00 37 BD 0E 10 00 09 00 0A 04 81 00 0B 05 03 01 |.7..............|
|14 08 91 8E 8F 01 15 08 93 8C 8F 01 16 08 92 8C |................|
|8E 01 17 08 95 8C 8F 01 18 08 94 8C 8E 01 19 02 |................|
|96 8C 8E 01 1C 08 90 8E 8C 00                   |..........      |
-------------------------------------------------------------------
[Server] packet : (0x72) F_CREATE_MONSTER  Size = 140 
|------------------------------------------------|----------------|
|00 01 02 03 04 05 06 07 08 09 0A 0B 0C 0D 0E 0F |0123456789ABCDEF|
|------------------------------------------------|----------------|
|00 89 72 0E 11 00 00 02 B6 14 8F 00 10 4E 7F 00 |..r..........N..|
|0C D4 1A 00 00 04 C0 32 11 81 00 00 00 00 20 00 |.......2...... .|
|00 00 00 03 E8 00 00 00 00 11 29 00 02 00 00 01 |..........).....|
|19 00 4F 6E 65 20 54 75 73 6B 20 41 72 72 65 72 |..One Tusk Arrer|
|20 42 6F 79 5E 6D 00 01 0A 00 00 00 12 2B 00 0E | Boy^m.......+..|
|11 8E 7F B4 1A 14 8F 64 00 07 00 00 00 00 00 B6 |.......d........|
|02 0E 11 01 07 00 0A 04 4E 00 0C 04 50 01 14 09 |........N...P...|
|7B 3A 58 01 15 09 7D 3A 58 01 16 09 7C 3A 58 01 |{:X...}:X...|:X.|
|18 09 7E 3A 58 01 1C 09 7A 3C 58 00             |............    |
-------------------------------------------------------------------
[Server] packet : (0xBD) F_PLAYER_INVENTORY  Size = 46 
|------------------------------------------------|----------------|
|00 01 02 03 04 05 06 07 08 09 0A 0B 0C 0D 0E 0F |0123456789ABCDEF|
|------------------------------------------------|----------------|
|00 2B BD 0E 11 01 07 00 0A 04 4E 00 0C 04 50 01 |.+........N...P.|
|14 09 7B 3A 58 01 15 09 7D 3A 58 01 16 09 7C 3A |..{:X...}:X...|:|
|58 01 18 09 7E 3A 58 01 1C 09 7A 3C 58 00       |..............  |
-------------------------------------------------------------------
[Server] packet : (0x72) F_CREATE_MONSTER  Size = 153 
|------------------------------------------------|----------------|
|00 01 02 03 04 05 06 07 08 09 0A 0B 0C 0D 0E 0F |0123456789ABCDEF|
|------------------------------------------------|----------------|
|00 96 72 1B A1 00 00 0A FA 15 10 00 10 42 5F 00 |..r..........B_.|
|0C D8 4A 00 00 04 BE 32 11 41 00 00 00 00 20 00 |..J....2.A.... .|
|00 00 00 03 E8 00 00 00 00 11 26 00 00 00 00 01 |..........&.....|
|19 00 4F 61 74 68 62 65 61 72 65 72 20 44 65 66 |..Oathbearer Def|
|65 6E 64 65 72 5E 6D 00 01 0A 00 00 00 12 37 00 |ender^m.......7.|
|1B A1 82 5F B8 4A 15 10 64 00 07 00 00 00 00 00 |..._.J..d.......|
|FA 0A 1B A1 00 09 00 0A 04 81 00 0B 05 03 01 14 |................|
|08 91 8E 8F 01 15 08 93 8C 8F 01 16 08 92 8C 8E |................|
|01 17 08 95 8C 8F 01 18 08 94 8C 8E 01 19 02 96 |................|
|8C 8E 01 1C 08 90 8E 8C 00                      |.........       |
-------------------------------------------------------------------
[Server] packet : (0xBD) F_PLAYER_INVENTORY  Size = 58 
|------------------------------------------------|----------------|
|00 01 02 03 04 05 06 07 08 09 0A 0B 0C 0D 0E 0F |0123456789ABCDEF|
|------------------------------------------------|----------------|
|00 37 BD 1B A1 00 09 00 0A 04 81 00 0B 05 03 01 |.7..............|
|14 08 91 8E 8F 01 15 08 93 8C 8F 01 16 08 92 8C |................|
|8E 01 17 08 95 8C 8F 01 18 08 94 8C 8E 01 19 02 |................|
|96 8C 8E 01 1C 08 90 8E 8C 00                   |..........      |
-------------------------------------------------------------------
[Server] packet : (0x72) F_CREATE_MONSTER  Size = 153 
|------------------------------------------------|----------------|
|00 01 02 03 04 05 06 07 08 09 0A 0B 0C 0D 0E 0F |0123456789ABCDEF|
|------------------------------------------------|----------------|
|00 96 72 0E FD 00 00 0B 05 15 FB 00 10 4D 2F 00 |..r..........M/.|
|0C DE 6D 00 00 04 BE 32 12 41 00 00 00 00 20 00 |..m....2.A.... .|
|00 00 00 03 E8 00 00 00 00 11 26 00 04 00 00 01 |..........&.....|
|19 00 4F 61 74 68 62 65 61 72 65 72 20 44 65 66 |..Oathbearer Def|
|65 6E 64 65 72 5E 6D 00 01 0A 00 00 00 12 37 00 |ender^m.......7.|
|0E FD 8D 2F BE 6D 15 FB 64 00 07 00 00 00 00 00 |.../.m..d.......|
|05 0B 0E FD 00 09 00 0A 04 81 00 0B 05 03 01 14 |................|
|08 91 8E 8F 01 15 08 93 8C 8F 01 16 08 92 8C 8E |................|
|01 17 08 95 8C 8F 01 18 08 94 8C 8E 01 19 02 96 |................|
|8C 8E 01 1C 08 90 8E 8C 00                      |.........       |
-------------------------------------------------------------------
[Server] packet : (0xBD) F_PLAYER_INVENTORY  Size = 58 
|------------------------------------------------|----------------|
|00 01 02 03 04 05 06 07 08 09 0A 0B 0C 0D 0E 0F |0123456789ABCDEF|
|------------------------------------------------|----------------|
|00 37 BD 0E FD 00 09 00 0A 04 81 00 0B 05 03 01 |.7..............|
|14 08 91 8E 8F 01 15 08 93 8C 8F 01 16 08 92 8C |................|
|8E 01 17 08 95 8C 8F 01 18 08 94 8C 8E 01 19 02 |................|
|96 8C 8E 01 1C 08 90 8E 8C 00                   |..........      |
-------------------------------------------------------------------
[Server] packet : (0x72) F_CREATE_MONSTER  Size = 153 
|------------------------------------------------|----------------|
|00 01 02 03 04 05 06 07 08 09 0A 0B 0C 0D 0E 0F |0123456789ABCDEF|
|------------------------------------------------|----------------|
|00 96 72 0E FE 00 00 0B 6C 16 12 00 10 4F 6F 00 |..r.....l....Oo.|
|0C DD 87 00 00 04 BF 32 12 41 00 00 00 00 20 00 |.......2.A.... .|
|00 00 00 03 E8 00 00 00 00 11 26 00 09 00 00 01 |..........&.....|
|19 00 4F 61 74 68 62 65 61 72 65 72 20 44 65 66 |..Oathbearer Def|
|65 6E 64 65 72 5E 66 00 01 0A 00 00 00 12 37 00 |ender^f.......7.|
|0E FE 8F 6F BD 87 16 12 64 00 07 00 00 00 00 00 |...o....d.......|
|6C 0B 0E FE 00 09 00 0A 04 81 00 0B 05 03 01 14 |l...............|
|08 91 8E 8F 01 15 08 93 8C 8F 01 16 08 92 8C 8E |................|
|01 17 08 95 8C 8F 01 18 08 94 8C 8E 01 19 02 96 |................|
|8C 8E 01 1C 08 90 8E 8C 00                      |.........       |
-------------------------------------------------------------------
[Server] packet : (0xBD) F_PLAYER_INVENTORY  Size = 58 
|------------------------------------------------|----------------|
|00 01 02 03 04 05 06 07 08 09 0A 0B 0C 0D 0E 0F |0123456789ABCDEF|
|------------------------------------------------|----------------|
|00 37 BD 0E FE 00 09 00 0A 04 81 00 0B 05 03 01 |.7..............|
|14 08 91 8E 8F 01 15 08 93 8C 8F 01 16 08 92 8C |................|
|8E 01 17 08 95 8C 8F 01 18 08 94 8C 8E 01 19 02 |................|
|96 8C 8E 01 1C 08 90 8E 8C 00                   |..........      |
-------------------------------------------------------------------
[Server] packet : (0x72) F_CREATE_MONSTER  Size = 146 
|------------------------------------------------|----------------|
|00 01 02 03 04 05 06 07 08 09 0A 0B 0C 0D 0E 0F |0123456789ABCDEF|
|------------------------------------------------|----------------|
|00 8F 72 0F 01 00 00 03 6C 14 9E 00 10 4D 30 00 |..r.....l....M0.|
|0C D6 8A 00 00 04 C0 32 12 81 00 00 00 00 20 00 |.......2...... .|
|00 00 00 03 E8 00 00 00 00 11 29 00 01 00 00 01 |..........).....|
|19 00 4F 6E 65 20 54 75 73 6B 20 41 72 72 65 72 |..One Tusk Arrer|
|20 42 6F 79 5E 6D 00 01 0A 00 00 00 12 31 00 0F | Boy^m.......1..|
|01 8D 30 B6 8A 14 9E 64 00 07 00 00 00 00 00 6C |..0....d.......l|
|03 0F 01 01 08 00 0A 04 4E 00 0C 04 50 01 14 09 |........N...P...|
|7B 3A 58 01 15 09 7D 3A 58 01 16 09 7C 3A 58 01 |{:X...}:X...|:X.|
|17 09 7F 3A 58 01 18 09 7E 3A 58 01 1C 09 7A 3C |...:X...~:X...z<|
|58 00                                           |..              |
-------------------------------------------------------------------
[Server] packet : (0xBD) F_PLAYER_INVENTORY  Size = 52 
|------------------------------------------------|----------------|
|00 01 02 03 04 05 06 07 08 09 0A 0B 0C 0D 0E 0F |0123456789ABCDEF|
|------------------------------------------------|----------------|
|00 31 BD 0F 01 01 08 00 0A 04 4E 00 0C 04 50 01 |.1........N...P.|
|14 09 7B 3A 58 01 15 09 7D 3A 58 01 16 09 7C 3A |..{:X...}:X...|:|
|58 01 17 09 7F 3A 58 01 18 09 7E 3A 58 01 1C 09 |X....:X...~:X...|
|7A 3C 58 00                                     |....            |
-------------------------------------------------------------------
[Server] packet : (0x72) F_CREATE_MONSTER  Size = 129 
|------------------------------------------------|----------------|
|00 01 02 03 04 05 06 07 08 09 0A 0B 0C 0D 0E 0F |0123456789ABCDEF|
|------------------------------------------------|----------------|
|00 7E 72 0F 02 00 00 03 33 14 BB 00 10 4F 26 00 |.~r.....3....O&.|
|0C D5 F9 00 00 04 C1 37 12 83 00 00 00 00 00 00 |.......7........|
|00 00 00 03 E8 00 00 00 00 11 2B 00 00 00 00 01 |..........+.....|
|19 00 4B 6F 62 69 6B 20 64 61 20 42 6C 61 73 74 |..Kobik da Blast|
|61 5E 4D 00 01 0A 00 00 00 14 21 00 0F 02 8F 26 |a^M.......!....&|
|B5 F9 14 BB 64 02 07 00 00 00 00 00 33 03 17 2A |....d.......3..*|
|0F 02 00 07 00 0A 04 49 00 14 09 1B 00 15 09 1D |.......I........|
|00 16 09 1C 00 17 09 1F 00 18 09 1E 00 1C 09 1A |................|
|00                                              |.               |
-------------------------------------------------------------------
[Server] packet : (0xBD) F_PLAYER_INVENTORY  Size = 36 
|------------------------------------------------|----------------|
|00 01 02 03 04 05 06 07 08 09 0A 0B 0C 0D 0E 0F |0123456789ABCDEF|
|------------------------------------------------|----------------|
|00 21 BD 0F 02 00 07 00 0A 04 49 00 14 09 1B 00 |.!........I.....|
|15 09 1D 00 16 09 1C 00 17 09 1F 00 18 09 1E 00 |................|
|1C 09 1A 00                                     |....            |
-------------------------------------------------------------------
[Server] packet : (0x72) F_CREATE_MONSTER  Size = 149 
|------------------------------------------------|----------------|
|00 01 02 03 04 05 06 07 08 09 0A 0B 0C 0D 0E 0F |0123456789ABCDEF|
|------------------------------------------------|----------------|
|00 92 72 0F B8 00 00 0B 05 16 22 00 10 4D B0 00 |..r......."..M..|
|0C DE B3 00 00 04 BE 32 11 41 00 00 00 00 20 00 |.......2.A.... .|
|00 00 00 03 E8 00 00 00 00 11 27 00 05 00 00 01 |..........'.....|
|19 00 4F 61 74 68 62 65 61 72 65 72 20 4D 61 72 |..Oathbearer Mar|
|6B 73 6D 61 6E 5E 6D 00 01 0A 00 00 00 12 33 00 |ksman^m.......3.|
|0F B8 8D B0 BE B3 16 22 64 00 07 00 00 00 00 00 |......."d.......|
|05 0B 0F B8 01 08 00 0C 04 FE 01 14 07 D7 8E 8C |................|
|01 15 07 D9 8E 8C 01 16 07 D8 8E 8C 01 17 07 DB |................|
|8E 8C 01 18 07 DA 8E 8C 01 19 02 8A 8E 8C 01 1C |................|
|07 D6 8E 8C 00                                  |.....           |
-------------------------------------------------------------------
[Server] packet : (0xBD) F_PLAYER_INVENTORY  Size = 54 
|------------------------------------------------|----------------|
|00 01 02 03 04 05 06 07 08 09 0A 0B 0C 0D 0E 0F |0123456789ABCDEF|
|------------------------------------------------|----------------|
|00 33 BD 0F B8 01 08 00 0C 04 FE 01 14 07 D7 8E |.3..............|
|8C 01 15 07 D9 8E 8C 01 16 07 D8 8E 8C 01 17 07 |................|
|DB 8E 8C 01 18 07 DA 8E 8C 01 19 02 8A 8E 8C 01 |................|
|1C 07 D6 8E 8C 00                               |......          |
-------------------------------------------------------------------
[Server] packet : (0x72) F_CREATE_MONSTER  Size = 130 
|------------------------------------------------|----------------|
|00 01 02 03 04 05 06 07 08 09 0A 0B 0C 0D 0E 0F |0123456789ABCDEF|
|------------------------------------------------|----------------|
|00 7F 72 10 FF 00 00 02 66 14 8A 00 10 4D 84 00 |..r.....f....M..|
|0C D2 F6 00 00 04 C0 32 11 81 00 00 00 00 20 00 |.......2...... .|
|00 00 00 03 E8 00 00 00 00 11 28 00 06 00 00 01 |..........(.....|
|19 00 4F 6E 65 20 54 75 73 6B 20 57 61 72 72 69 |..One Tusk Warri|
|6F 72 5E 6D 00 01 0A 00 00 00 12 23 00 10 FF 8D |or^m.......#....|
|84 B2 F6 14 8A 64 00 07 00 00 00 00 00 66 02 10 |.....d.......f..|
|FF 00 05 01 14 0B B8 3A 58 01 15 0B B9 3A 58 01 |.......:X....:X.|
|16 0B BA 3A 58 01 18 0B BB 3A 58 01 1C 0B BC 3C |...:X....:X....<|
|58 00                                           |..              |
-------------------------------------------------------------------
[Server] packet : (0xBD) F_PLAYER_INVENTORY  Size = 38 
|------------------------------------------------|----------------|
|00 01 02 03 04 05 06 07 08 09 0A 0B 0C 0D 0E 0F |0123456789ABCDEF|
|------------------------------------------------|----------------|
|00 23 BD 10 FF 00 05 01 14 0B B8 3A 58 01 15 0B |.#.........:X...|
|B9 3A 58 01 16 0B BA 3A 58 01 18 0B BB 3A 58 01 |.:X....:X....:X.|
|1C 0B BC 3C 58 00                               |......          |
-------------------------------------------------------------------
[Server] packet : (0x72) F_CREATE_MONSTER  Size = 151 
|------------------------------------------------|----------------|
|00 01 02 03 04 05 06 07 08 09 0A 0B 0C 0D 0E 0F |0123456789ABCDEF|
|------------------------------------------------|----------------|
|00 94 72 11 30 00 00 0A 44 14 D9 00 10 49 A8 00 |..r.0...D....I..|
|0C DC 78 00 00 04 BE 32 12 41 00 00 00 00 20 00 |..x....2.A.... .|
|00 00 00 03 E8 00 00 00 00 11 27 00 03 00 00 01 |..........'.....|
|19 00 4F 61 74 68 62 65 61 72 65 72 20 4D 61 72 |..Oathbearer Mar|
|6B 73 6D 61 6E 5E 6D 00 01 0A 00 00 00 14 33 00 |ksman^m.......3.|
|11 30 89 A8 BC 78 14 D9 64 02 07 00 00 00 00 00 |.0...x..d.......|
|44 0A 54 18 11 30 00 08 00 0C 04 FE 01 14 07 D7 |D.T..0..........|
|8E 8C 01 15 07 D9 8E 8C 01 16 07 D8 8E 8C 01 17 |................|
|07 DB 8E 8C 01 18 07 DA 8E 8C 01 19 02 8A 8E 8C |................|
|01 1C 07 D6 8E 8C 00                            |.......         |
-------------------------------------------------------------------
[Server] packet : (0xBD) F_PLAYER_INVENTORY  Size = 54 
|------------------------------------------------|----------------|
|00 01 02 03 04 05 06 07 08 09 0A 0B 0C 0D 0E 0F |0123456789ABCDEF|
|------------------------------------------------|----------------|
|00 33 BD 11 30 00 08 00 0C 04 FE 01 14 07 D7 8E |.3..0...........|
|8C 01 15 07 D9 8E 8C 01 16 07 D8 8E 8C 01 17 07 |................|
|DB 8E 8C 01 18 07 DA 8E 8C 01 19 02 8A 8E 8C 01 |................|
|1C 07 D6 8E 8C 00                               |......          |
-------------------------------------------------------------------
[Server] packet : (0x72) F_CREATE_MONSTER  Size = 152 
|------------------------------------------------|----------------|
|00 01 02 03 04 05 06 07 08 09 0A 0B 0C 0D 0E 0F |0123456789ABCDEF|
|------------------------------------------------|----------------|
|00 95 72 13 E9 00 00 0B 79 14 A9 00 10 4B 80 00 |..r.....y....K..|
|0C D8 E7 00 00 04 BE 32 12 41 00 00 00 00 00 00 |.......2.A......|
|00 00 00 03 E8 00 00 00 00 00 00 00 00 00 00 02 |................|
|03 19 00 4F 61 74 68 62 65 61 72 65 72 20 4D 61 |...Oathbearer Ma|
|72 6B 73 6D 61 6E 5E 6D 00 01 0A 00 00 00 14 33 |rksman^m.......3|
|00 13 E9 8B 80 B8 E7 14 A9 00 02 07 02 00 00 00 |................|
|00 79 0B 7A 3A 13 E9 00 08 00 0C 04 FE 01 14 07 |.y.z:...........|
|D7 8E 8C 01 15 07 D9 8E 8C 01 16 07 D8 8E 8C 01 |................|
|17 07 DB 8E 8C 01 18 07 DA 8E 8C 01 19 02 8A 8E |................|
|8C 01 1C 07 D6 8E 8C 00                         |........        |
-------------------------------------------------------------------
[Server] packet : (0xBD) F_PLAYER_INVENTORY  Size = 54 
|------------------------------------------------|----------------|
|00 01 02 03 04 05 06 07 08 09 0A 0B 0C 0D 0E 0F |0123456789ABCDEF|
|------------------------------------------------|----------------|
|00 33 BD 13 E9 00 08 00 0C 04 FE 01 14 07 D7 8E |.3..............|
|8C 01 15 07 D9 8E 8C 01 16 07 D8 8E 8C 01 17 07 |................|
|DB 8E 8C 01 18 07 DA 8E 8C 01 19 02 8A 8E 8C 01 |................|
|1C 07 D6 8E 8C 00                               |......          |
-------------------------------------------------------------------
[Server] packet : (0x72) F_CREATE_MONSTER  Size = 135 
|------------------------------------------------|----------------|
|00 01 02 03 04 05 06 07 08 09 0A 0B 0C 0D 0E 0F |0123456789ABCDEF|
|------------------------------------------------|----------------|
|00 84 72 28 F2 00 EB 01 C3 14 5D 00 10 44 0A 00 |..r(......]..D..|
|0C DD FE 00 00 04 C1 32 0A 81 00 00 00 00 00 00 |.......2........|
|00 00 00 03 E8 00 00 00 00 12 BD 00 02 00 00 01 |................|
|19 00 47 6F 62 6C 69 6E 20 41 6D 62 75 73 68 65 |..Goblin Ambushe|
|72 5E 6D 00 01 0A 00 00 00 1A 21 00 28 F2 84 0A |r^m.......!.(...|
|BD FE 14 5D 64 01 07 00 00 00 00 00 EB 00 00 6C |...]d..........l|
|80 5D C2 09 15 07 28 F2 00 07 00 0A 04 26 00 0C |.]....(......&..|
|04 33 00 14 08 C7 00 15 08 C9 00 16 08 C8 00 18 |.3..............|
|08 CA 00 1C 08 C6 00                            |.......         |
-------------------------------------------------------------------
[Server] packet : (0xBD) F_PLAYER_INVENTORY  Size = 36 
|------------------------------------------------|----------------|
|00 01 02 03 04 05 06 07 08 09 0A 0B 0C 0D 0E 0F |0123456789ABCDEF|
|------------------------------------------------|----------------|
|00 21 BD 28 F2 00 07 00 0A 04 26 00 0C 04 33 00 |.!.(......&...3.|
|14 08 C7 00 15 08 C9 00 16 08 C8 00 18 08 CA 00 |................|
|1C 08 C6 00                                     |....            |
-------------------------------------------------------------------
[Server] packet : (0xD7) F_INIT_EFFECTS  Size = 14 
|------------------------------------------------|----------------|
|00 01 02 03 04 05 06 07 08 09 0A 0B 0C 0D 0E 0F |0123456789ABCDEF|
|------------------------------------------------|----------------|
|00 0B D7 01 02 00 00 19 4B 0B 00 72 37 00       |..............  |
-------------------------------------------------------------------
[Server] packet : (0xD7) F_INIT_EFFECTS  Size = 21 
|------------------------------------------------|----------------|
|00 01 02 03 04 05 06 07 08 09 0A 0B 0C 0D 0E 0F |0123456789ABCDEF|
|------------------------------------------------|----------------|
|00 12 D7 01 01 17 1F 19 4B 0D 00 72 37 00 4B 19 |........K..r7.K.|
|01 00 F4 03 00                                  |.....           |
-------------------------------------------------------------------
[Server] packet : (0x71) F_CREATE_STATIC  Size = 53 
|------------------------------------------------|----------------|
|00 01 02 03 04 05 06 07 08 09 0A 0B 0C 0D 0E 0F |0123456789ABCDEF|
|------------------------------------------------|----------------|
|00 32 71 39 6A 00 00 07 F4 14 82 00 10 41 25 00 |.2q9j........A%.|
|0C B3 9A 07 03 1E 00 00 01 46 DD 00 01 24 00 00 |.........F...$..|
|00 00 64 85 12 30 56 00 00 00 00 08 4F 72 64 6E |..d..0V.....Ordn|
|61 6E 63 65 00                                  |.....           |
-------------------------------------------------------------------
[Client] packet : (0x0B) F_PING  Size = 32 
|------------------------------------------------|----------------|
|00 01 02 03 04 05 06 07 08 09 0A 0B 0C 0D 0E 0F |0123456789ABCDEF|
|------------------------------------------------|----------------|
|00 14 6B AC 00 4D 00 00 00 0B 00 8F 0C 9F E0 DF |..k..M..........|
|BE EB B9 BC F6 EC 00 00 00 00 00 00 00 00 FF 7C |...............||                                                
-------------------------------------------------------------------
[Server] packet : (0x81) S_PONG  Size = 23 
|------------------------------------------------|----------------|
|00 01 02 03 04 05 06 07 08 09 0A 0B 0C 0D 0E 0F |0123456789ABCDEF|
|------------------------------------------------|----------------|
|00 14 81 00 8F 0C 9F 52 8A 84 91 00 00 00 00 00 |.......R........|
|00 6B AD 00 00 00 00                            |.......         |
-------------------------------------------------------------------
[Server] packet : (0xD7) F_INIT_EFFECTS  Size = 14 
|------------------------------------------------|----------------|
|00 01 02 03 04 05 06 07 08 09 0A 0B 0C 0D 0E 0F |0123456789ABCDEF|
|------------------------------------------------|----------------|
|00 0B D7 01 02 00 00 19 4B 0D 00 72 37 00       |..............  |
-------------------------------------------------------------------
[Server] packet : (0xD7) F_INIT_EFFECTS  Size = 21 
|------------------------------------------------|----------------|
|00 01 02 03 04 05 06 07 08 09 0A 0B 0C 0D 0E 0F |0123456789ABCDEF|
|------------------------------------------------|----------------|
|00 12 D7 01 01 00 00 19 4B 0A 00 72 37 00 4B 19 |........K..r7.K.|
|01 00 F4 03 00                                  |.....           |
-------------------------------------------------------------------
[Server] packet : (0xAB) F_DUEL  Size = 7 
|------------------------------------------------|----------------|
|00 01 02 03 04 05 06 07 08 09 0A 0B 0C 0D 0E 0F |0123456789ABCDEF|
|------------------------------------------------|----------------|
|00 04 AB 00 00 03 00                            |.......         |
-------------------------------------------------------------------
[Server] packet : (0xD7) F_INIT_EFFECTS  Size = 14 
|------------------------------------------------|----------------|
|00 01 02 03 04 05 06 07 08 09 0A 0B 0C 0D 0E 0F |0123456789ABCDEF|
|------------------------------------------------|----------------|
|00 0B D7 01 02 00 00 19 4B 0A 00 72 37 00       |..............  |
-------------------------------------------------------------------
[Server] packet : (0xD7) F_INIT_EFFECTS  Size = 21 
|------------------------------------------------|----------------|
|00 01 02 03 04 05 06 07 08 09 0A 0B 0C 0D 0E 0F |0123456789ABCDEF|
|------------------------------------------------|----------------|
|00 12 D7 01 01 00 00 19 4B 0B 00 72 37 00 4B 19 |........K..r7.K.|
|01 00 F4 03 00                                  |.....           |
-------------------------------------------------------------------
[Server] packet : (0xD7) F_INIT_EFFECTS  Size = 14 
|------------------------------------------------|----------------|
|00 01 02 03 04 05 06 07 08 09 0A 0B 0C 0D 0E 0F |0123456789ABCDEF|
|------------------------------------------------|----------------|
|00 0B D7 01 02 00 00 19 4B 0B 00 72 37 00       |..............  |
-------------------------------------------------------------------
[Server] packet : (0xD7) F_INIT_EFFECTS  Size = 21 
|------------------------------------------------|----------------|
|00 01 02 03 04 05 06 07 08 09 0A 0B 0C 0D 0E 0F |0123456789ABCDEF|
|------------------------------------------------|----------------|
|00 12 D7 01 01 C2 FF 19 4B 0D 00 72 37 00 4B 19 |........K..r7.K.|
|01 00 F4 03 00                                  |.....           |
-------------------------------------------------------------------
[Server] packet : (0xD7) F_INIT_EFFECTS  Size = 14 
|------------------------------------------------|----------------|
|00 01 02 03 04 05 06 07 08 09 0A 0B 0C 0D 0E 0F |0123456789ABCDEF|
|------------------------------------------------|----------------|
|00 0B D7 01 02 00 00 19 4B 0D 00 72 37 00       |..............  |
-------------------------------------------------------------------
[Server] packet : (0xD7) F_INIT_EFFECTS  Size = 21 
|------------------------------------------------|----------------|
|00 01 02 03 04 05 06 07 08 09 0A 0B 0C 0D 0E 0F |0123456789ABCDEF|
|------------------------------------------------|----------------|
|00 12 D7 01 01 C2 FF 19 4B 0A 00 72 37 00 4B 19 |........K..r7.K.|
|01 00 F4 03 00                                  |.....           |
-------------------------------------------------------------------