
[Client] packet : (0x5A) F_PING_DATAGRAM  Size = 13 
|------------------------------------------------|----------------|
|00 01 02 03 04 05 06 07 08 09 0A 0B 0C 0D 0E 0F |0123456789ABCDEF|
|------------------------------------------------|----------------|
|00 01 09 3F 00 49 FF FF 00 5A 00 13 A4          |.............   |
-------------------------------------------------------------------
[Client] packet : (0xD2) F_INTERACT  Size = 24 
|------------------------------------------------|----------------|
|00 01 02 03 04 05 06 07 08 09 0A 0B 0C 0D 0E 0F |0123456789ABCDEF|
|------------------------------------------------|----------------|
|00 0C 09 40 00 49 00 00 00 D2 00 00 04 7A 00 00 |...@.I.......z..|
|00 00 00 00 00 00 00 00                         |........        |
-------------------------------------------------------------------
[Server] packet : (0x44) F_ACTION_COUNTER_UPDATE  Size = 11 
|------------------------------------------------|----------------|
|00 01 02 03 04 05 06 07 08 09 0A 0B 0C 0D 0E 0F |0123456789ABCDEF|
|------------------------------------------------|----------------|
|00 08 44 01 D7 00 00 00 00 00 00                |...........     |
-------------------------------------------------------------------
[Server] packet : (0x86) F_MAIL  Size = 6 
|------------------------------------------------|----------------|
|00 01 02 03 04 05 06 07 08 09 0A 0B 0C 0D 0E 0F |0123456789ABCDEF|
|------------------------------------------------|----------------|
|00 03 86 00 00 00                               |......          |
-------------------------------------------------------------------
[Server] packet : (0x86) F_MAIL  Size = 13 
|------------------------------------------------|----------------|
|00 01 02 03 04 05 06 07 08 09 0A 0B 0C 0D 0E 0F |0123456789ABCDEF|
|------------------------------------------------|----------------|
|00 0A 86 0E 00 00 00 00 1E 0A D7 A3 00          |.............   |
-------------------------------------------------------------------
[Client] packet : (0x01) UNKNOWN  Size = 32 
|------------------------------------------------|----------------|
|00 01 02 03 04 05 06 07 08 09 0A 0B 0C 0D 0E 0F |0123456789ABCDEF|
|------------------------------------------------|----------------|
|00 14 09 42 00 49 00 00 00 01 00 0D D0 00 00 00 |...B.I..........|
|00 00 00 00 00 00 00 00 04 4E 00 00 1A B5 00 00 |.........N......|                                                
-------------------------------------------------------------------
[Server] packet : (0x86) F_MAIL  Size = 412 
|------------------------------------------------|----------------|
|00 01 02 03 04 05 06 07 08 09 0A 0B 0C 0D 0E 0F |0123456789ABCDEF|
|------------------------------------------------|----------------|
|01 99 86 0A 00 00 05 00 00 00 00 01 39 DF 2D 00 |............9.-.|
|01 64 FF FF FD 3C FF FF FD 3C 00 12 74 A7 00 00 |.d...<...<..t...|
|09 48 61 73 61 72 64 5E 46 00 00 08 57 61 72 65 |.Hasard^F...Ware|
|6D 68 75 00 00 0D 63 6F 75 72 69 65 72 20 76 69 |mhu...courier vi|
|64 65 00 00 00 00 00 00 00 00 00 00 00 00 00 00 |de..............|
|00 01 39 DF 36 00 02 64 FF FF FD E1 FF FF FD E1 |..9.6..d........|
|00 27 8A E1 00 00 09 48 61 73 61 72 64 5E 46 00 |.'.....Hasard^F.|
|00 08 57 61 72 65 6D 68 75 00 00 09 74 65 73 74 |..Waremhu...test|
|20 30 30 32 00 00 00 00 00 00 00 00 00 00 01 00 | 002............|
|00 00 0B 38 00 00 00 00 01 39 DF 3E 00 02 64 FF |...8.....9.>..d.|
|FF FE 26 FF FF FE 26 00 27 8B 26 00 00 09 48 61 |..&...&.'.&...Ha|
|73 61 72 64 5E 46 00 00 08 57 61 72 65 6D 68 75 |sard^F...Waremhu|
|00 00 09 74 65 73 74 20 30 30 33 00 00 00 00 00 |...test 003.....|
|00 00 07 D0 00 01 00 00 00 1B AE 00 00 00 00 01 |................|
|39 DF 40 00 02 64 FF FF FE 8C FF FF FE 8C 00 03 |9.@..d..........|
|F3 0C 00 00 09 48 61 73 61 72 64 5E 46 00 00 08 |.....Hasard^F...|
|57 61 72 65 6D 68 75 00 00 09 74 65 73 74 20 30 |Waremhu...test 0|
|30 34 00 FF FF FF FF FF FF F8 30 00 01 00 00 00 |04........0.....|
|1A 78 00 00 00 00 01 39 DF 47 00 02 64 FF FF FF |.x.....9.G..d...|
|15 FF FF FF 15 00 27 8C 15 00 00 09 48 61 73 61 |......'.....Hasa|
|72 64 5E 46 00 00 08 57 61 72 65 6D 68 75 00 00 |rd^F...Waremhu..|
|09 74 65 73 74 20 30 30 35 00 00 00 00 00 00 00 |.test 005.......|
|00 00 00 0D 00 00 00 00 0F 38 00 00 01 97 00 00 |.........8......|
|01 87 00 00 1A 66 00 00 10 01 00 00 0F 38 00 00 |.....f.......8..|
|0F 54 00 00 0F 38 00 00 01 97 00 00 0F 21 00 00 |.T...8.......!..|
|0F 54 00 00 0F 21 00 00 03 12 00 00             |............    |
-------------------------------------------------------------------
[Client] packet : (0x0B) F_PING  Size = 32 
|------------------------------------------------|----------------|
|00 01 02 03 04 05 06 07 08 09 0A 0B 0C 0D 0E 0F |0123456789ABCDEF|
|------------------------------------------------|----------------|
|00 14 09 43 00 49 00 00 00 0B 00 0D D5 C9 47 08 |...C.I........G.|
|C1 82 69 83 BB 52 00 00 00 00 00 00 00 00 2F 8A |..i..R......../.|                                                
-------------------------------------------------------------------
[Server] packet : (0x81) S_PONG  Size = 23 
|------------------------------------------------|----------------|
|00 01 02 03 04 05 06 07 08 09 0A 0B 0C 0D 0E 0F |0123456789ABCDEF|
|------------------------------------------------|----------------|
|00 14 81 00 0D D5 C9 52 82 85 E1 00 00 00 00 00 |.......R........|
|00 09 44 00 00 00 00                            |.......         |
-------------------------------------------------------------------
[Server] packet : (0x00) UNKNOWN  Size = 23 
|------------------------------------------------|----------------|
|00 01 02 03 04 05 06 07 08 09 0A 0B 0C 0D 0E 0F |0123456789ABCDEF|
|------------------------------------------------|----------------|
|00 14 00 00 0D D0 00 AF 5A DF 16 00 00 00 00 00 |........Z.......|
|00 04 4E 00 00 1A 00                            |.......         |
-------------------------------------------------------------------
[Server] packet : (0x86) F_MAIL  Size = 9 
|------------------------------------------------|----------------|
|00 01 02 03 04 05 06 07 08 09 0A 0B 0C 0D 0E 0F |0123456789ABCDEF|
|------------------------------------------------|----------------|
|00 06 86 0A 01 00 00 00 00                      |.........       |
-------------------------------------------------------------------
[Server] packet : (0x0A) F_OBJECT_DEATH  Size = 15 
|------------------------------------------------|----------------|
|00 01 02 03 04 05 06 07 08 09 0A 0B 0C 0D 0E 0F |0123456789ABCDEF|
|------------------------------------------------|----------------|
|00 0C 0A 1F 91 00 00 00 00 00 00 00 00 00 00    |............... |
-------------------------------------------------------------------
[Client] packet : (0x16) F_REQUEST_INIT_OBJECT  Size = 16 
|------------------------------------------------|----------------|
|00 01 02 03 04 05 06 07 08 09 0A 0B 0C 0D 0E 0F |0123456789ABCDEF|
|------------------------------------------------|----------------|
|00 04 09 4B 00 49 00 00 00 16 26 12 00 00 1F C5 |...K.I....&.....|                                                
-------------------------------------------------------------------
[Server] packet : (0x72) F_CREATE_MONSTER  Size = 136 
|------------------------------------------------|----------------|
|00 01 02 03 04 05 06 07 08 09 0A 0B 0C 0D 0E 0F |0123456789ABCDEF|
|------------------------------------------------|----------------|
|00 85 72 26 12 00 EB 0D 87 3E BE 00 12 F0 2A 00 |..r&.....>....*.|
|0C EB 41 00 00 06 9A 32 1B 80 00 00 00 00 00 00 |..A....2........|
|00 01 00 03 E8 00 00 00 00 57 1C 00 00 00 00 03 |.........W......|
|18 19 1C 00 54 68 65 20 57 68 69 73 70 65 72 69 |....The Whisperi|
|6E 67 20 56 6F 69 63 65 5E 6D 00 00 00 00 03 02 |ng Voice^m......|
|28 01 0A 00 00 00 1A 15 00 26 12 70 2A 6B 41 3E |(........&.p*kA>|
|BE 64 01 66 00 00 00 00 03 EB 00 00 2B 8B BC 7D |.d.f........+..}|
|00 46 66 26 12 00 04 00 0A 07 12 00 14 0A AC 00 |.Ff&............|
|16 0A AD 00 18 0A AF 00                         |........        |
-------------------------------------------------------------------
[Client] packet : (0x86) F_MAIL  Size = 23 
|------------------------------------------------|----------------|
|00 01 02 03 04 05 06 07 08 09 0A 0B 0C 0D 0E 0F |0123456789ABCDEF|
|------------------------------------------------|----------------|
|00 0B 09 4E 00 49 FF FF 00 86 02 00 2D DF 39 01 |...N.I......-.9.|
|00 00 00 00 00 00 00                            |.......         |
-------------------------------------------------------------------
[Client] packet : (0x86) F_MAIL  Size = 23 
|------------------------------------------------|----------------|
|00 01 02 03 04 05 06 07 08 09 0A 0B 0C 0D 0E 0F |0123456789ABCDEF|
|------------------------------------------------|----------------|
|00 0B 09 50 00 49 FF FF 00 86 02 00 2D DF 39 01 |...P.I......-.9.|
|00 00 00 00 00 00 00                            |.......         |
-------------------------------------------------------------------
[Client] packet : (0x0B) F_PING  Size = 32 
|------------------------------------------------|----------------|
|00 01 02 03 04 05 06 07 08 09 0A 0B 0C 0D 0E 0F |0123456789ABCDEF|
|------------------------------------------------|----------------|
|00 14 09 51 00 49 00 00 00 0B 00 0D E9 5C 8F D4 |...Q.I.......\..|
|42 4F 17 82 2A 91 00 00 00 00 00 00 00 00 7F 05 |BO..*...........|                                                
-------------------------------------------------------------------
[Server] packet : (0x86) F_MAIL  Size = 6 
|------------------------------------------------|----------------|
|00 01 02 03 04 05 06 07 08 09 0A 0B 0C 0D 0E 0F |0123456789ABCDEF|
|------------------------------------------------|----------------|
|00 03 86 0F 00 00                               |......          |
-------------------------------------------------------------------
[Server] packet : (0x81) S_PONG  Size = 23 
|------------------------------------------------|----------------|
|00 01 02 03 04 05 06 07 08 09 0A 0B 0C 0D 0E 0F |0123456789ABCDEF|
|------------------------------------------------|----------------|
|00 14 81 00 0D E9 5C 52 82 85 E6 00 00 00 00 00 |......\R........|
|00 09 52 00 00 00 00                            |.......         |
-------------------------------------------------------------------
[Server] packet : (0x86) F_MAIL  Size = 91 
|------------------------------------------------|----------------|
|00 01 02 03 04 05 06 07 08 09 0A 0B 0C 0D 0E 0F |0123456789ABCDEF|
|------------------------------------------------|----------------|
|00 58 86 0D 00 00 00 00 00 01 39 DF 2D 00 01 64 |.X........9.-..d|
|FF FF FD 37 FF FF FD 37 00 12 74 A2 00 00 09 48 |...7...7..t....H|
|61 73 61 72 64 5E 46 00 00 08 57 61 72 65 6D 68 |asard^F...Waremh|
|75 00 00 0D 63 6F 75 72 69 65 72 20 76 69 64 65 |u...courier vide|
|00 00 00 00 00 00 00 00 00 00 00 00 0D 63 6F 75 |.............cou|
|72 69 65 72 20 76 69 64 65 00 00                |...........     |
-------------------------------------------------------------------
[Server] packet : (0x71) F_CREATE_STATIC  Size = 53 
|------------------------------------------------|----------------|
|00 01 02 03 04 05 06 07 08 09 0A 0B 0C 0D 0E 0F |0123456789ABCDEF|
|------------------------------------------------|----------------|
|00 32 71 15 2B 00 00 00 22 47 13 00 13 0C 71 00 |.2q.+..."G....q.|
|0C E1 20 01 36 1E 00 00 00 57 20 00 01 20 00 00 |.. .6....W .. ..|
|00 00 64 AF 5A FE BD 00 00 00 00 08 46 69 72 65 |..d.Z.......Fire|
|62 61 6C 6C 00                                  |.....           |
-------------------------------------------------------------------
[Client] packet : (0x0B) F_PING  Size = 32 
|------------------------------------------------|----------------|
|00 01 02 03 04 05 06 07 08 09 0A 0B 0C 0D 0E 0F |0123456789ABCDEF|
|------------------------------------------------|----------------|
|00 14 09 5B 00 49 00 00 00 0B 00 0D FC EF F6 8F |...[.I..........|
|EB E9 9F 3D 7F 6F 00 00 00 00 00 00 00 00 7F 05 |...=.o..........|                                                
-------------------------------------------------------------------
[Server] packet : (0x81) S_PONG  Size = 23 
|------------------------------------------------|----------------|
|00 01 02 03 04 05 06 07 08 09 0A 0B 0C 0D 0E 0F |0123456789ABCDEF|
|------------------------------------------------|----------------|
|00 14 81 00 0D FC EF 52 82 85 EB 00 00 00 00 00 |.......R........|
|00 09 5C 00 00 00 00                            |.......         |
-------------------------------------------------------------------
[Client] packet : (0x01) UNKNOWN  Size = 32 
|------------------------------------------------|----------------|
|00 01 02 03 04 05 06 07 08 09 0A 0B 0C 0D 0E 0F |0123456789ABCDEF|
|------------------------------------------------|----------------|
|00 14 09 5D 00 49 00 00 00 01 00 0D F8 4D 00 00 |...].I.......M..|
|00 00 00 00 00 00 00 00 54 85 00 00 3C 60 50 39 |........T...<`P9|                                                
-------------------------------------------------------------------
[Server] packet : (0x00) UNKNOWN  Size = 23 
|------------------------------------------------|----------------|
|00 01 02 03 04 05 06 07 08 09 0A 0B 0C 0D 0E 0F |0123456789ABCDEF|
|------------------------------------------------|----------------|
|00 14 00 00 0D F8 4D AF 5B 07 6A 00 00 00 00 00 |......M.[.j.....|
|00 54 85 00 00 3C 00                            |.......         |
-------------------------------------------------------------------
[Client] packet : (0x5A) F_PING_DATAGRAM  Size = 13 
|------------------------------------------------|----------------|
|00 01 02 03 04 05 06 07 08 09 0A 0B 0C 0D 0E 0F |0123456789ABCDEF|
|------------------------------------------------|----------------|
|00 01 09 64 00 49 FF FF 00 5A 00 FC 9C          |.............   |
-------------------------------------------------------------------
[Server] packet : (0x0A) F_OBJECT_DEATH  Size = 15 
|------------------------------------------------|----------------|
|00 01 02 03 04 05 06 07 08 09 0A 0B 0C 0D 0E 0F |0123456789ABCDEF|
|------------------------------------------------|----------------|
|00 0C 0A 29 DF 00 00 00 00 00 00 00 00 00 00    |............... |
-------------------------------------------------------------------
[Client] packet : (0x16) F_REQUEST_INIT_OBJECT  Size = 16 
|------------------------------------------------|----------------|
|00 01 02 03 04 05 06 07 08 09 0A 0B 0C 0D 0E 0F |0123456789ABCDEF|
|------------------------------------------------|----------------|
|00 04 09 65 00 49 00 00 00 16 24 CD 00 00 F5 CA |...e.I....$.....|                                                
-------------------------------------------------------------------
[Server] packet : (0x72) F_CREATE_MONSTER  Size = 117 
|------------------------------------------------|----------------|
|00 01 02 03 04 05 06 07 08 09 0A 0B 0C 0D 0E 0F |0123456789ABCDEF|
|------------------------------------------------|----------------|
|00 72 72 24 CD 00 55 0E 93 43 B8 00 13 04 D0 00 |.rr$..U..C......|
|0C E0 07 00 00 04 00 32 1B 01 00 00 00 00 00 00 |.......2........|
|00 00 00 03 E8 00 00 00 00 59 22 00 04 00 00 01 |.........Y".....|
|19 00 4B 75 6C 69 61 6E 20 42 6F 6E 65 61 72 63 |..Kulian Bonearc|
|68 65 72 5E 6D 00 01 0A 00 00 00 1A 0D 00 24 CD |her^m.........$.|
|84 D0 60 07 43 B8 64 01 66 00 00 00 00 00 55 00 |..`.C.d.f.....U.|
|00 A1 85 55 61 B1 43 66 24 CD 00 02 00 0A 0D 26 |...Ua.Cf$......&|
|00 0C 05 51 00                                  |.....           |
-------------------------------------------------------------------
[Client] packet : (0x0B) F_PING  Size = 32 
|------------------------------------------------|----------------|
|00 01 02 03 04 05 06 07 08 09 0A 0B 0C 0D 0E 0F |0123456789ABCDEF|
|------------------------------------------------|----------------|
|00 14 09 68 00 49 00 00 00 0B 00 0E 10 7C 02 10 |...h.I.......|..|
|C4 0C 90 80 07 90 00 00 00 00 00 00 00 00 7F 05 |................|                                                
-------------------------------------------------------------------
[Server] packet : (0x81) S_PONG  Size = 23 
|------------------------------------------------|----------------|
|00 01 02 03 04 05 06 07 08 09 0A 0B 0C 0D 0E 0F |0123456789ABCDEF|
|------------------------------------------------|----------------|
|00 14 81 00 0E 10 7C 52 82 85 F0 00 00 00 00 00 |......|R........|
|00 09 69 00 00 00 00                            |.......         |
-------------------------------------------------------------------
[Server] packet : (0x0A) F_OBJECT_DEATH  Size = 15 
|------------------------------------------------|----------------|
|00 01 02 03 04 05 06 07 08 09 0A 0B 0C 0D 0E 0F |0123456789ABCDEF|
|------------------------------------------------|----------------|
|00 0C 0A 2C F2 00 00 00 00 00 00 00 00 00 00    |............... |
-------------------------------------------------------------------
[Server] packet : (0x1A) F_CAMPAIGN_STATUS  Size = 159 
|------------------------------------------------|----------------|
|00 01 02 03 04 05 06 07 08 09 0A 0B 0C 0D 0E 0F |0123456789ABCDEF|
|------------------------------------------------|----------------|
|00 9C 1A 00 05 00 6D 00 CB 00 00 00 32 00 32 32 |......m.....2.22|
|00 32 32 00 32 32 00 00 64 00 32 32 00 64 00 00 |.22.22..d.22.d..|
|32 32 00 00 00 00 32 32 00 32 32 00 32 32 00 00 |22....22.22.22..|
|00 00 00 00 00 00 00 00 00 00 00 00 00 00 00 00 |................|
|00 00 00 00 00 00 00 64 63 00 00 64 00 00 64 36 |.......dc..d..d6|
|00 00 00 00 2D 00 00 00 00 01 00 01 00 00 00 00 |....-...........|
|00 00 00 00 00 00 00 00 00 00 00 00 00 00 00 00 |................|
|00 00 00 00 00 00 00 00 00 00 00 00 00 00 00 00 |................|
|00 03 01 00 02 03 03 00 02 02 03 03 01 01 00 03 |................|
|00 00 46 1E 0A 3C 00 00 00 03 84 00 00 01 00    |............... |
-------------------------------------------------------------------
[Client] packet : (0x0B) F_PING  Size = 32 
|------------------------------------------------|----------------|
|00 01 02 03 04 05 06 07 08 09 0A 0B 0C 0D 0E 0F |0123456789ABCDEF|
|------------------------------------------------|----------------|
|00 14 09 72 00 49 00 00 00 0B 00 0E 24 06 93 7F |...r.I......$...|
|FF B3 18 F9 D9 6A 00 00 00 00 00 00 00 00 7F 05 |.....j..........|                                                
-------------------------------------------------------------------
[Server] packet : (0x81) S_PONG  Size = 23 
|------------------------------------------------|----------------|
|00 01 02 03 04 05 06 07 08 09 0A 0B 0C 0D 0E 0F |0123456789ABCDEF|
|------------------------------------------------|----------------|
|00 14 81 00 0E 24 06 52 82 85 F5 00 00 00 00 00 |.....$.R........|
|00 09 73 00 00 00 00                            |.......         |
-------------------------------------------------------------------
[Client] packet : (0x01) UNKNOWN  Size = 32 
|------------------------------------------------|----------------|
|00 01 02 03 04 05 06 07 08 09 0A 0B 0C 0D 0E 0F |0123456789ABCDEF|
|------------------------------------------------|----------------|
|00 14 09 74 00 49 00 00 00 01 00 0E 20 A5 00 00 |...t.I...... ...|
|00 00 00 00 00 00 00 00 14 13 00 00 3C E0 00 00 |............<...|                                                
-------------------------------------------------------------------
[Server] packet : (0x00) UNKNOWN  Size = 23 
|------------------------------------------------|----------------|
|00 01 02 03 04 05 06 07 08 09 0A 0B 0C 0D 0E 0F |0123456789ABCDEF|
|------------------------------------------------|----------------|
|00 14 00 00 0E 20 A5 AF 5B 2F BB 00 00 00 00 00 |..... ..[/......|
|00 14 13 00 00 3C 00                            |.......         |
-------------------------------------------------------------------
[Client] packet : (0xFE) F_PLAY_VOICE_OVER  Size = 16 
|------------------------------------------------|----------------|
|00 01 02 03 04 05 06 07 08 09 0A 0B 0C 0D 0E 0F |0123456789ABCDEF|
|------------------------------------------------|----------------|
|00 04 09 7C 00 49 FF FF 00 FE 02 00 00 00 3D A0 |...|.I........=.|                                                
-------------------------------------------------------------------
[Server] packet : (0x74) UNKNOWN  Size = 44 
|------------------------------------------------|----------------|
|00 01 02 03 04 05 06 07 08 09 0A 0B 0C 0D 0E 0F |0123456789ABCDEF|
|------------------------------------------------|----------------|
|00 29 74 01 01 00 00 00 04 02 00 00 01 00 03 00 |.)t.............|
|00 00 00 00 00 00 01 00 01 00 00 01 F4 00 00 00 |................|
|66 02 00 01 00 00 01 F4 00 00 01 00             |............    |
-------------------------------------------------------------------
[Server] packet : (0x51) F_ANIMATION  Size = 9 
|------------------------------------------------|----------------|
|00 01 02 03 04 05 06 07 08 09 0A 0B 0C 0D 0E 0F |0123456789ABCDEF|
|------------------------------------------------|----------------|
|00 06 51 01 B6 00 AC 00 00                      |.........       |
-------------------------------------------------------------------
[Client] packet : (0x0B) F_PING  Size = 32 
|------------------------------------------------|----------------|
|00 01 02 03 04 05 06 07 08 09 0A 0B 0C 0D 0E 0F |0123456789ABCDEF|
|------------------------------------------------|----------------|
|00 14 09 7F 00 49 00 00 00 0B 00 0E 37 90 15 90 |.....I......7...|
|C6 42 85 45 26 05 00 00 00 00 00 00 00 00 7F 05 |.B.E&...........|                                                
-------------------------------------------------------------------
[Server] packet : (0x81) S_PONG  Size = 23 
|------------------------------------------------|----------------|
|00 01 02 03 04 05 06 07 08 09 0A 0B 0C 0D 0E 0F |0123456789ABCDEF|
|------------------------------------------------|----------------|
|00 14 81 00 0E 37 90 52 82 85 FA 00 00 00 00 00 |.....7.R........|
|00 09 80 00 00 00 00                            |.......         |
-------------------------------------------------------------------
[Server] packet : (0x0A) F_OBJECT_DEATH  Size = 15 
|------------------------------------------------|----------------|
|00 01 02 03 04 05 06 07 08 09 0A 0B 0C 0D 0E 0F |0123456789ABCDEF|
|------------------------------------------------|----------------|
|00 0C 0A 15 2B 00 00 00 00 00 00 00 00 00 00    |............... |
-------------------------------------------------------------------
[Server] packet : (0x1D) F_GUILD_DATA  Size = 29 
|------------------------------------------------|----------------|
|00 01 02 03 04 05 06 07 08 09 0A 0B 0C 0D 0E 0F |0123456789ABCDEF|
|------------------------------------------------|----------------|
|00 1A 1D 21 01 00 00 00 00 00 00 00 A4 00 00 00 |...!............|
|00 00 00 00 00 00 00 00 00 52 80 27 00          |.............   |
-------------------------------------------------------------------
[Client] packet : (0x5A) F_PING_DATAGRAM  Size = 13 
|------------------------------------------------|----------------|
|00 01 02 03 04 05 06 07 08 09 0A 0B 0C 0D 0E 0F |0123456789ABCDEF|
|------------------------------------------------|----------------|
|00 01 09 87 00 49 FF FF 00 5A 00 AF C4          |.............   |
-------------------------------------------------------------------
[Client] packet : (0x0B) F_PING  Size = 32 
|------------------------------------------------|----------------|
|00 01 02 03 04 05 06 07 08 09 0A 0B 0C 0D 0E 0F |0123456789ABCDEF|
|------------------------------------------------|----------------|
|00 14 09 8A 00 49 00 00 00 0B 00 0E 4B 1B E8 47 |.....I......K..G|
|7E 6C D3 3B D4 B5 00 00 00 00 00 00 00 00 7F 05 |~l.;............|                                                
-------------------------------------------------------------------
[Server] packet : (0x81) S_PONG  Size = 23 
|------------------------------------------------|----------------|
|00 01 02 03 04 05 06 07 08 09 0A 0B 0C 0D 0E 0F |0123456789ABCDEF|
|------------------------------------------------|----------------|
|00 14 81 00 0E 4B 1B 52 82 85 FF 00 00 00 00 00 |.....K.R........|
|00 09 8B 00 00 00 00                            |.......         |
-------------------------------------------------------------------
[Client] packet : (0x01) UNKNOWN  Size = 32 
|------------------------------------------------|----------------|
|00 01 02 03 04 05 06 07 08 09 0A 0B 0C 0D 0E 0F |0123456789ABCDEF|
|------------------------------------------------|----------------|
|00 14 09 8C 00 49 00 00 00 01 00 0E 48 EA 20 07 |.....I......H. .|
|2A 68 90 38 40 04 00 23 3F BC 08 18 C9 CF 00 00 |*h.8@..#?.......|                                                
-------------------------------------------------------------------
[Server] packet : (0x00) UNKNOWN  Size = 23 
|------------------------------------------------|----------------|
|00 01 02 03 04 05 06 07 08 09 0A 0B 0C 0D 0E 0F |0123456789ABCDEF|
|------------------------------------------------|----------------|
|00 14 00 00 0E 48 EA AF 5B 57 EE 00 00 00 00 00 |.....H..[W......|
|23 3F BC 08 18 C9 00                            |.......         |
-------------------------------------------------------------------
[Client] packet : (0x0B) F_PING  Size = 32 
|------------------------------------------------|----------------|
|00 01 02 03 04 05 06 07 08 09 0A 0B 0C 0D 0E 0F |0123456789ABCDEF|
|------------------------------------------------|----------------|
|00 14 09 95 00 49 00 00 00 0B 00 0E 5E B0 C6 8C |.....I......^...|
|C0 41 D4 66 24 01 00 00 00 00 00 00 00 00 7F 05 |.A.f$...........|                                                
-------------------------------------------------------------------
[Server] packet : (0x81) S_PONG  Size = 23 
|------------------------------------------------|----------------|
|00 01 02 03 04 05 06 07 08 09 0A 0B 0C 0D 0E 0F |0123456789ABCDEF|
|------------------------------------------------|----------------|
|00 14 81 00 0E 5E B0 52 82 86 04 00 00 00 00 00 |.....^.R........|
|00 09 96 00 00 00 00                            |.......         |
-------------------------------------------------------------------
[Server] packet : (0x0A) F_OBJECT_DEATH  Size = 15 
|------------------------------------------------|----------------|
|00 01 02 03 04 05 06 07 08 09 0A 0B 0C 0D 0E 0F |0123456789ABCDEF|
|------------------------------------------------|----------------|
|00 0C 0A 1A DC 00 00 00 00 00 00 00 00 00 00    |............... |
-------------------------------------------------------------------
[Server] packet : (0x71) F_CREATE_STATIC  Size = 53 
|------------------------------------------------|----------------|
|00 01 02 03 04 05 06 07 08 09 0A 0B 0C 0D 0E 0F |0123456789ABCDEF|
|------------------------------------------------|----------------|
|00 32 71 05 B4 00 00 00 22 47 13 00 13 0C 71 00 |.2q....."G....q.|
|0C E1 20 01 36 1E 00 00 00 57 20 00 01 20 00 00 |.. .6....W .. ..|
|00 00 64 AF 5B 73 FB 00 00 00 00 08 46 69 72 65 |..d.[s......Fire|
|62 61 6C 6C 00                                  |.....           |
-------------------------------------------------------------------
[Server] packet : (0x51) F_ANIMATION  Size = 9 
|------------------------------------------------|----------------|
|00 01 02 03 04 05 06 07 08 09 0A 0B 0C 0D 0E 0F |0123456789ABCDEF|
|------------------------------------------------|----------------|
|00 06 51 26 12 00 AC 00 00                      |.........       |
-------------------------------------------------------------------
[Client] packet : (0x0B) F_PING  Size = 32 
|------------------------------------------------|----------------|
|00 01 02 03 04 05 06 07 08 09 0A 0B 0C 0D 0E 0F |0123456789ABCDEF|
|------------------------------------------------|----------------|
|00 14 09 A0 00 49 00 00 00 0B 00 0E 72 47 2D 5F |.....I......rG-_|
|BA EF 99 7E DB ED 00 00 00 00 00 00 00 00 7F 05 |...~............|                                                
-------------------------------------------------------------------
[Server] packet : (0x81) S_PONG  Size = 23 
|------------------------------------------------|----------------|
|00 01 02 03 04 05 06 07 08 09 0A 0B 0C 0D 0E 0F |0123456789ABCDEF|
|------------------------------------------------|----------------|
|00 14 81 00 0E 72 47 52 82 86 09 00 00 00 00 00 |.....rGR........|
|00 09 A1 00 00 00 00                            |.......         |
-------------------------------------------------------------------
[Client] packet : (0x86) F_MAIL  Size = 84 
|------------------------------------------------|----------------|
|00 01 02 03 04 05 06 07 08 09 0A 0B 0C 0D 0E 0F |0123456789ABCDEF|
|------------------------------------------------|----------------|
|00 48 09 A2 00 49 FF FF 00 86 01 00 07 48 61 73 |.H...I.......Has|
|61 72 64 00 11 00 52 65 3A 20 63 6F 75 72 69 65 |ard...Re: courie|
|72 20 76 69 64 65 00 22 00 74 65 73 74 20 30 30 |r vide.".test 00|
|36 0D 0D 72 65 70 6F 6E 64 72 65 20 61 20 75 6E |6..repondre a un|
|20 63 6F 75 72 72 69 65 72 0D 00 00 00 00 00 00 | courrier.......|
|00 00 00 00                                     |....            |
-------------------------------------------------------------------
[Server] packet : (0x52) F_PLAYER_WEALTH  Size = 11 
|------------------------------------------------|----------------|
|00 01 02 03 04 05 06 07 08 09 0A 0B 0C 0D 0E 0F |0123456789ABCDEF|
|------------------------------------------------|----------------|
|00 08 52 00 00 00 00 00 0F FD 00                |...........     |
-------------------------------------------------------------------
[Server] packet : (0x6F) F_LOCALIZED_STRING  Size = 37 
|------------------------------------------------|----------------|
|00 01 02 03 04 05 06 07 08 09 0A 0B 0C 0D 0E 0F |0123456789ABCDEF|
|------------------------------------------------|----------------|
|00 22 6F 02 20 00 00 05 88 00 00 00 01 00 00 00 |."o. ...........|
|04 7D 00 00 00 02 01 00 03 33 30 00 00 00 00 03 |.}.......30.....|
|29 00 00 00 00                                  |.....           |
-------------------------------------------------------------------
[Client] packet : (0x01) UNKNOWN  Size = 32 
|------------------------------------------------|----------------|
|00 01 02 03 04 05 06 07 08 09 0A 0B 0C 0D 0E 0F |0123456789ABCDEF|
|------------------------------------------------|----------------|
|00 14 09 A4 00 49 00 00 00 01 00 0E 71 51 00 00 |.....I......qQ..|
|00 00 00 00 00 00 00 00 11 95 00 00 22 D2 33 99 |............".3.|                                                
-------------------------------------------------------------------
[Server] packet : (0x44) F_ACTION_COUNTER_UPDATE  Size = 11 
|------------------------------------------------|----------------|
|00 01 02 03 04 05 06 07 08 09 0A 0B 0C 0D 0E 0F |0123456789ABCDEF|
|------------------------------------------------|----------------|
|00 08 44 01 63 00 00 00 00 A3 00                |...........     |
-------------------------------------------------------------------
[Server] packet : (0x00) UNKNOWN  Size = 23 
|------------------------------------------------|----------------|
|00 01 02 03 04 05 06 07 08 09 0A 0B 0C 0D 0E 0F |0123456789ABCDEF|
|------------------------------------------------|----------------|
|00 14 00 00 0E 71 51 AF 5B 80 7B 00 00 00 00 00 |.....qQ.[.{.....|
|00 11 95 00 00 22 00                            |.......         |
-------------------------------------------------------------------
[Server] packet : (0x86) F_MAIL  Size = 6 
|------------------------------------------------|----------------|
|00 01 02 03 04 05 06 07 08 09 0A 0B 0C 0D 0E 0F |0123456789ABCDEF|
|------------------------------------------------|----------------|
|00 03 86 0F 00 00                               |......          |
-------------------------------------------------------------------
[Client] packet : (0x5A) F_PING_DATAGRAM  Size = 13 
|------------------------------------------------|----------------|
|00 01 02 03 04 05 06 07 08 09 0A 0B 0C 0D 0E 0F |0123456789ABCDEF|
|------------------------------------------------|----------------|
|00 01 09 A9 00 49 FF FF 00 5A 00 74 DC          |.............   |
-------------------------------------------------------------------