
[Client] packet : (0x5A) F_PING_DATAGRAM  Size = 13 
|------------------------------------------------|----------------|
|00 01 02 03 04 05 06 07 08 09 0A 0B 0C 0D 0E 0F |0123456789ABCDEF|
|------------------------------------------------|----------------|
|00 01 0B 6A 00 49 FF FF 00 5A 00 8E FE          |.............   |
-------------------------------------------------------------------
[Client] packet : (0x01) UNKNOWN  Size = 32 
|------------------------------------------------|----------------|
|00 01 02 03 04 05 06 07 08 09 0A 0B 0C 0D 0E 0F |0123456789ABCDEF|
|------------------------------------------------|----------------|
|00 14 0B 6C 00 49 00 00 00 01 00 11 B4 E5 00 00 |...l.I..........|
|00 00 00 00 00 00 00 00 41 87 00 00 0B D0 00 00 |........A.......|                                                
-------------------------------------------------------------------
[Server] packet : (0x00) UNKNOWN  Size = 23 
|------------------------------------------------|----------------|
|00 01 02 03 04 05 06 07 08 09 0A 0B 0C 0D 0E 0F |0123456789ABCDEF|
|------------------------------------------------|----------------|
|00 14 00 00 11 B4 E5 AF 5E C3 F7 00 00 00 00 00 |........^.......|
|00 41 87 00 00 0B 00                            |.......         |
-------------------------------------------------------------------
[Client] packet : (0x86) F_MAIL  Size = 23 
|------------------------------------------------|----------------|
|00 01 02 03 04 05 06 07 08 09 0A 0B 0C 0D 0E 0F |0123456789ABCDEF|
|------------------------------------------------|----------------|
|00 0B 0B 6E 00 49 FF FF 00 86 02 00 40 DF 39 01 |...n.I......@.9.|
|00 00 00 00 00 00 00                            |.......         |
-------------------------------------------------------------------
[Client] packet : (0x86) F_MAIL  Size = 23 
|------------------------------------------------|----------------|
|00 01 02 03 04 05 06 07 08 09 0A 0B 0C 0D 0E 0F |0123456789ABCDEF|
|------------------------------------------------|----------------|
|00 0B 0B 70 00 49 FF FF 00 86 02 00 40 DF 39 01 |...p.I......@.9.|
|00 00 00 00 00 00 00                            |.......         |
-------------------------------------------------------------------
[Server] packet : (0x86) F_MAIL  Size = 6 
|------------------------------------------------|----------------|
|00 01 02 03 04 05 06 07 08 09 0A 0B 0C 0D 0E 0F |0123456789ABCDEF|
|------------------------------------------------|----------------|
|00 03 86 0F 00 00                               |......          |
-------------------------------------------------------------------
[Server] packet : (0x86) F_MAIL  Size = 293 
|------------------------------------------------|----------------|
|00 01 02 03 04 05 06 07 08 09 0A 0B 0C 0D 0E 0F |0123456789ABCDEF|
|------------------------------------------------|----------------|
|01 22 86 0D 00 00 00 00 00 01 39 DF 40 00 03 64 |."........9.@..d|
|FF FF FD 8C FF FF FD 8C 00 03 F2 0C 00 00 09 48 |...............H|
|61 73 61 72 64 5E 46 00 00 08 57 61 72 65 6D 68 |asard^F...Waremh|
|75 00 00 09 74 65 73 74 20 30 30 34 00 FF FF FF |u...test 004....|
|FF FF FF F8 30 00 01 00 00 00 1A 78 00 1A 6F 62 |....0......x..ob|
|6A 65 74 20 61 76 65 63 20 63 68 61 72 67 65 20 |jet avec charge |
|64 65 20 32 30 50 41 00 01 00 00 0D D8 F5 1A 78 |de 20PA........x|
|00 00 00 00 00 00 00 00 00 22 00 00 00 00 00 01 |........."......|
|00 00 00 00 00 00 00 00 00 00 00 00 00 0A 00 32 |...............2|
|00 03 00 00 00 00 00 00 00 00 00 00 00 00 14 47 |...............G|
|68 6F 73 74 6C 79 20 4B 6E 75 63 6B 6C 65 62 6F |hostly Knucklebo|
|6E 65 73 00 00 00 05 05 00 05 08 00 10 09 00 32 |nes............2|
|02 00 03 0C 00 01 00 00 41 54 68 69 73 20 6D 65 |........AThis me|
|61 67 65 72 20 63 75 72 69 6F 75 73 20 6F 62 6A |ager curious obj|
|65 63 74 20 63 61 6E 20 62 65 20 75 73 65 64 20 |ect can be used |
|74 6F 20 61 64 64 20 70 6F 77 65 72 20 74 6F 20 |to add power to |
|74 61 6C 69 73 6D 61 6E 73 2E 00 01 00 00 03 02 |talismans.......|
|00 00 00 00 00 00 00 00 32 00 00 00 00 00 00 00 |........2.......|
|00 00 00 00 00                                  |.....           |
-------------------------------------------------------------------
[Client] packet : (0x0B) F_PING  Size = 32 
|------------------------------------------------|----------------|
|00 01 02 03 04 05 06 07 08 09 0A 0B 0C 0D 0E 0F |0123456789ABCDEF|
|------------------------------------------------|----------------|
|00 14 0B 74 00 49 00 00 00 0B 00 11 C4 5E 86 6F |...t.I.......^.o|
|7F BF 1A 3A E4 7B 00 00 00 00 00 00 00 00 7F 05 |...:.{..........|                                                
-------------------------------------------------------------------
[Server] packet : (0x81) S_PONG  Size = 23 
|------------------------------------------------|----------------|
|00 01 02 03 04 05 06 07 08 09 0A 0B 0C 0D 0E 0F |0123456789ABCDEF|
|------------------------------------------------|----------------|
|00 14 81 00 11 C4 5E 52 82 86 E3 00 00 00 00 00 |......^R........|
|00 0B 75 00 00 00 00                            |.......         |
-------------------------------------------------------------------
[Server] packet : (0xA9) F_UPDATE_HOT_SPOT  Size = 406 
|------------------------------------------------|----------------|
|00 01 02 03 04 05 06 07 08 09 0A 0B 0C 0D 0E 0F |0123456789ABCDEF|
|------------------------------------------------|----------------|
|01 93 A9 50 02 00 01 00 00 00 00 02 00 00 00 00 |...P............|
|03 00 00 00 00 04 00 00 00 00 05 03 02 00 00 06 |................|
|00 00 00 00 07 00 00 00 00 08 00 00 00 00 09 00 |................|
|00 00 00 0A 00 00 00 00 0B 00 00 00 00 1A 00 00 |................|
|00 00 1B 00 00 00 00 44 00 00 00 00 46 00 00 00 |.......D....F...|
|00 47 00 00 00 00 4A 00 00 00 00 4B 00 00 00 00 |.G....J....K....|
|58 00 00 00 00 64 00 00 00 00 65 00 00 00 00 66 |X....d....e....f|
|00 00 00 00 67 00 00 00 00 68 00 00 00 00 69 00 |....g....h....i.|
|00 00 00 6A 03 00 00 00 6B 00 00 00 00 6C 00 00 |...j....k....l..|
|00 00 6D 00 00 00 00 6E 00 00 00 00 75 00 00 00 |..m....n....u...|
|00 76 00 00 00 00 78 00 00 00 00 81 00 00 00 00 |.v....x.........|
|90 00 00 00 00 91 00 00 00 00 A1 00 00 00 00 A2 |................|
|00 00 00 00 AF 00 00 00 00 B2 00 00 00 00 BE 00 |................|
|00 00 00 BF 00 00 00 00 C0 00 00 00 00 C1 00 00 |................|
|00 00 C6 00 00 00 00 C8 00 00 00 00 C9 00 00 00 |................|
|00 CA 00 00 00 00 CB 01 01 00 00 CC 00 00 00 00 |................|
|CD 00 00 00 00 CE 00 00 00 00 CF 00 00 00 00 D0 |................|
|00 00 00 00 D1 00 00 00 00 D2 00 00 00 00 D3 00 |................|
|00 00 00 D5 00 00 00 00 D7 00 00 00 00 D8 00 00 |................|
|00 00 D9 00 00 00 00 DC 00 00 00 00 DD 00 00 00 |................|
|00 DE 00 00 00 00 E3 00 00 00 00 E4 00 00 00 00 |................|
|FA 00 00 00 00 FB 00 00 00 00 FC 00 00 00 00 FD |................|
|00 00 00 01 15 00 00 00 01 16 00 00 00 01 18 00 |................|
|00 00 01 1B 00 00 00 01 1C 00 00 00 01 1D 00 00 |................|
|00 01 1F 00 00 00 01 22 00 00 00 01 23 00 00 00 |......."....#...|
|01 24 00 00 00 00                               |......          |
-------------------------------------------------------------------
[Client] packet : (0x86) F_MAIL  Size = 23 
|------------------------------------------------|----------------|
|00 01 02 03 04 05 06 07 08 09 0A 0B 0C 0D 0E 0F |0123456789ABCDEF|
|------------------------------------------------|----------------|
|00 0B 0B 79 00 49 FF FF 00 86 08 00 40 DF 39 01 |...y.I......@.9.|
|00 00 00 00 00 00 00                            |.......         |
-------------------------------------------------------------------
[Server] packet : (0x86) F_MAIL  Size = 342 
|------------------------------------------------|----------------|
|00 01 02 03 04 05 06 07 08 09 0A 0B 0C 0D 0E 0F |0123456789ABCDEF|
|------------------------------------------------|----------------|
|01 53 86 0A 00 00 04 00 00 00 00 01 39 DF 36 00 |.S..........9.6.|
|03 64 FF FF FC DD FF FF FC DD 00 12 74 77 00 00 |.d..........tw..|
|09 48 61 73 61 72 64 5E 46 00 00 08 57 61 72 65 |.Hasard^F...Ware|
|6D 68 75 00 00 09 74 65 73 74 20 30 30 32 00 00 |mhu...test 002..|
|00 00 00 00 00 00 00 00 01 01 00 00 0B 38 00 00 |.............8..|
|00 00 01 39 DF 3E 00 03 64 FF FF FD 22 FF FF FD |...9.>..d..."...|
|22 00 12 74 A5 00 00 09 48 61 73 61 72 64 5E 46 |"..t....Hasard^F|
|00 00 08 57 61 72 65 6D 68 75 00 00 09 74 65 73 |...Waremhu...tes|
|74 20 30 30 33 00 00 00 00 00 00 00 07 D0 02 01 |t 003...........|
|01 00 00 1B AE 00 00 00 00 01 39 DF 40 00 03 64 |..........9.@..d|
|FF FF FD 88 FF FF FD 88 00 03 F2 08 00 00 09 48 |...............H|
|61 73 61 72 64 5E 46 00 00 08 57 61 72 65 6D 68 |asard^F...Waremh|
|75 00 00 09 74 65 73 74 20 30 30 34 00 FF FF FF |u...test 004....|
|FF FF FF F8 30 04 01 01 00 00 1A 78 00 00 00 00 |....0......x....|
|01 39 DF 47 00 02 64 FF FF FE 11 FF FF FE 11 00 |.9.G..d.........|
|27 8B 11 00 00 09 48 61 73 61 72 64 5E 46 00 00 |'.....Hasard^F..|
|08 57 61 72 65 6D 68 75 00 00 09 74 65 73 74 20 |.Waremhu...test |
|30 30 35 00 00 00 00 00 00 00 00 00 00 0D 00 00 |005.............|
|00 00 0F 38 00 00 01 97 00 00 01 87 00 00 1A 66 |...8...........f|
|00 00 10 01 00 00 0F 38 00 00 0F 54 00 00 0F 38 |.......8...T...8|
|00 00 01 97 00 00 0F 21 00 00 0F 54 00 00 0F 21 |.......!...T...!|
|00 00 03 12 00 00                               |......          |
-------------------------------------------------------------------
[Server] packet : (0x52) F_PLAYER_WEALTH  Size = 11 
|------------------------------------------------|----------------|
|00 01 02 03 04 05 06 07 08 09 0A 0B 0C 0D 0E 0F |0123456789ABCDEF|
|------------------------------------------------|----------------|
|00 08 52 00 00 00 00 00 0F FD 00                |...........     |
-------------------------------------------------------------------
[Server] packet : (0x6F) F_LOCALIZED_STRING  Size = 37 
|------------------------------------------------|----------------|
|00 01 02 03 04 05 06 07 08 09 0A 0B 0C 0D 0E 0F |0123456789ABCDEF|
|------------------------------------------------|----------------|
|00 22 6F 02 20 00 00 05 89 00 00 00 01 00 00 00 |."o. ...........|
|04 7D 00 00 00 02 01 00 03 32 30 00 00 00 00 03 |.}.......20.....|
|2A 00 00 00 00                                  |.....           |
-------------------------------------------------------------------
[Server] packet : (0x1A) F_CAMPAIGN_STATUS  Size = 159 
|------------------------------------------------|----------------|
|00 01 02 03 04 05 06 07 08 09 0A 0B 0C 0D 0E 0F |0123456789ABCDEF|
|------------------------------------------------|----------------|
|00 9C 1A 00 05 00 6D 00 CB 00 00 00 64 00 00 64 |......m.....d..d|
|00 32 32 00 32 32 00 00 64 00 32 32 00 64 00 00 |.22.22..d.22.d..|
|32 32 00 00 00 00 32 32 00 32 32 00 32 32 00 00 |22....22.22.22..|
|00 00 F6 E4 F6 E4 F6 E4 F6 E4 F6 E4 F6 E4 F6 E4 |................|
|F6 E4 F6 E4 F6 E4 00 64 63 00 00 64 00 00 64 36 |.......dc..d..d6|
|00 00 00 00 2D 01 00 00 00 01 00 01 00 00 00 00 |....-...........|
|00 00 00 00 00 00 00 00 00 00 00 00 00 00 00 00 |................|
|00 00 00 00 00 00 00 00 00 00 00 00 00 00 00 00 |................|
|00 03 01 00 02 03 03 00 02 02 03 03 01 01 00 03 |................|
|00 00 46 1E 0A 3C 00 00 00 03 84 00 00 00 00    |............... |
-------------------------------------------------------------------
[Server] packet : (0x86) F_MAIL  Size = 76 
|------------------------------------------------|----------------|
|00 01 02 03 04 05 06 07 08 09 0A 0B 0C 0D 0E 0F |0123456789ABCDEF|
|------------------------------------------------|----------------|
|00 49 86 0B 00 00 00 00 00 01 39 DF 40 00 03 64 |.I........9.@..d|
|FF FF FD 86 FF FF FD 86 00 03 F2 06 00 00 09 48 |...............H|
|61 73 61 72 64 5E 46 00 00 08 57 61 72 65 6D 68 |asard^F...Waremh|
|75 00 00 09 74 65 73 74 20 30 30 34 00 FF FF FF |u...test 004....|
|FF FF FF F8 30 04 01 00 00 00 1A 00             |............    |
-------------------------------------------------------------------
[Client] packet : (0x0B) F_PING  Size = 32 
|------------------------------------------------|----------------|
|00 01 02 03 04 05 06 07 08 09 0A 0B 0C 0D 0E 0F |0123456789ABCDEF|
|------------------------------------------------|----------------|
|00 14 0B 7F 00 49 00 00 00 0B 00 11 D7 F3 6A 1F |.....I........j.|
|AB 7E B3 B9 48 9E 00 00 00 00 00 00 00 00 7F 05 |.~..H...........|                                                
-------------------------------------------------------------------
[Server] packet : (0x86) F_MAIL  Size = 76 
|------------------------------------------------|----------------|
|00 01 02 03 04 05 06 07 08 09 0A 0B 0C 0D 0E 0F |0123456789ABCDEF|
|------------------------------------------------|----------------|
|00 49 86 0B 00 00 00 00 00 01 39 DF 40 00 03 64 |.I........9.@..d|
|FF FF FD 85 FF FF FD 85 00 03 F2 05 00 00 09 48 |...............H|
|61 73 61 72 64 5E 46 00 00 08 57 61 72 65 6D 68 |asard^F...Waremh|
|75 00 00 09 74 65 73 74 20 30 30 34 00 FF FF FF |u...test 004....|
|FF FF FF F8 30 04 01 01 00 00 1A 00             |............    |
-------------------------------------------------------------------
[Server] packet : (0xF8) F_TOK_ENTRY_UPDATE  Size = 12 
|------------------------------------------------|----------------|
|00 01 02 03 04 05 06 07 08 09 0A 0B 0C 0D 0E 0F |0123456789ABCDEF|
|------------------------------------------------|----------------|
|00 09 F8 00 00 00 01 2E 38 01 00 00             |............    |
-------------------------------------------------------------------
[Server] packet : (0x6F) F_LOCALIZED_STRING  Size = 42 
|------------------------------------------------|----------------|
|00 01 02 03 04 05 06 07 08 09 0A 0B 0C 0D 0E 0F |0123456789ABCDEF|
|------------------------------------------------|----------------|
|00 27 6F 02 20 00 00 05 23 00 00 00 02 01 00 15 |.'o. ...#.......|
|47 68 6F 73 74 6C 79 20 4B 6E 75 63 6B 6C 65 62 |Ghostly Knuckleb|
|6F 6E 65 73 00 01 00 02 33 00                   |..........      |
-------------------------------------------------------------------
[Server] packet : (0xAA) F_GET_ITEM  Size = 197 
|------------------------------------------------|----------------|
|00 01 02 03 04 05 06 07 08 09 0A 0B 0C 0D 0E 0F |0123456789ABCDEF|
|------------------------------------------------|----------------|
|00 C2 AA 01 00 00 00 01 90 00 00 0D D8 F5 1A 78 |...............x|
|00 00 00 00 00 00 00 00 00 22 00 00 00 00 00 01 |........."......|
|00 00 00 00 00 00 00 00 00 00 00 00 00 0A 00 32 |...............2|
|00 03 00 00 00 00 00 00 00 00 00 00 00 00 14 47 |...............G|
|68 6F 73 74 6C 79 20 4B 6E 75 63 6B 6C 65 62 6F |hostly Knucklebo|
|6E 65 73 00 00 00 05 05 00 05 08 00 10 09 00 32 |nes............2|
|02 00 03 0C 00 01 00 00 41 54 68 69 73 20 6D 65 |........AThis me|
|61 67 65 72 20 63 75 72 69 6F 75 73 20 6F 62 6A |ager curious obj|
|65 63 74 20 63 61 6E 20 62 65 20 75 73 65 64 20 |ect can be used |
|74 6F 20 61 64 64 20 70 6F 77 65 72 20 74 6F 20 |to add power to |
|74 61 6C 69 73 6D 61 6E 73 2E 00 01 00 00 03 02 |talismans.......|
|00 00 00 00 00 00 00 00 32 00 00 00 00 00 00 00 |........2.......|
|00 00 00 00 00                                  |.....           |
-------------------------------------------------------------------
[Server] packet : (0x0A) F_OBJECT_DEATH  Size = 15 
|------------------------------------------------|----------------|
|00 01 02 03 04 05 06 07 08 09 0A 0B 0C 0D 0E 0F |0123456789ABCDEF|
|------------------------------------------------|----------------|
|00 0C 0A 19 65 00 00 00 00 00 00 00 00 00 00    |............... |
-------------------------------------------------------------------
[Server] packet : (0x81) S_PONG  Size = 23 
|------------------------------------------------|----------------|
|00 01 02 03 04 05 06 07 08 09 0A 0B 0C 0D 0E 0F |0123456789ABCDEF|
|------------------------------------------------|----------------|
|00 14 81 00 11 D7 F3 52 82 86 E8 00 00 00 00 00 |.......R........|
|00 0B 80 00 00 00 00                            |.......         |
-------------------------------------------------------------------
[Server] packet : (0x51) F_ANIMATION  Size = 9 
|------------------------------------------------|----------------|
|00 01 02 03 04 05 06 07 08 09 0A 0B 0C 0D 0E 0F |0123456789ABCDEF|
|------------------------------------------------|----------------|
|00 06 51 26 12 00 AC 00 00                      |.........       |
-------------------------------------------------------------------