
[Server] packet : (0x1B) F_REQ_CAMPAIGN_STATUS  Size = 15 
|------------------------------------------------|----------------|
|00 01 02 03 04 05 06 07 08 09 0A 0B 0C 0D 0E 0F |0123456789ABCDEF|
|------------------------------------------------|----------------|
|00 0C 1B 00 31 B3 00 00 13 7D 6C 00 0E 73 00    |............... |
-------------------------------------------------------------------
[Server] packet : (0x51) F_ANIMATION  Size = 9 
|------------------------------------------------|----------------|
|00 01 02 03 04 05 06 07 08 09 0A 0B 0C 0D 0E 0F |0123456789ABCDEF|
|------------------------------------------------|----------------|
|00 06 51 03 D8 00 00 00 00                      |.........       |
-------------------------------------------------------------------
[Server] packet : (0x51) F_ANIMATION  Size = 9 
|------------------------------------------------|----------------|
|00 01 02 03 04 05 06 07 08 09 0A 0B 0C 0D 0E 0F |0123456789ABCDEF|
|------------------------------------------------|----------------|
|00 06 51 03 D8 00 00 00 00                      |.........       |
-------------------------------------------------------------------
[Client] packet : (0xD2) F_INTERACT  Size = 24 
|------------------------------------------------|----------------|
|00 01 02 03 04 05 06 07 08 09 0A 0B 0C 0D 0E 0F |0123456789ABCDEF|
|------------------------------------------------|----------------|
|00 0C A9 7A 00 1F 00 00 00 D2 00 00 04 CC 00 00 |...z............|
|00 00 00 00 00 00 00 00                         |........        |
-------------------------------------------------------------------
[Client] packet : (0xE8) F_CLIENT_DATA  Size = 20 
|------------------------------------------------|----------------|
|00 01 02 03 04 05 06 07 08 09 0A 0B 0C 0D 0E 0F |0123456789ABCDEF|
|------------------------------------------------|----------------|
|00 08 A9 7C 00 1F 00 00 00 E8 00 34 00 04 6B 21 |...|.......4..k!|
|01 00 00 00                                     |....            |
-------------------------------------------------------------------
[Client] packet : (0x0B) F_PING  Size = 32 
|------------------------------------------------|----------------|
|00 01 02 03 04 05 06 07 08 09 0A 0B 0C 0D 0E 0F |0123456789ABCDEF|
|------------------------------------------------|----------------|
|00 14 A9 7D 00 1F 00 00 00 0B 00 93 7D B5 18 50 |...}........}..P|
|41 12 29 43 8D F3 00 00 00 00 00 00 00 00 C0 88 |A.)C............|                                                
-------------------------------------------------------------------
[Server] packet : (0x7E) F_SET_ABILITY_TIMER  Size = 15 
|------------------------------------------------|----------------|
|00 01 02 03 04 05 06 07 08 09 0A 0B 0C 0D 0E 0F |0123456789ABCDEF|
|------------------------------------------------|----------------|
|00 0C 7E 00 01 01 00 00 00 00 00 00 00 00 00    |............... |
-------------------------------------------------------------------
[Server] packet : (0xE9) F_INTERACT_RESPONSE  Size = 78 
|------------------------------------------------|----------------|
|00 01 02 03 04 05 06 07 08 09 0A 0B 0C 0D 0E 0F |0123456789ABCDEF|
|------------------------------------------------|----------------|
|00 4B E9 00 04 CC 00 00 00 22 00 41 54 68 65 6D |.K.......".AThem|
|20 45 6D 70 69 72 65 20 73 6F 6C 64 69 65 72 73 | Empire soldiers|
|20 64 6F 6E 27 74 20 64 65 73 65 72 76 65 20 66 | don't deserve f|
|69 6E 65 20 77 65 61 70 6F 6E 73 2C 20 6E 6F 74 |ine weapons, not|
|20 6C 69 6B 65 20 79 6F 75 20 64 6F 2E 00       |..............  |
-------------------------------------------------------------------
[Server] packet : (0x81) S_PONG  Size = 23 
|------------------------------------------------|----------------|
|00 01 02 03 04 05 06 07 08 09 0A 0B 0C 0D 0E 0F |0123456789ABCDEF|
|------------------------------------------------|----------------|
|00 14 81 00 93 7D B5 52 75 7F 0F 00 00 00 00 00 |.....}.Ru.......|
|00 A9 7E 00 00 00 00                            |.......         |
-------------------------------------------------------------------
[Client] packet : (0xD2) F_INTERACT  Size = 24 
|------------------------------------------------|----------------|
|00 01 02 03 04 05 06 07 08 09 0A 0B 0C 0D 0E 0F |0123456789ABCDEF|
|------------------------------------------------|----------------|
|00 0C A9 80 00 1F 00 00 00 D2 00 00 04 CC 00 09 |................|
|00 00 00 00 00 00 00 00                         |........        |
-------------------------------------------------------------------
[Server] packet : (0xBF) F_INIT_STORE  Size = 22 
|------------------------------------------------|----------------|
|00 01 02 03 04 05 06 07 08 09 0A 0B 0C 0D 0E 0F |0123456789ABCDEF|
|------------------------------------------------|----------------|
|00 13 BF 02 00 00 00 01 01 00 01 02 08 53 68 6F |.............Sho|
|77 20 41 6C 6C 00                               |......          |
-------------------------------------------------------------------
[Server] packet : (0xBF) F_INIT_STORE  Size = 22 
|------------------------------------------------|----------------|
|00 01 02 03 04 05 06 07 08 09 0A 0B 0C 0D 0E 0F |0123456789ABCDEF|
|------------------------------------------------|----------------|
|00 13 BF 02 00 00 00 01 01 00 01 02 08 53 68 6F |.............Sho|
|77 20 41 6C 6C 00                               |......          |
-------------------------------------------------------------------
[Server] packet : (0xBF) F_INIT_STORE  Size = 726 
|------------------------------------------------|----------------|
|00 01 02 03 04 05 06 07 08 09 0A 0B 0C 0D 0E 0F |0123456789ABCDEF|
|------------------------------------------------|----------------|
|02 D3 BF 02 00 00 03 00 01 00 00 03 00 00 4E 20 |..............N |
|00 00 02 DD 38 18 2C 00 00 00 00 00 00 00 00 0E |....8.,.........|
|1A 00 01 00 00 00 01 00 56 00 00 00 00 00 00 00 |........V.......|
|00 00 00 1F 40 00 01 00 01 00 00 00 00 00 00 00 |....@...........|
|00 00 00 00 00 16 57 61 72 70 65 64 20 42 61 74 |......Warped Bat|
|74 6C 65 20 53 74 61 6E 64 61 72 64 00 00 02 00 |tle Standard....|
|00 38 A4 00 00 00 00 00 00 38 A7 00 00 00 00 00 |.8.......8......|
|00 00 5F 54 6F 20 61 63 74 69 76 61 74 65 20 74 |.._To activate t|
|68 69 73 20 53 74 61 6E 64 61 72 64 2C 20 65 71 |his Standard, eq|
|75 69 70 20 69 74 20 61 6E 64 20 74 68 65 6E 20 |uip it and then |
|64 72 61 67 20 69 74 20 66 72 6F 6D 20 79 6F 75 |drag it from you|
|72 20 43 68 61 72 61 63 74 65 72 20 57 69 6E 64 |r Character Wind|
|6F 77 20 74 6F 20 79 6F 75 72 20 68 6F 74 62 61 |ow to your hotba|
|72 2E 01 01 00 00 03 06 00 08 00 00 00 00 00 00 |r...............|
|00 00 00 00 00 00 01 02 15 01 6C C8 01 01 01 02 |..........l.....|
|00 00 00 00 00 00 00 01 03 00 00 4E 20 00 00 02 |...........N ...|
|DD 39 18 2D 00 00 00 00 00 00 00 00 0E 1A 00 01 |.9.-............|
|00 00 00 01 00 56 00 00 00 00 00 00 00 00 00 00 |.....V..........|
|1F 40 00 01 00 01 00 00 00 00 00 00 00 00 00 00 |.@..............|
|00 00 18 42 6C 6F 6F 64 69 65 64 20 42 61 74 74 |...Bloodied Batt|
|6C 65 20 53 74 61 6E 64 61 72 64 00 00 02 00 00 |le Standard.....|
|38 A5 00 00 00 00 00 00 38 A8 00 00 00 00 00 00 |8.......8.......|
|00 5F 54 6F 20 61 63 74 69 76 61 74 65 20 74 68 |._To activate th|
|69 73 20 53 74 61 6E 64 61 72 64 2C 20 65 71 75 |is Standard, equ|
|69 70 20 69 74 20 61 6E 64 20 74 68 65 6E 20 64 |ip it and then d|
|72 61 67 20 69 74 20 66 72 6F 6D 20 79 6F 75 72 |rag it from your|
|20 43 68 61 72 61 63 74 65 72 20 57 69 6E 64 6F | Character Windo|
|77 20 74 6F 20 79 6F 75 72 20 68 6F 74 62 61 72 |w to your hotbar|
|2E 01 01 00 00 03 06 00 08 00 00 00 00 00 00 00 |................|
|00 00 00 00 00 01 02 15 01 6C C8 01 01 01 02 00 |.........l......|
|00 00 00 00 00 00 02 03 00 00 4E 20 00 00 02 DD |..........N ....|
|3A 18 2E 00 00 00 00 00 00 00 00 0E 1A 00 01 00 |:...............|
|00 00 01 00 56 00 00 00 00 00 00 00 00 00 00 1F |....V...........|
|40 00 01 00 01 00 00 00 00 00 00 00 00 00 00 00 |@...............|
|00 18 43 6F 72 72 75 70 74 65 72 27 73 20 57 61 |..Corrupter's Wa|
|72 20 53 74 61 6E 64 61 72 64 00 00 02 00 00 38 |r Standard.....8|
|A6 00 00 00 00 00 00 38 A9 00 00 00 00 00 00 00 |.......8........|
|5F 54 6F 20 61 63 74 69 76 61 74 65 20 74 68 69 |_To activate thi|
|73 20 53 74 61 6E 64 61 72 64 2C 20 65 71 75 69 |s Standard, equi|
|70 20 69 74 20 61 6E 64 20 74 68 65 6E 20 64 72 |p it and then dr|
|61 67 20 69 74 20 66 72 6F 6D 20 79 6F 75 72 20 |ag it from your |
|43 68 61 72 61 63 74 65 72 20 57 69 6E 64 6F 77 |Character Window|
|20 74 6F 20 79 6F 75 72 20 68 6F 74 62 61 72 2E | to your hotbar.|
|01 01 00 00 03 06 00 08 00 00 00 00 00 00 00 00 |................|
|00 00 00 00 01 02 15 01 6C C8 01 01 01 02 00 00 |........l.......|
|00 00 00 00 00 00                               |......          |
-------------------------------------------------------------------
[Server] packet : (0xBF) F_INIT_STORE  Size = 839 
|------------------------------------------------|----------------|
|00 01 02 03 04 05 06 07 08 09 0A 0B 0C 0D 0E 0F |0123456789ABCDEF|
|------------------------------------------------|----------------|
|03 44 BF 02 00 07 06 00 01 00 00 03 00 00 10 FE |.D..............|
|00 00 5A 07 B2 0B 30 00 00 00 00 00 00 00 00 14 |..Z...0.........|
|06 1B 1D 00 00 00 02 00 00 00 00 40 00 00 00 00 |...........@....|
|00 00 00 06 CC 00 01 00 01 00 00 00 00 00 00 00 |................|
|20 00 91 00 00 1B 43 61 72 63 61 73 73 2D 47 75 | .....Carcass-Gu|
|61 72 64 20 6F 66 20 44 69 73 63 69 70 6C 69 6E |ard of Disciplin|
|65 02 03 00 20 00 00 00 00 00 05 00 11 00 00 00 |e... ...........|
|00 00 00 00 00 00 00 00 01 01 00 00 03 04 03 00 |................|
|00 00 00 00 00 00 00 00 00 00 00 00 00 00 00 00 |................|
|00 00 00 00 01 03 00 00 0D 98 00 00 5A 07 CA 0B |............Z...|
|32 00 00 00 00 00 00 00 00 15 06 1B 1D 00 00 00 |2...............|
|02 00 00 00 00 40 00 00 00 00 00 00 00 05 70 00 |.....@........p.|
|01 00 01 00 00 00 00 00 00 00 20 00 74 00 00 17 |.......... .t...|
|48 61 6E 64 77 72 61 70 73 20 6F 66 20 44 69 73 |Handwraps of Dis|
|63 69 70 6C 69 6E 65 02 03 00 1A 00 00 00 00 00 |cipline.........|
|05 00 0E 00 00 00 00 00 00 00 00 00 00 00 01 01 |................|
|00 00 03 04 03 00 00 00 00 00 00 00 00 00 00 00 |................|
|00 00 00 00 00 00 00 00 00 00 02 03 00 00 0D 98 |................|
|00 00 5A 07 E2 0B 31 00 00 00 00 00 00 00 00 16 |..Z...1.........|
|06 1B 1D 00 00 00 02 00 00 00 00 40 00 00 00 00 |...........@....|
|00 00 00 05 70 00 01 00 01 00 00 00 00 00 00 00 |....p...........|
|20 00 74 00 00 17 46 6F 6F 74 77 72 61 70 73 20 | .t...Footwraps |
|6F 66 20 44 69 73 63 69 70 6C 69 6E 65 02 03 00 |of Discipline...|
|1A 00 00 00 00 00 05 00 0E 00 00 00 00 00 00 00 |................|
|00 00 00 00 01 01 00 00 03 04 03 00 00 00 00 00 |................|
|00 00 00 00 00 00 00 00 00 00 00 00 00 00 00 00 |................|
|03 03 00 00 0F 4B 00 00 5A 07 FA 0B 34 00 00 00 |.....K..Z...4...|
|00 00 00 00 00 17 06 1B 1D 00 00 00 02 00 00 00 |................|
|00 40 00 00 00 00 00 00 00 06 1E 00 01 00 01 00 |.@..............|
|00 00 00 00 00 00 20 00 83 00 00 12 43 6F 77 6C |...... .....Cowl|
|20 6F 66 20 44 69 73 63 69 70 6C 69 6E 65 02 03 | of Discipline..|
|00 1D 00 00 00 00 00 05 00 10 00 00 00 00 00 00 |................|
|00 00 00 00 00 01 01 00 00 03 04 03 00 00 00 00 |................|
|00 00 00 00 00 00 00 00 00 00 00 00 00 00 00 00 |................|
|00 04 03 00 00 0F 4B 00 00 5A 08 12 0B 33 00 00 |......K..Z...3..|
|00 00 00 00 00 00 18 06 1B 1D 00 00 00 02 00 00 |................|
|00 00 40 00 00 00 00 00 00 00 06 1E 00 01 00 01 |..@.............|
|00 00 00 00 00 00 00 20 00 83 00 00 18 57 69 6E |....... .....Win|
|67 6D 61 6E 74 6C 65 20 6F 66 20 44 69 73 63 69 |gmantle of Disci|
|70 6C 69 6E 65 02 03 00 1D 00 00 00 00 00 05 00 |pline...........|
|10 00 00 00 00 00 00 00 00 00 00 00 01 01 00 00 |................|
|03 04 03 00 00 00 00 00 00 00 00 00 00 00 00 00 |................|
|00 00 00 00 00 00 00 00 05 03 00 00 0B E5 00 00 |................|
|5A 08 2A 0B 2F 00 00 00 00 00 00 00 00 1C 06 1B |Z.*./...........|
|1D 00 00 00 02 00 00 00 00 40 00 00 00 00 00 00 |.........@......|
|00 04 C2 00 01 00 01 00 00 00 00 00 00 00 20 00 |.............. .|
|66 00 00 17 57 61 69 73 74 77 72 61 70 20 6F 66 |f...Waistwrap of|
|20 44 69 73 63 69 70 6C 69 6E 65 05 0F 00 39 00 | Discipline...9.|
|00 00 00 00 0E 00 39 00 00 00 00 00 10 00 39 00 |......9.......9.|
|00 00 00 00 03 00 16 00 00 00 00 00 05 00 0C 00 |................|
|00 00 00 00 00 00 00 00 00 00 01 01 00 00 03 04 |................|
|03 00 00 00 00 00 00 00 00 00 00 00 00 00 00 00 |................|
|00 00 00 00 00 00 00                            |.......         |
-------------------------------------------------------------------
[Server] packet : (0xBF) F_INIT_STORE  Size = 2963 
|------------------------------------------------|----------------|
|00 01 02 03 04 05 06 07 08 09 0A 0B 0C 0D 0E 0F |0123456789ABCDEF|
|------------------------------------------------|----------------|
|0B 90 BF 02 00 0D 0C 00 01 00 00 03 00 00 00 70 |...............p|
|00 00 03 2D A3 02 BB 00 00 00 00 00 00 00 00 00 |...-............|
|1F 00 32 29 00 00 03 00 00 00 00 00 00 00 00 00 |..2)............|
|00 00 00 00 2D 00 14 00 01 00 00 00 00 00 00 00 |....-...........|
|00 00 00 00 00 20 4F 66 66 69 63 65 72 27 73 20 |..... Officer's |
|45 6C 69 78 69 72 20 6F 66 20 52 65 6A 75 76 65 |Elixir of Rejuve|
|6E 61 74 69 6F 6E 00 00 01 00 01 1E C0 00 B4 00 |nation..........|
|00 00 00 00 35 4F 66 66 69 63 65 72 27 73 20 52 |....5Officer's R|
|65 73 65 72 76 65 2E 20 54 68 69 73 20 74 69 6D |eserve. This tim|
|65 20 70 69 6C 6C 61 67 65 20 62 65 66 6F 72 65 |e pillage before|
|20 79 6F 75 20 62 75 72 6E 2E 00 01 00 01 03 02 | you burn.......|
|20 00 00 00 00 00 00 00 00 00 00 00 00 07 00 00 | ...............|
|00 00 00 00 00 01 00 03 2E 12 1E 22 13 53 6F 6C |...........".Sol|
|64 69 65 72 27 73 20 4D 65 64 61 6C 6C 69 6F 6E |dier's Medallion|
|00 01 00 00 00 00 00 00 00 00 00 00 00 00 00 00 |................|
|00 00 00 00 01 03 00 00 00 70 00 00 03 2D A3 02 |.........p...-..|
|BB 00 00 00 00 00 00 00 00 00 1F 00 32 29 00 00 |............2)..|
|03 00 00 00 00 00 00 00 00 00 00 00 00 00 2D 00 |..............-.|
|14 00 01 00 00 00 00 00 00 00 00 00 00 00 00 20 |............... |
|4F 66 66 69 63 65 72 27 73 20 45 6C 69 78 69 72 |Officer's Elixir|
|20 6F 66 20 52 65 6A 75 76 65 6E 61 74 69 6F 6E | of Rejuvenation|
|00 00 01 00 01 1E C0 00 B4 00 00 00 00 00 35 4F |..............5O|
|66 66 69 63 65 72 27 73 20 52 65 73 65 72 76 65 |fficer's Reserve|
|2E 20 54 68 69 73 20 74 69 6D 65 20 70 69 6C 6C |. This time pill|
|61 67 65 20 62 65 66 6F 72 65 20 79 6F 75 20 62 |age before you b|
|75 72 6E 2E 00 01 00 01 03 02 20 00 00 00 00 00 |urn....... .....|
|00 00 00 00 00 00 00 07 00 00 00 00 00 00 00 01 |................|
|00 03 2E 31 22 7B 10 53 6F 6C 64 69 65 72 27 73 |...1"{.Soldier's|
|20 45 6D 62 6C 65 6D 00 01 00 00 00 00 00 00 00 | Emblem.........|
|00 00 00 00 00 00 00 00 00 00 00 02 03 00 00 00 |................|
|70 00 00 03 2D 99 02 B7 00 00 00 00 00 00 00 00 |p...-...........|
|00 1F 00 28 1F 00 00 03 00 00 00 00 00 00 00 00 |...(............|
|00 00 00 00 00 2D 00 14 00 01 00 00 00 00 00 00 |.....-..........|
|00 00 00 00 00 00 18 4F 66 66 69 63 65 72 27 73 |.......Officer's|
|20 48 65 61 6C 69 6E 67 20 45 6C 69 78 69 72 00 | Healing Elixir.|
|00 01 00 01 1E C0 00 B4 00 00 00 00 00 4B 53 74 |.............KSt|
|61 6E 64 61 72 64 20 69 73 73 75 65 2C 20 66 69 |andard issue, fi|
|72 73 74 20 63 6C 61 73 73 2E 20 52 65 6D 65 6D |rst class. Remem|
|62 65 72 20 74 6F 20 6B 65 65 70 20 62 72 65 61 |ber to keep brea|
|74 68 69 6E 67 2C 20 69 74 20 63 6F 6E 66 75 73 |thing, it confus|
|65 73 20 64 65 61 74 68 2E 00 01 00 01 03 02 20 |es death....... |
|00 00 00 00 00 00 00 00 00 00 00 00 07 00 00 00 |................|
|00 00 00 00 01 00 03 2E 12 1E 22 13 53 6F 6C 64 |..........".Sold|
|69 65 72 27 73 20 4D 65 64 61 6C 6C 69 6F 6E 00 |ier's Medallion.|
|01 00 00 00 00 00 00 00 00 00 00 00 00 00 00 00 |................|
|00 00 00 03 03 00 00 00 70 00 00 03 2D 99 02 B7 |........p...-...|
|00 00 00 00 00 00 00 00 00 1F 00 28 1F 00 00 03 |...........(....|
|00 00 00 00 00 00 00 00 00 00 00 00 00 2D 00 14 |.............-..|
|00 01 00 00 00 00 00 00 00 00 00 00 00 00 18 4F |...............O|
|66 66 69 63 65 72 27 73 20 48 65 61 6C 69 6E 67 |fficer's Healing|
|20 45 6C 69 78 69 72 00 00 01 00 01 1E C0 00 B4 | Elixir.........|
|00 00 00 00 00 4B 53 74 61 6E 64 61 72 64 20 69 |.....KStandard i|
|73 73 75 65 2C 20 66 69 72 73 74 20 63 6C 61 73 |ssue, first clas|
|73 2E 20 52 65 6D 65 6D 62 65 72 20 74 6F 20 6B |s. Remember to k|
|65 65 70 20 62 72 65 61 74 68 69 6E 67 2C 20 69 |eep breathing, i|
|74 20 63 6F 6E 66 75 73 65 73 20 64 65 61 74 68 |t confuses death|
|2E 00 01 00 01 03 02 20 00 00 00 00 00 00 00 00 |....... ........|
|00 00 00 00 07 00 00 00 00 00 00 00 01 00 03 2E |................|
|31 22 7B 10 53 6F 6C 64 69 65 72 27 73 20 45 6D |1"{.Soldier's Em|
|62 6C 65 6D 00 01 00 00 00 00 00 00 00 00 00 00 |blem............|
|00 00 00 00 00 00 00 00 04 03 00 00 00 70 00 00 |.............p..|
|03 2D 8F 02 B7 00 00 00 00 00 00 00 00 00 1F 00 |.-..............|
|1C 15 00 00 03 00 00 00 00 00 00 00 00 00 00 00 |................|
|00 00 2D 00 14 00 01 00 00 00 00 00 00 00 00 00 |..-.............|
|00 00 00 19 53 6F 6C 64 69 65 72 27 73 20 48 65 |....Soldier's He|
|61 6C 69 6E 67 20 44 72 61 75 67 68 74 00 00 01 |aling Draught...|
|00 01 1E C0 00 B4 00 00 00 00 00 36 53 74 61 6E |...........6Stan|
|64 61 72 64 20 69 73 73 75 65 2C 20 73 65 63 6F |dard issue, seco|
|6E 64 20 63 6C 61 73 73 2E 20 44 6F 6E 27 74 20 |nd class. Don't |
|64 69 65 20 75 6E 74 69 6C 20 74 68 65 79 20 64 |die until they d|
|6F 2E 00 01 00 01 03 02 20 00 00 00 00 00 00 00 |o....... .......|
|00 00 00 00 00 07 00 00 00 00 00 00 00 01 00 03 |................|
|2E 12 1E 22 13 53 6F 6C 64 69 65 72 27 73 20 4D |...".Soldier's M|
|65 64 61 6C 6C 69 6F 6E 00 01 00 00 00 00 00 00 |edallion........|
|00 00 00 00 00 00 00 00 00 00 00 00 05 03 00 00 |................|
|00 70 00 00 03 2D 8F 02 B7 00 00 00 00 00 00 00 |.p...-..........|
|00 00 1F 00 1C 15 00 00 03 00 00 00 00 00 00 00 |................|
|00 00 00 00 00 00 2D 00 14 00 01 00 00 00 00 00 |......-.........|
|00 00 00 00 00 00 00 19 53 6F 6C 64 69 65 72 27 |........Soldier'|
|73 20 48 65 61 6C 69 6E 67 20 44 72 61 75 67 68 |s Healing Draugh|
|74 00 00 01 00 01 1E C0 00 B4 00 00 00 00 00 36 |t..............6|
|53 74 61 6E 64 61 72 64 20 69 73 73 75 65 2C 20 |Standard issue, |
|73 65 63 6F 6E 64 20 63 6C 61 73 73 2E 20 44 6F |second class. Do|
|6E 27 74 20 64 69 65 20 75 6E 74 69 6C 20 74 68 |n't die until th|
|65 79 20 64 6F 2E 00 01 00 01 03 02 20 00 00 00 |ey do....... ...|
|00 00 00 00 00 00 00 00 00 07 00 00 00 00 00 00 |................|
|00 01 00 03 2E 31 22 7B 10 53 6F 6C 64 69 65 72 |.....1"{.Soldier|
|27 73 20 45 6D 62 6C 65 6D 00 01 00 00 00 00 00 |'s Emblem.......|
|00 00 00 00 00 00 00 00 00 00 00 00 00 06 03 00 |................|
|00 00 70 00 00 03 2D A4 02 F7 00 00 00 00 00 00 |..p...-.........|
|00 00 00 1F 00 32 29 00 00 03 00 00 00 00 00 00 |.....2).........|
|00 00 00 00 00 00 00 2D 00 14 00 01 00 00 00 00 |.......-........|
|00 00 00 00 00 00 00 00 1C 4F 66 66 69 63 65 72 |.........Officer|
|27 73 20 41 6C 61 63 72 69 74 69 6F 75 73 20 45 |'s Alacritious E|
|6C 69 78 69 72 00 00 01 00 01 1E D2 00 3C 00 00 |lixir........<..|
|00 00 00 43 4F 66 66 69 63 65 72 27 73 20 52 65 |...COfficer's Re|
|73 65 72 76 65 2E 20 49 6D 62 69 62 65 20 77 69 |serve. Imbibe wi|
|74 68 20 70 72 69 64 65 2C 20 65 78 70 65 6C 20 |th pride, expel |
|77 69 74 68 20 65 78 74 72 65 6D 65 20 70 72 65 |with extreme pre|
|6A 75 64 69 63 65 2E 00 01 00 01 03 02 00 00 00 |judice..........|
|00 00 00 00 00 00 00 00 00 00 08 00 00 00 00 00 |................|
|00 00 01 00 03 2E 12 1E 22 13 53 6F 6C 64 69 65 |........".Soldie|
|72 27 73 20 4D 65 64 61 6C 6C 69 6F 6E 00 01 00 |r's Medallion...|
|00 00 00 00 00 00 00 00 00 00 00 00 00 00 00 00 |................|
|00 07 03 00 00 00 70 00 00 03 2D A4 02 F7 00 00 |......p...-.....|
|00 00 00 00 00 00 00 1F 00 32 29 00 00 03 00 00 |.........2).....|
|00 00 00 00 00 00 00 00 00 00 00 2D 00 14 00 01 |...........-....|
|00 00 00 00 00 00 00 00 00 00 00 00 1C 4F 66 66 |.............Off|
|69 63 65 72 27 73 20 41 6C 61 63 72 69 74 69 6F |icer's Alacritio|
|75 73 20 45 6C 69 78 69 72 00 00 01 00 01 1E D2 |us Elixir.......|
|00 3C 00 00 00 00 00 43 4F 66 66 69 63 65 72 27 |.<.....COfficer'|
|73 20 52 65 73 65 72 76 65 2E 20 49 6D 62 69 62 |s Reserve. Imbib|
|65 20 77 69 74 68 20 70 72 69 64 65 2C 20 65 78 |e with pride, ex|
|70 65 6C 20 77 69 74 68 20 65 78 74 72 65 6D 65 |pel with extreme|
|20 70 72 65 6A 75 64 69 63 65 2E 00 01 00 01 03 | prejudice......|
|02 00 00 00 00 00 00 00 00 00 00 00 00 00 08 00 |................|
|00 00 00 00 00 00 01 00 03 2E 31 22 7B 10 53 6F |..........1"{.So|
|6C 64 69 65 72 27 73 20 45 6D 62 6C 65 6D 00 01 |ldier's Emblem..|
|00 00 00 00 00 00 00 00 00 00 00 00 00 00 00 00 |................|
|00 00 08 03 00 00 00 70 00 00 03 2D 9A 02 F3 00 |.......p...-....|
|00 00 00 00 00 00 00 00 1F 00 28 1F 00 00 03 00 |..........(.....|
|00 00 00 00 00 00 00 00 00 00 00 00 2D 00 14 00 |............-...|
|01 00 00 00 00 00 00 00 00 00 00 00 00 1D 4F 66 |..............Of|
|66 69 63 65 72 27 73 20 50 68 69 61 6C 20 6F 66 |ficer's Phial of|
|20 41 64 72 65 6E 61 6C 69 6E 65 00 00 01 00 01 | Adrenaline.....|
|1E D2 00 3C 00 00 00 00 00 60 53 74 61 6E 64 61 |...<.....`Standa|
|72 64 20 69 73 73 75 65 2C 20 66 69 72 73 74 20 |rd issue, first |
|63 6C 61 73 73 2E 20 42 61 74 74 6C 65 20 66 61 |class. Battle fa|
|74 69 67 75 65 20 69 73 20 6E 61 74 75 72 65 27 |tigue is nature'|
|73 20 72 65 6D 69 6E 64 65 72 20 79 6F 75 20 61 |s reminder you a|
|72 65 6E 27 74 20 6B 69 6C 6C 69 6E 67 20 66 61 |ren't killing fa|
|73 74 20 65 6E 6F 75 67 68 2E 00 01 00 01 03 02 |st enough.......|
|20 00 00 00 00 00 00 00 00 00 00 00 00 08 00 00 | ...............|
|00 00 00 00 00 01 00 03 2E 12 1E 22 13 53 6F 6C |...........".Sol|
|64 69 65 72 27 73 20 4D 65 64 61 6C 6C 69 6F 6E |dier's Medallion|
|00 01 00 00 00 00 00 00 00 00 00 00 00 00 00 00 |................|
|00 00 00 00 09 03 00 00 00 70 00 00 03 2D 9A 02 |.........p...-..|
|F3 00 00 00 00 00 00 00 00 00 1F 00 28 1F 00 00 |............(...|
|03 00 00 00 00 00 00 00 00 00 00 00 00 00 2D 00 |..............-.|
|14 00 01 00 00 00 00 00 00 00 00 00 00 00 00 1D |................|
|4F 66 66 69 63 65 72 27 73 20 50 68 69 61 6C 20 |Officer's Phial |
|6F 66 20 41 64 72 65 6E 61 6C 69 6E 65 00 00 01 |of Adrenaline...|
|00 01 1E D2 00 3C 00 00 00 00 00 60 53 74 61 6E |.....<.....`Stan|
|64 61 72 64 20 69 73 73 75 65 2C 20 66 69 72 73 |dard issue, firs|
|74 20 63 6C 61 73 73 2E 20 42 61 74 74 6C 65 20 |t class. Battle |
|66 61 74 69 67 75 65 20 69 73 20 6E 61 74 75 72 |fatigue is natur|
|65 27 73 20 72 65 6D 69 6E 64 65 72 20 79 6F 75 |e's reminder you|
|20 61 72 65 6E 27 74 20 6B 69 6C 6C 69 6E 67 20 | aren't killing |
|66 61 73 74 20 65 6E 6F 75 67 68 2E 00 01 00 01 |fast enough.....|
|03 02 20 00 00 00 00 00 00 00 00 00 00 00 00 08 |.. .............|
|00 00 00 00 00 00 00 01 00 03 2E 31 22 7B 10 53 |...........1"{.S|
|6F 6C 64 69 65 72 27 73 20 45 6D 62 6C 65 6D 00 |oldier's Emblem.|
|01 00 00 00 00 00 00 00 00 00 00 00 00 00 00 00 |................|
|00 00 00 0A 03 00 00 00 70 00 00 03 2D 90 02 F3 |........p...-...|
|00 00 00 00 00 00 00 00 00 1F 00 1C 15 00 00 03 |................|
|00 00 00 00 00 00 00 00 00 00 00 00 00 2D 00 14 |.............-..|
|00 01 00 00 00 00 00 00 00 00 00 00 00 00 1A 53 |...............S|
|6F 6C 64 69 65 72 27 73 20 53 74 69 6D 75 6C 61 |oldier's Stimula|
|6E 74 20 50 6F 74 69 6F 6E 00 00 01 00 01 1E D2 |nt Potion.......|
|00 3C 00 00 00 00 00 52 53 74 61 6E 64 61 72 64 |.<.....RStandard|
|20 69 73 73 75 65 2C 20 73 65 63 6F 6E 64 20 63 | issue, second c|
|6C 61 73 73 2E 20 4B 65 65 70 20 73 77 69 6E 67 |lass. Keep swing|
|69 6E 67 2C 20 74 68 61 74 20 61 72 6D 79 20 69 |ing, that army i|
|73 6E 27 74 20 67 6F 69 6E 67 20 74 6F 20 6B 69 |sn't going to ki|
|6C 6C 20 69 74 73 65 6C 66 2E 00 01 00 01 03 02 |ll itself.......|
|20 00 00 00 00 00 00 00 00 00 00 00 00 08 00 00 | ...............|
|00 00 00 00 00 01 00 03 2E 12 1E 22 13 53 6F 6C |...........".Sol|
|64 69 65 72 27 73 20 4D 65 64 61 6C 6C 69 6F 6E |dier's Medallion|
|00 01 00 00 00 00 00 00 00 00 00 00 00 00 00 00 |................|
|00 00 00 00 0B 03 00 00 00 70 00 00 03 2D 90 02 |.........p...-..|
|F3 00 00 00 00 00 00 00 00 00 1F 00 1C 15 00 00 |................|
|03 00 00 00 00 00 00 00 00 00 00 00 00 00 2D 00 |..............-.|
|14 00 01 00 00 00 00 00 00 00 00 00 00 00 00 1A |................|
|53 6F 6C 64 69 65 72 27 73 20 53 74 69 6D 75 6C |Soldier's Stimul|
|61 6E 74 20 50 6F 74 69 6F 6E 00 00 01 00 01 1E |ant Potion......|
|D2 00 3C 00 00 00 00 00 52 53 74 61 6E 64 61 72 |..<.....RStandar|
|64 20 69 73 73 75 65 2C 20 73 65 63 6F 6E 64 20 |d issue, second |
|63 6C 61 73 73 2E 20 4B 65 65 70 20 73 77 69 6E |class. Keep swin|
|67 69 6E 67 2C 20 74 68 61 74 20 61 72 6D 79 20 |ging, that army |
|69 73 6E 27 74 20 67 6F 69 6E 67 20 74 6F 20 6B |isn't going to k|
|69 6C 6C 20 69 74 73 65 6C 66 2E 00 01 00 01 03 |ill itself......|
|02 20 00 00 00 00 00 00 00 00 00 00 00 00 08 00 |. ..............|
|00 00 00 00 00 00 01 00 03 2E 31 22 7B 10 53 6F |..........1"{.So|
|6C 64 69 65 72 27 73 20 45 6D 62 6C 65 6D 00 01 |ldier's Emblem..|
|00 00 00 00 00 00 00 00 00 00 00 00 00 00 00 00 |................|
|00 00 00                                        |...             |
-------------------------------------------------------------------
[Server] packet : (0xC0) F_STORE_BUY_BACK  Size = 5 
|------------------------------------------------|----------------|
|00 01 02 03 04 05 06 07 08 09 0A 0B 0C 0D 0E 0F |0123456789ABCDEF|
|------------------------------------------------|----------------|
|00 02 C0 00 00                                  |.....           |
-------------------------------------------------------------------
[Client] packet : (0xC8) F_INTERFACE_COMMAND  Size = 26 
|------------------------------------------------|----------------|
|00 01 02 03 04 05 06 07 08 09 0A 0B 0C 0D 0E 0F |0123456789ABCDEF|
|------------------------------------------------|----------------|
|00 0E A9 82 00 1F FF FF 00 C8 12 02 00 00 2E 12 |................|
|03 00 31 2E 03 00 00 00 00 00                   |..........      |
-------------------------------------------------------------------
[Server] packet : (0xAA) F_GET_ITEM  Size = 463 
|------------------------------------------------|----------------|
|00 01 02 03 04 05 06 07 08 09 0A 0B 0C 0D 0E 0F |0123456789ABCDEF|
|------------------------------------------------|----------------|
|01 CC AA 02 00 00 00 00 FE 00 00 03 2E 12 1E 22 |..............."|
|00 00 00 00 00 00 00 00 00 24 00 00 00 00 00 02 |.........$......|
|00 00 00 00 00 00 00 00 00 00 00 00 00 00 27 0F |..............'.|
|00 01 00 00 00 00 00 00 00 00 00 00 00 00 13 53 |...............S|
|6F 6C 64 69 65 72 27 73 20 4D 65 64 61 6C 6C 69 |oldier's Medalli|
|6F 6E 00 00 00 00 00 00 79 41 6E 20 65 6E 65 6D |on......yAn enem|
|79 20 73 6F 6C 64 69 65 72 27 73 20 6D 65 64 61 |y soldier's meda|
|6C 2E 20 54 68 65 73 65 20 63 61 6E 20 62 65 20 |l. These can be |
|75 73 65 64 20 74 6F 20 74 72 61 64 65 20 66 6F |used to trade fo|
|72 20 65 71 75 69 70 6D 65 6E 74 20 61 6E 64 20 |r equipment and |
|73 75 70 70 6C 69 65 73 20 61 74 20 74 68 65 20 |supplies at the |
|53 6F 6C 64 69 65 72 27 73 20 4D 65 64 61 6C 6C |Soldier's Medall|
|69 6F 6E 20 51 75 61 72 74 65 72 6D 61 73 74 65 |ion Quartermaste|
|72 2E 01 01 00 00 03 06 80 08 00 00 00 00 00 00 |r...............|
|00 00 00 00 00 00 00 00 00 00 00 00 00 00 FE 00 |................|
|00 03 2E 31 22 7B 00 00 00 00 00 00 00 00 00 24 |...1"{.........$|
|00 00 00 00 00 02 00 00 00 00 00 00 00 00 00 00 |................|
|00 00 00 00 27 0F 00 01 00 00 00 00 00 00 00 00 |....'...........|
|00 00 00 00 10 53 6F 6C 64 69 65 72 27 73 20 45 |.....Soldier's E|
|6D 62 6C 65 6D 00 00 00 00 00 00 77 41 6E 20 65 |mblem......wAn e|
|6E 65 6D 79 20 73 6F 6C 64 69 65 72 27 73 20 65 |nemy soldier's e|
|6D 62 6C 65 6D 2E 20 54 68 65 73 65 20 63 61 6E |mblem. These can|
|20 62 65 20 75 73 65 64 20 74 6F 20 74 72 61 64 | be used to trad|
|65 20 66 6F 72 20 65 71 75 69 70 6D 65 6E 74 20 |e for equipment |
|61 6E 64 20 73 75 70 70 6C 69 65 73 20 61 74 20 |and supplies at |
|74 68 65 20 53 6F 6C 64 69 65 72 27 73 20 45 6D |the Soldier's Em|
|62 6C 65 6D 20 51 75 61 72 74 65 72 6D 61 73 74 |blem Quartermast|
|65 72 2E 01 01 00 00 03 06 80 08 00 00 00 00 00 |er..............|
|00 00 00 00 00 00 00 00 00 00 00 00 00 00 00    |............... |
-------------------------------------------------------------------
[Client] packet : (0x01) UNKNOWN  Size = 32 
|------------------------------------------------|----------------|
|00 01 02 03 04 05 06 07 08 09 0A 0B 0C 0D 0E 0F |0123456789ABCDEF|
|------------------------------------------------|----------------|
|00 14 A9 85 00 1F 00 00 00 01 00 93 83 8F 00 23 |...............#|
|39 B0 08 18 C0 4A 20 07 6E EF 90 38 7D 46 18 00 |9....J .n..8}F..|                                                
-------------------------------------------------------------------
[Server] packet : (0x00) UNKNOWN  Size = 23 
|------------------------------------------------|----------------|
|00 01 02 03 04 05 06 07 08 09 0A 0B 0C 0D 0E 0F |0123456789ABCDEF|
|------------------------------------------------|----------------|
|00 14 00 00 93 83 8F 7C 77 DB 71 00 00 00 00 20 |.......|w.q.... |
|07 6E EF 90 38 7D 00                            |.......         |
-------------------------------------------------------------------
[Client] packet : (0x86) F_MAIL  Size = 16 
|------------------------------------------------|----------------|
|00 01 02 03 04 05 06 07 08 09 0A 0B 0C 0D 0E 0F |0123456789ABCDEF|
|------------------------------------------------|----------------|
|00 04 A9 87 00 1F FF FF 00 86 00 00 00 00 00 00 |................|                                                
-------------------------------------------------------------------