
[Client] packet : (0x0B) F_PING  Size = 32 
|------------------------------------------------|----------------|
|00 01 02 03 04 05 06 07 08 09 0A 0B 0C 0D 0E 0F |0123456789ABCDEF|
|------------------------------------------------|----------------|
|00 14 06 1A 00 2B 00 00 00 0B 00 06 4D 29 4B E0 |.....+......M)K.|
|01 05 49 42 AE 21 00 00 00 00 00 00 00 00 20 83 |..IB.!........ .|                                                
-------------------------------------------------------------------
[Server] packet : (0x81) S_PONG  Size = 23 
|------------------------------------------------|----------------|
|00 01 02 03 04 05 06 07 08 09 0A 0B 0C 0D 0E 0F |0123456789ABCDEF|
|------------------------------------------------|----------------|
|00 14 81 00 06 4D 29 52 75 8B 05 00 00 00 00 00 |.....M)Ru.......|
|00 06 1B 00 00 00 00                            |.......         |
-------------------------------------------------------------------
[Client] packet : (0xD2) F_INTERACT  Size = 24 
|------------------------------------------------|----------------|
|00 01 02 03 04 05 06 07 08 09 0A 0B 0C 0D 0E 0F |0123456789ABCDEF|
|------------------------------------------------|----------------|
|00 0C 06 1E 00 2B 00 00 00 D2 00 00 03 DC 00 00 |.....+..........|
|00 00 00 00 00 00 00 00                         |........        |
-------------------------------------------------------------------
[Client] packet : (0xE8) F_CLIENT_DATA  Size = 20 
|------------------------------------------------|----------------|
|00 01 02 03 04 05 06 07 08 09 0A 0B 0C 0D 0E 0F |0123456789ABCDEF|
|------------------------------------------------|----------------|
|00 08 06 20 00 2B 00 00 00 E8 00 34 00 04 6B 21 |... .+.....4..k!|
|01 00 00 00                                     |....            |
-------------------------------------------------------------------
[Server] packet : (0x7E) F_SET_ABILITY_TIMER  Size = 15 
|------------------------------------------------|----------------|
|00 01 02 03 04 05 06 07 08 09 0A 0B 0C 0D 0E 0F |0123456789ABCDEF|
|------------------------------------------------|----------------|
|00 0C 7E 00 01 01 00 00 00 00 00 00 00 00 00    |............... |
-------------------------------------------------------------------
[Server] packet : (0xE9) F_INTERACT_RESPONSE  Size = 11 
|------------------------------------------------|----------------|
|00 01 02 03 04 05 06 07 08 09 0A 0B 0C 0D 0E 0F |0123456789ABCDEF|
|------------------------------------------------|----------------|
|00 08 E9 00 03 DC 00 00 00 02 00                |...........     |
-------------------------------------------------------------------
[Client] packet : (0xD2) F_INTERACT  Size = 24 
|------------------------------------------------|----------------|
|00 01 02 03 04 05 06 07 08 09 0A 0B 0C 0D 0E 0F |0123456789ABCDEF|
|------------------------------------------------|----------------|
|00 0C 06 21 00 2B 00 00 00 D2 00 00 03 DC 00 09 |...!.+..........|
|00 00 00 00 00 00 FB 6D                         |........        |
-------------------------------------------------------------------
[Server] packet : (0xBF) F_INIT_STORE  Size = 3551 
|------------------------------------------------|----------------|
|00 01 02 03 04 05 06 07 08 09 0A 0B 0C 0D 0E 0F |0123456789ABCDEF|
|------------------------------------------------|----------------|
|0D DC BF 00 00 00 0F 01 01 00 00 00 01 00 1E 84 |................|
|80 00 00 03 2C B9 24 73 00 00 00 00 00 00 00 00 |....,.$s........|
|00 00 28 00 4B 00 00 03 00 04 00 00 00 00 00 00 |..(.K...........|
|00 00 00 0C 35 00 00 01 00 01 00 00 00 00 00 00 |....5...........|
|00 00 00 00 00 00 11 57 68 69 74 65 20 42 61 74 |.......White Bat|
|74 6C 65 20 57 6F 6C 66 00 00 01 00 00 39 FA 00 |tle Wolf.....9..|
|00 00 00 00 00 00 48 54 68 69 73 20 69 74 65 6D |......HThis item|
|20 77 69 6C 6C 20 73 75 6D 6D 6F 6E 20 79 6F 75 | will summon you|
|72 20 6D 69 67 68 74 79 20 73 74 65 65 64 2E 20 |r mighty steed. |
|54 6F 20 64 69 73 6D 6F 75 6E 74 2C 20 61 63 74 |To dismount, act|
|69 76 61 74 65 20 74 68 65 20 69 74 65 6D 2E 01 |ivate the item..|
|01 00 00 03 06 60 08 00 00 00 00 00 00 00 00 00 |.....`..........|
|00 00 00 00 00 27 8D 00 00 00 01 00 03 2E 56 22 |.....'........V"|
|B9 09 57 61 72 20 43 72 65 73 74 00 1E 00 00 00 |..War Crest.....|
|00 00 00 00 00 00 00 00 00 00 00 00 00 00 00 01 |................|
|01 00 1E 84 80 00 00 03 2C BA 24 73 00 00 00 00 |........,.$s....|
|00 00 00 00 00 00 28 00 4B 00 00 03 00 04 00 00 |......(.K.......|
|00 00 00 00 00 00 00 0C 35 00 00 01 00 01 00 00 |........5.......|
|00 00 00 00 00 00 00 00 00 00 11 42 72 6F 77 6E |...........Brown|
|20 42 61 74 74 6C 65 20 57 6F 6C 66 00 00 01 00 | Battle Wolf....|
|00 39 FB 00 00 00 00 00 00 00 48 54 68 69 73 20 |.9........HThis |
|69 74 65 6D 20 77 69 6C 6C 20 73 75 6D 6D 6F 6E |item will summon|
|20 79 6F 75 72 20 6D 69 67 68 74 79 20 73 74 65 | your mighty ste|
|65 64 2E 20 54 6F 20 64 69 73 6D 6F 75 6E 74 2C |ed. To dismount,|
|20 61 63 74 69 76 61 74 65 20 74 68 65 20 69 74 | activate the it|
|65 6D 2E 01 01 00 00 03 06 60 08 00 00 00 00 00 |em.......`......|
|00 00 00 00 00 00 00 00 00 27 8D 00 00 00 01 00 |.........'......|
|03 2E 56 22 B9 09 57 61 72 20 43 72 65 73 74 00 |..V"..War Crest.|
|1E 00 00 00 00 00 00 00 00 00 00 00 00 00 00 00 |................|
|00 00 00 02 01 00 1E 84 80 00 00 03 2C BB 24 73 |............,.$s|
|00 00 00 00 00 00 00 00 00 00 28 00 4B 00 00 03 |..........(.K...|
|00 04 00 00 00 00 00 00 00 00 00 0C 35 00 00 01 |............5...|
|00 01 00 00 00 00 00 00 00 00 00 00 00 00 0F 52 |...............R|
|65 64 20 42 61 74 74 6C 65 20 57 6F 6C 66 00 00 |ed Battle Wolf..|
|01 00 00 39 FC 00 00 00 00 00 00 00 48 54 68 69 |...9........HThi|
|73 20 69 74 65 6D 20 77 69 6C 6C 20 73 75 6D 6D |s item will summ|
|6F 6E 20 79 6F 75 72 20 6D 69 67 68 74 79 20 73 |on your mighty s|
|74 65 65 64 2E 20 54 6F 20 64 69 73 6D 6F 75 6E |teed. To dismoun|
|74 2C 20 61 63 74 69 76 61 74 65 20 74 68 65 20 |t, activate the |
|69 74 65 6D 2E 01 01 00 00 03 06 60 08 00 00 00 |item.......`....|
|00 00 00 00 00 00 00 00 00 00 00 27 8D 00 00 00 |...........'....|
|01 00 03 2E 56 22 B9 09 57 61 72 20 43 72 65 73 |....V"..War Cres|
|74 00 1E 00 00 00 00 00 00 00 00 00 00 00 00 00 |t...............|
|00 00 00 00 00 03 01 00 1E 84 80 00 00 03 2C BF |..............,.|
|24 74 00 00 00 00 00 00 00 00 00 00 28 00 4B 00 |$t..........(.K.|
|00 03 00 02 00 00 00 00 00 00 00 00 00 0C 35 00 |..............5.|
|00 01 00 01 00 00 00 00 00 00 00 00 00 00 00 00 |................|
|11 57 68 69 74 65 20 42 61 74 74 6C 65 20 42 6F |.White Battle Bo|
|61 72 00 00 01 00 00 3A 01 00 00 00 00 00 00 00 |ar.....:........|
|48 54 68 69 73 20 69 74 65 6D 20 77 69 6C 6C 20 |HThis item will |
|73 75 6D 6D 6F 6E 20 79 6F 75 72 20 6D 69 67 68 |summon your migh|
|74 79 20 73 74 65 65 64 2E 20 54 6F 20 64 69 73 |ty steed. To dis|
|6D 6F 75 6E 74 2C 20 61 63 74 69 76 61 74 65 20 |mount, activate |
|74 68 65 20 69 74 65 6D 2E 01 01 00 00 03 06 60 |the item.......`|
|08 00 00 00 00 00 00 00 00 00 00 00 00 00 00 27 |...............'|
|8D 00 00 00 01 00 03 2E 56 22 B9 09 57 61 72 20 |........V"..War |
|43 72 65 73 74 00 1E 00 00 00 00 00 00 00 00 00 |Crest...........|
|00 00 00 00 00 00 00 00 00 04 01 00 1E 84 80 00 |................|
|00 03 2C C0 24 74 00 00 00 00 00 00 00 00 00 00 |..,.$t..........|
|28 00 4B 00 00 03 00 02 00 00 00 00 00 00 00 00 |(.K.............|
|00 0C 35 00 00 01 00 01 00 00 00 00 00 00 00 00 |..5.............|
|00 00 00 00 13 42 72 69 6E 64 6C 65 20 42 61 74 |.....Brindle Bat|
|74 6C 65 20 42 6F 61 72 00 00 01 00 00 3A 02 00 |tle Boar.....:..|
|00 00 00 00 00 00 48 54 68 69 73 20 69 74 65 6D |......HThis item|
|20 77 69 6C 6C 20 73 75 6D 6D 6F 6E 20 79 6F 75 | will summon you|
|72 20 6D 69 67 68 74 79 20 73 74 65 65 64 2E 20 |r mighty steed. |
|54 6F 20 64 69 73 6D 6F 75 6E 74 2C 20 61 63 74 |To dismount, act|
|69 76 61 74 65 20 74 68 65 20 69 74 65 6D 2E 01 |ivate the item..|
|01 00 00 03 06 60 08 00 00 00 00 00 00 00 00 00 |.....`..........|
|00 00 00 00 00 27 8D 00 00 00 01 00 03 2E 56 22 |.....'........V"|
|B9 09 57 61 72 20 43 72 65 73 74 00 1E 00 00 00 |..War Crest.....|
|00 00 00 00 00 00 00 00 00 00 00 00 00 00 00 05 |................|
|01 00 1E 84 80 00 00 03 2C C1 24 74 00 00 00 00 |........,.$t....|
|00 00 00 00 00 00 28 00 4B 00 00 03 00 02 00 00 |......(.K.......|
|00 00 00 00 00 00 00 0C 35 00 00 01 00 01 00 00 |........5.......|
|00 00 00 00 00 00 00 00 00 00 11 53 74 72 61 77 |...........Straw|
|20 42 61 74 74 6C 65 20 42 6F 61 72 00 00 01 00 | Battle Boar....|
|00 3A 03 00 00 00 00 00 00 00 48 54 68 69 73 20 |.:........HThis |
|69 74 65 6D 20 77 69 6C 6C 20 73 75 6D 6D 6F 6E |item will summon|
|20 79 6F 75 72 20 6D 69 67 68 74 79 20 73 74 65 | your mighty ste|
|65 64 2E 20 54 6F 20 64 69 73 6D 6F 75 6E 74 2C |ed. To dismount,|
|20 61 63 74 69 76 61 74 65 20 74 68 65 20 69 74 | activate the it|
|65 6D 2E 01 01 00 00 03 06 60 08 00 00 00 00 00 |em.......`......|
|00 00 00 00 00 00 00 00 00 27 8D 00 00 00 01 00 |.........'......|
|03 2E 56 22 B9 09 57 61 72 20 43 72 65 73 74 00 |..V"..War Crest.|
|1E 00 00 00 00 00 00 00 00 00 00 00 00 00 00 00 |................|
|00 00 00 06 03 00 1E 84 80 00 00 03 2C CB 24 71 |............,.$q|
|00 00 00 00 00 00 00 00 00 00 28 00 4B 00 00 03 |..........(.K...|
|00 00 00 00 70 00 00 00 00 00 00 0C 35 00 00 01 |....p.......5...|
|00 01 00 00 00 00 00 00 00 00 00 00 00 00 23 54 |..............#T|
|61 69 6E 74 65 64 20 56 69 6F 6C 65 74 20 4D 61 |ainted Violet Ma|
|72 6F 6F 6E 20 45 78 61 6C 74 65 64 20 53 74 65 |roon Exalted Ste|
|65 64 00 00 01 00 00 3A 87 00 00 00 00 00 00 00 |ed.....:........|
|48 54 68 69 73 20 69 74 65 6D 20 77 69 6C 6C 20 |HThis item will |
|73 75 6D 6D 6F 6E 20 79 6F 75 72 20 6D 69 67 68 |summon your migh|
|74 79 20 73 74 65 65 64 2E 20 54 6F 20 64 69 73 |ty steed. To dis|
|6D 6F 75 6E 74 2C 20 61 63 74 69 76 61 74 65 20 |mount, activate |
|74 68 65 20 69 74 65 6D 2E 01 01 00 00 03 06 60 |the item.......`|
|08 00 00 00 00 00 00 00 00 00 00 00 00 00 00 27 |...............'|
|8D 00 00 00 01 00 03 2E 56 22 B9 09 57 61 72 20 |........V"..War |
|43 72 65 73 74 00 1E 00 00 00 00 00 00 00 00 00 |Crest...........|
|00 00 00 00 00 00 00 00 00 07 03 00 1E 84 80 00 |................|
|00 03 2C CC 24 71 00 00 00 00 00 00 00 00 00 00 |..,.$q..........|
|28 00 4B 00 00 03 00 00 00 00 70 00 00 00 00 00 |(.K.......p.....|
|00 0C 35 00 00 01 00 01 00 00 00 00 00 00 00 00 |..5.............|
|00 00 00 00 1D 52 75 62 79 20 44 61 65 6D 6F 6E |.....Ruby Daemon|
|20 52 65 64 20 45 78 61 6C 74 65 64 20 53 74 65 | Red Exalted Ste|
|65 64 00 00 01 00 00 3A 88 00 00 00 00 00 00 00 |ed.....:........|
|48 54 68 69 73 20 69 74 65 6D 20 77 69 6C 6C 20 |HThis item will |
|73 75 6D 6D 6F 6E 20 79 6F 75 72 20 6D 69 67 68 |summon your migh|
|74 79 20 73 74 65 65 64 2E 20 54 6F 20 64 69 73 |ty steed. To dis|
|6D 6F 75 6E 74 2C 20 61 63 74 69 76 61 74 65 20 |mount, activate |
|74 68 65 20 69 74 65 6D 2E 01 01 00 00 03 06 60 |the item.......`|
|08 00 00 00 00 00 00 00 00 00 00 00 00 00 00 27 |...............'|
|8D 00 00 00 01 00 03 2E 56 22 B9 09 57 61 72 20 |........V"..War |
|43 72 65 73 74 00 1E 00 00 00 00 00 00 00 00 00 |Crest...........|
|00 00 00 00 00 00 00 00 00 08 03 00 1E 84 80 00 |................|
|00 03 2C CD 24 71 00 00 00 00 00 00 00 00 00 00 |..,.$q..........|
|28 00 4B 00 00 03 00 00 00 00 70 00 00 00 00 00 |(.K.......p.....|
|00 0C 35 00 00 01 00 01 00 00 00 00 00 00 00 00 |..5.............|
|00 00 00 00 20 42 6F 6E 65 20 44 65 63 61 79 65 |.... Bone Decaye|
|64 20 46 6C 65 73 68 20 45 78 61 6C 74 65 64 20 |d Flesh Exalted |
|53 74 65 65 64 00 00 01 00 00 3A 89 00 00 00 00 |Steed.....:.....|
|00 00 00 48 54 68 69 73 20 69 74 65 6D 20 77 69 |...HThis item wi|
|6C 6C 20 73 75 6D 6D 6F 6E 20 79 6F 75 72 20 6D |ll summon your m|
|69 67 68 74 79 20 73 74 65 65 64 2E 20 54 6F 20 |ighty steed. To |
|64 69 73 6D 6F 75 6E 74 2C 20 61 63 74 69 76 61 |dismount, activa|
|74 65 20 74 68 65 20 69 74 65 6D 2E 01 01 00 00 |te the item.....|
|03 06 60 08 00 00 00 00 00 00 00 00 00 00 00 00 |..`.............|
|00 00 27 8D 00 00 00 01 00 03 2E 56 22 B9 09 57 |..'........V"..W|
|61 72 20 43 72 65 73 74 00 1E 00 00 00 00 00 00 |ar Crest........|
|00 00 00 00 00 00 00 00 00 00 00 00 09 01 00 1E |................|
|84 80 00 00 03 2C D7 24 72 00 00 00 00 00 00 00 |.....,.$r.......|
|00 00 00 28 00 4B 00 00 03 00 10 00 00 00 00 00 |...(.K..........|
|00 00 00 00 0C 35 00 00 01 00 01 00 00 00 00 00 |.....5..........|
|00 00 00 00 00 00 00 22 47 6C 61 63 69 65 72 20 |......."Glacier |
|42 6C 75 65 20 42 6C 6F 6F 64 74 68 69 72 73 74 |Blue Bloodthirst|
|79 20 43 6F 6C 64 20 4F 6E 65 00 00 01 00 00 3A |y Cold One.....:|
|95 00 00 00 00 00 00 00 48 54 68 69 73 20 69 74 |........HThis it|
|65 6D 20 77 69 6C 6C 20 73 75 6D 6D 6F 6E 20 79 |em will summon y|
|6F 75 72 20 6D 69 67 68 74 79 20 73 74 65 65 64 |our mighty steed|
|2E 20 54 6F 20 64 69 73 6D 6F 75 6E 74 2C 20 61 |. To dismount, a|
|63 74 69 76 61 74 65 20 74 68 65 20 69 74 65 6D |ctivate the item|
|2E 01 01 00 00 03 06 60 08 00 00 00 00 00 00 00 |.......`........|
|00 00 00 00 00 00 00 27 8D 00 00 00 01 00 03 2E |.......'........|
|56 22 B9 09 57 61 72 20 43 72 65 73 74 00 1E 00 |V"..War Crest...|
|00 00 00 00 00 00 00 00 00 00 00 00 00 00 00 00 |................|
|00 0A 01 00 1E 84 80 00 00 03 2C D8 24 72 00 00 |..........,.$r..|
|00 00 00 00 00 00 00 00 28 00 4B 00 00 03 00 10 |........(.K.....|
|00 00 00 00 00 00 00 00 00 0C 35 00 00 01 00 01 |..........5.....|
|00 00 00 00 00 00 00 00 00 00 00 00 21 42 6C 61 |............!Bla|
|63 6B 20 53 6C 61 74 65 20 42 6C 6F 6F 64 74 68 |ck Slate Bloodth|
|69 72 73 74 79 20 43 6F 6C 64 20 4F 6E 65 00 00 |irsty Cold One..|
|01 00 00 3A 96 00 00 00 00 00 00 00 48 54 68 69 |...:........HThi|
|73 20 69 74 65 6D 20 77 69 6C 6C 20 73 75 6D 6D |s item will summ|
|6F 6E 20 79 6F 75 72 20 6D 69 67 68 74 79 20 73 |on your mighty s|
|74 65 65 64 2E 20 54 6F 20 64 69 73 6D 6F 75 6E |teed. To dismoun|
|74 2C 20 61 63 74 69 76 61 74 65 20 74 68 65 20 |t, activate the |
|69 74 65 6D 2E 01 01 00 00 03 06 60 08 00 00 00 |item.......`....|
|00 00 00 00 00 00 00 00 00 00 00 27 8D 00 00 00 |...........'....|
|01 00 03 2E 56 22 B9 09 57 61 72 20 43 72 65 73 |....V"..War Cres|
|74 00 1E 00 00 00 00 00 00 00 00 00 00 00 00 00 |t...............|
|00 00 00 00 00 0B 01 00 1E 84 80 00 00 03 2C D9 |..............,.|
|24 72 00 00 00 00 00 00 00 00 00 00 28 00 4B 00 |$r..........(.K.|
|00 03 00 10 00 00 00 00 00 00 00 00 00 0C 35 00 |..............5.|
|00 01 00 01 00 00 00 00 00 00 00 00 00 00 00 00 |................|
|1B 47 72 65 65 6E 20 42 6C 6F 6F 64 74 68 69 72 |.Green Bloodthir|
|73 74 79 20 43 6F 6C 64 20 4F 6E 65 00 00 01 00 |sty Cold One....|
|00 3A 97 00 00 00 00 00 00 00 48 54 68 69 73 20 |.:........HThis |
|69 74 65 6D 20 77 69 6C 6C 20 73 75 6D 6D 6F 6E |item will summon|
|20 79 6F 75 72 20 6D 69 67 68 74 79 20 73 74 65 | your mighty ste|
|65 64 2E 20 54 6F 20 64 69 73 6D 6F 75 6E 74 2C |ed. To dismount,|
|20 61 63 74 69 76 61 74 65 20 74 68 65 20 69 74 | activate the it|
|65 6D 2E 01 01 00 00 03 06 60 08 00 00 00 00 00 |em.......`......|
|00 00 00 00 00 00 00 00 00 27 8D 00 00 00 01 00 |.........'......|
|03 2E 56 22 B9 09 57 61 72 20 43 72 65 73 74 00 |..V"..War Crest.|
|1E 00 00 00 00 00 00 00 00 00 00 00 00 00 00 00 |................|
|00 00 00 0C 01 00 1E 84 80 00 00 03 2C DD 24 78 |............,.$x|
|00 00 00 00 00 00 00 00 00 00 28 00 4B 00 00 03 |..........(.K...|
|00 00 00 00 80 00 00 00 00 00 00 0C 35 00 00 01 |............5...|
|00 01 00 00 00 00 00 00 00 00 00 00 00 00 1C 44 |...............D|
|65 63 61 79 65 64 20 46 6C 65 73 68 20 45 6D 70 |ecayed Flesh Emp|
|6F 77 65 72 65 64 20 44 69 73 63 00 00 01 00 00 |owered Disc.....|
|3C FC 00 00 00 00 00 00 00 48 54 68 69 73 20 69 |<........HThis i|
|74 65 6D 20 77 69 6C 6C 20 73 75 6D 6D 6F 6E 20 |tem will summon |
|79 6F 75 72 20 6D 69 67 68 74 79 20 73 74 65 65 |your mighty stee|
|64 2E 20 54 6F 20 64 69 73 6D 6F 75 6E 74 2C 20 |d. To dismount, |
|61 63 74 69 76 61 74 65 20 74 68 65 20 69 74 65 |activate the ite|
|6D 2E 01 01 00 00 03 06 60 08 00 00 00 00 00 00 |m.......`.......|
|00 00 00 00 00 00 00 00 27 8D 00 00 00 01 00 03 |........'.......|
|2E 56 22 B9 09 57 61 72 20 43 72 65 73 74 00 1E |.V"..War Crest..|
|00 00 00 00 00 00 00 00 00 00 00 00 00 00 00 00 |................|
|00 00 0D 01 00 1E 84 80 00 00 03 2C DE 24 79 00 |...........,.$y.|
|00 00 00 00 00 00 00 00 00 28 00 4B 00 00 03 00 |.........(.K....|
|00 00 00 80 00 00 00 00 00 00 0C 35 00 00 01 00 |...........5....|
|01 00 00 00 00 00 00 00 00 00 00 00 00 1B 4D 6F |..............Mo|
|6F 6E 6C 69 74 20 42 6C 75 65 20 45 6D 70 6F 77 |onlit Blue Empow|
|65 72 65 64 20 44 69 73 63 00 00 01 00 00 3C FD |ered Disc.....<.|
|00 00 00 00 00 00 00 48 54 68 69 73 20 69 74 65 |.......HThis ite|
|6D 20 77 69 6C 6C 20 73 75 6D 6D 6F 6E 20 79 6F |m will summon yo|
|75 72 20 6D 69 67 68 74 79 20 73 74 65 65 64 2E |ur mighty steed.|
|20 54 6F 20 64 69 73 6D 6F 75 6E 74 2C 20 61 63 | To dismount, ac|
|74 69 76 61 74 65 20 74 68 65 20 69 74 65 6D 2E |tivate the item.|
|01 01 00 00 03 06 60 08 00 00 00 00 00 00 00 00 |......`.........|
|00 00 00 00 00 00 27 8D 00 00 00 01 00 03 2E 56 |......'........V|
|22 B9 09 57 61 72 20 43 72 65 73 74 00 1E 00 00 |"..War Crest....|
|00 00 00 00 00 00 00 00 00 00 00 00 00 00 00 00 |................|
|0E 01 00 1E 84 80 00 00 03 2C DF 24 7A 00 00 00 |.........,.$z...|
|00 00 00 00 00 00 00 28 00 4B 00 00 03 00 00 00 |.......(.K......|
|00 80 00 00 00 00 00 00 0C 35 00 00 01 00 01 00 |.........5......|
|00 00 00 00 00 00 00 00 00 00 00 1B 47 6C 61 63 |............Glac|
|69 65 72 20 42 6C 75 65 20 45 6D 70 6F 77 65 72 |ier Blue Empower|
|65 64 20 44 69 73 63 00 00 01 00 00 3C FE 00 00 |ed Disc.....<...|
|00 00 00 00 00 48 54 68 69 73 20 69 74 65 6D 20 |.....HThis item |
|77 69 6C 6C 20 73 75 6D 6D 6F 6E 20 79 6F 75 72 |will summon your|
|20 6D 69 67 68 74 79 20 73 74 65 65 64 2E 20 54 | mighty steed. T|
|6F 20 64 69 73 6D 6F 75 6E 74 2C 20 61 63 74 69 |o dismount, acti|
|76 61 74 65 20 74 68 65 20 69 74 65 6D 2E 01 01 |vate the item...|
|00 00 03 06 60 08 00 00 00 00 00 00 00 00 00 00 |....`...........|
|00 00 00 00 27 8D 00 00 00 01 00 03 2E 56 22 B9 |....'........V".|
|09 57 61 72 20 43 72 65 73 74 00 1E 00 00 00 00 |.War Crest......|
|00 00 00 00 00 00 00 00 00 00 00 00 00 00 00    |............... |
-------------------------------------------------------------------
[Server] packet : (0xC0) F_STORE_BUY_BACK  Size = 5 
|------------------------------------------------|----------------|
|00 01 02 03 04 05 06 07 08 09 0A 0B 0C 0D 0E 0F |0123456789ABCDEF|
|------------------------------------------------|----------------|
|00 02 C0 00 00                                  |.....           |
-------------------------------------------------------------------
[Client] packet : (0x01) UNKNOWN  Size = 32 
|------------------------------------------------|----------------|
|00 01 02 03 04 05 06 07 08 09 0A 0B 0C 0D 0E 0F |0123456789ABCDEF|
|------------------------------------------------|----------------|
|00 14 06 23 00 2B 00 00 00 01 00 06 50 05 00 00 |...#.+......P...|
|00 00 00 00 00 00 00 00 44 03 00 00 26 8B A3 A4 |........D...&...|                                                
-------------------------------------------------------------------
[Server] packet : (0x00) UNKNOWN  Size = 23 
|------------------------------------------------|----------------|
|00 01 02 03 04 05 06 07 08 09 0A 0B 0C 0D 0E 0F |0123456789ABCDEF|
|------------------------------------------------|----------------|
|00 14 00 00 06 50 05 7C A7 21 A8 00 00 00 00 00 |.....P.|.!......|
|00 44 03 00 00 26 00                            |.......         |
-------------------------------------------------------------------
[Server] packet : (0xD7) F_INIT_EFFECTS  Size = 26 
|------------------------------------------------|----------------|
|00 01 02 03 04 05 06 07 08 09 0A 0B 0C 0D 0E 0F |0123456789ABCDEF|
|------------------------------------------------|----------------|
|00 17 D7 01 00 00 00 03 DC 01 00 5C 17 EE FF 8C |...........\....|
|02 DC 03 02 00 90 03 01 02 00                   |..........      |
-------------------------------------------------------------------
[Server] packet : (0x51) F_ANIMATION  Size = 9 
|------------------------------------------------|----------------|
|00 01 02 03 04 05 06 07 08 09 0A 0B 0C 0D 0E 0F |0123456789ABCDEF|
|------------------------------------------------|----------------|
|00 06 51 02 B2 00 00 00 00                      |.........       |
-------------------------------------------------------------------
[Client] packet : (0x16) F_REQUEST_INIT_OBJECT  Size = 16 
|------------------------------------------------|----------------|
|00 01 02 03 04 05 06 07 08 09 0A 0B 0C 0D 0E 0F |0123456789ABCDEF|
|------------------------------------------------|----------------|
|00 04 06 26 00 2B 00 00 00 16 00 5E 00 00 83 56 |...&.+.....^...V|                                                
-------------------------------------------------------------------
[Client] packet : (0x16) F_REQUEST_INIT_OBJECT  Size = 16 
|------------------------------------------------|----------------|
|00 01 02 03 04 05 06 07 08 09 0A 0B 0C 0D 0E 0F |0123456789ABCDEF|
|------------------------------------------------|----------------|
|00 04 06 27 00 2B 00 00 00 16 00 5F 00 00 90 1B |...'.+....._....|                                                
-------------------------------------------------------------------
[Client] packet : (0x16) F_REQUEST_INIT_OBJECT  Size = 16 
|------------------------------------------------|----------------|
|00 01 02 03 04 05 06 07 08 09 0A 0B 0C 0D 0E 0F |0123456789ABCDEF|
|------------------------------------------------|----------------|
|00 04 06 28 00 2B 00 00 00 16 09 D8 00 00 48 5A |...(.+........HZ|                                                
-------------------------------------------------------------------
[Client] packet : (0x16) F_REQUEST_INIT_OBJECT  Size = 16 
|------------------------------------------------|----------------|
|00 01 02 03 04 05 06 07 08 09 0A 0B 0C 0D 0E 0F |0123456789ABCDEF|
|------------------------------------------------|----------------|
|00 04 06 29 00 2B 00 00 00 16 02 7A 00 00 85 FB |...).+.....z....|                                                
-------------------------------------------------------------------
[Server] packet : (0x72) F_CREATE_MONSTER  Size = 113 
|------------------------------------------------|----------------|
|00 01 02 03 04 05 06 07 08 09 0A 0B 0C 0D 0E 0F |0123456789ABCDEF|
|------------------------------------------------|----------------|
|00 6E 72 00 5E 00 00 0B 27 42 78 00 06 AC BA 00 |.nr.^...'Bx.....|
|02 28 C3 00 00 06 49 34 28 83 00 00 00 00 00 00 |.(....I4(.......|
|00 00 00 03 E8 00 00 00 00 B7 AC 00 06 00 16 04 |................|
|18 19 1F 1C 00 4B 65 65 70 65 72 20 42 6C 6F 6F |.....Keeper Bloo|
|64 62 6F 72 6E 5E 4D 00 07 45 01 0A 00 00 00 12 |dborn^M..E......|
|0D 00 00 5E 6C BA A8 C3 42 78 64 00 A1 00 00 00 |...^l...Bxd.....|
|00 00 27 0B 00 5E 00 02 00 0A 15 1F 00 0B 07 10 |..'..^..........|
|00                                              |.               |
-------------------------------------------------------------------
[Server] packet : (0x72) F_CREATE_MONSTER  Size = 113 
|------------------------------------------------|----------------|
|00 01 02 03 04 05 06 07 08 09 0A 0B 0C 0D 0E 0F |0123456789ABCDEF|
|------------------------------------------------|----------------|
|00 6E 72 00 5F 00 00 09 99 42 78 00 06 AD 31 00 |.nr._....Bx...1.|
|02 29 01 00 00 06 49 34 28 83 00 00 00 00 00 00 |.)....I4(.......|
|00 00 00 03 E8 00 00 00 00 B7 AC 00 09 00 25 04 |..............%.|
|0E 18 19 1C 00 4B 65 65 70 65 72 20 57 72 61 74 |.....Keeper Wrat|
|68 77 69 6E 64 5E 4D 00 07 45 01 0A 00 00 00 12 |hwind^M..E......|
|0D 00 00 5F 6D 31 A9 01 42 78 64 00 A1 00 00 00 |..._m1..Bxd.....|
|00 00 99 09 00 5F 00 02 00 0A 15 1F 00 0B 07 11 |....._..........|
|00                                              |.               |
-------------------------------------------------------------------
[Server] packet : (0x72) F_CREATE_MONSTER  Size = 150 
|------------------------------------------------|----------------|
|00 01 02 03 04 05 06 07 08 09 0A 0B 0C 0D 0E 0F |0123456789ABCDEF|
|------------------------------------------------|----------------|
|00 93 72 09 D8 00 00 06 93 43 16 00 06 9B 80 00 |..r......C......|
|02 2C C7 00 00 04 C6 32 28 91 00 00 00 00 00 00 |.,.....2(.......|
|00 01 00 03 E8 00 00 00 00 B7 A4 00 02 00 00 02 |................|
|19 1D 00 44 72 65 61 64 20 53 65 6E 74 72 79 00 |...Dread Sentry.|
|00 00 03 04 01 06 02 00 00 00 00 00 00 00 00 00 |................|
|00 20 00 01 0A 00 00 00 00 00 00 00 12 25 00 09 |. ...........%..|
|D8 5B 80 AC C7 43 16 64 00 A1 00 00 00 20 00 93 |.[...C.d..... ..|
|06 09 D8 00 08 00 0A 07 15 00 0B 07 76 00 14 0A |............v...|
|DE 00 15 0A E0 00 16 16 2F 00 17 16 DD 00 18 16 |......../.......|
|DA 00 1C 0A DD 00                               |......          |
-------------------------------------------------------------------
[Server] packet : (0x72) F_CREATE_MONSTER  Size = 147 
|------------------------------------------------|----------------|
|00 01 02 03 04 05 06 07 08 09 0A 0B 0C 0D 0E 0F |0123456789ABCDEF|
|------------------------------------------------|----------------|
|00 90 72 02 7A 00 00 01 E9 42 EA 00 06 A1 B9 00 |..r.z....B......|
|02 20 BD 00 00 04 C4 34 28 83 00 00 00 00 00 00 |. .....4(.......|
|00 00 00 03 E8 00 00 00 00 BA C0 00 03 00 00 03 |................|
|05 19 1D 00 50 6C 65 75 72 65 73 73 20 74 68 65 |....Pleuress the|
|20 54 61 6B 65 72 5E 4D 00 00 07 04 03 00 09 00 | Taker^M........|
|00 00 00 00 00 00 00 00 01 0A 00 00 00 12 21 00 |..............!.|
|02 7A 61 B9 A0 BD 42 EA 64 00 A1 00 00 00 00 00 |.za...B.d.......|
|E9 01 02 7A 00 07 00 0A 07 0A 00 14 0A A6 00 15 |...z............|
|0A A8 00 16 0A A7 00 17 0A AA 00 18 0A A9 00 1C |................|
|0A A5 00                                        |...             |
-------------------------------------------------------------------
[Client] packet : (0x5A) F_PING_DATAGRAM  Size = 13 
|------------------------------------------------|----------------|
|00 01 02 03 04 05 06 07 08 09 0A 0B 0C 0D 0E 0F |0123456789ABCDEF|
|------------------------------------------------|----------------|
|00 01 06 2E 00 2B FF FF 00 5A 00 49 EC          |.............   |
-------------------------------------------------------------------
[Client] packet : (0x86) F_MAIL  Size = 16 
|------------------------------------------------|----------------|
|00 01 02 03 04 05 06 07 08 09 0A 0B 0C 0D 0E 0F |0123456789ABCDEF|
|------------------------------------------------|----------------|
|00 04 06 2E 00 2B FF FF 00 86 00 00 00 00 00 00 |.....+..........|                                                
-------------------------------------------------------------------
[Client] packet : (0x0B) F_PING  Size = 32 
|------------------------------------------------|----------------|
|00 01 02 03 04 05 06 07 08 09 0A 0B 0C 0D 0E 0F |0123456789ABCDEF|
|------------------------------------------------|----------------|
|00 14 06 2F 00 2B 00 00 00 0B 00 06 60 43 62 2F |.../.+......`Cb/|
|6F 78 DF 3A 4F 85 00 00 00 00 00 00 00 00 00 00 |ox.:O...........|                                                
-------------------------------------------------------------------
[Server] packet : (0x81) S_PONG  Size = 23 
|------------------------------------------------|----------------|
|00 01 02 03 04 05 06 07 08 09 0A 0B 0C 0D 0E 0F |0123456789ABCDEF|
|------------------------------------------------|----------------|
|00 14 81 00 06 60 43 52 75 8B 0A 00 00 00 00 00 |.....`CRu.......|
|00 06 30 00 00 00 00                            |.......         |
-------------------------------------------------------------------